1
1
1
1
1
1
1
1
1
1
1
1
1
2
2
2
2
2
2
2
3
3
3
3
3
4
4
4
5
5
5
5
6
6
7
7
7
8
8
9
a
a
b
b
c
d
e
e
f
10
11
12
13
15
16
17
19
1a
1c
1d
1f
21
23
25
27
2a
2c
2f
32
35
38
3b
3f
42
46
4a
4f
54
59
5e
64
69
70
76
7d
85
8d
95
9e
a7
b1
bc
c7
d3
df
ed
fb
10a
119
12a
13c
14e
162
177
18e
1a5
1be
1d9
1f5
212
232
253
276
29c
2c3
2ed
31a
349
37b
3b0
3e8
423
462
4a4
4ea
535
584
5d8
630
68e
6f2
75b
7cb
841
8be
943
9cf
a64
b02
ba9
c5a
d15
ddc
eae
f8d
1078
1172
127b
1393
14bc
15f7
1744
18a5
1a1b
1ba7
1d4a
1f07
20dd
22d0
24e0
2710
2960
2bd4
2e6d
312d
3417
372d
3a72
3de8
4194
4576
4994
4df0
528e
5773
5ca1
621e
67ef
6e17
749d
7b86
82d8
8a99
92cf
9b82
a4b9
ae7c
b8d3
c3c6
cf60
dbaa
e8ae
f677
10512
1148a
124ed
13648
148ab
15c25
170c6
186a0
19dc5
1b649
1d042
1ebc4
208e8
227c5
24877
26b19
28fc8
2b6a3
2dfcc
30b66
33994
36a80
39e51
3d534
40f58
44cee
48e2a
4d343
51c75
569fd
5bc1d
6131b
66f40
6d0db
7383f
7a5c3
819c4
894a5
916ce
9a0ad
a32b7
acd69
b7146
c1ed8
cd6b3
d9972
e67bc
f4240
1029b5
111ee2
122296
1335ad
145911
158db9
16d4ab
182efd
199dd4
1b2267
1cbe01
1e71fe
203fd1
222901
242f2d
