2d
2f
32
35
38
3b
3f
42
46
4a
4f
53
58
5d
62
68
6e
75
7b
83
8a
92
9b
a4
ad
b7
c2
cd
d9
e6
f3
101
110
120
130
142
155
168
17d
194
1ab
1c4
1de
1fa
217
236
257
27a
29f
2c6
2ef
31a
348
379
3ad
3e3
41d
45a
49b
4e0
528
575
5c6
61c
676
6d6
73c
7a8
819
892
911
998
a26
abd
b5d
c06
cb8
d76
e3e
f11
ff1
10de
11d9
12e2
13fb
1524
165e
17aa
190a
1a7e
1c08
1da9
1f61
2134
2321
252b
2754
299c
2c07
2e95
314a
3426
372d
3a61
3dc5
415b
4527
492a
4d6a
51e9
56aa
5bb2
6105
66a7
6c9d
72eb
7997
80a6
881e
9005
9862
a13b
aa97
b47f
befa
ca10
d5cb
e235
ef57
fd3c
10bf0
11b7f
12bf4
13d5e
14fcb
1634a
177eb
18dbe
1a4d6
1bd45
1d71f
1f279
20f6a
22e09
24e6f
270b7
294fc
2bb5c
2e3f7
30eed
33c62
36c7a
39f5d
3d535
40e2c
44a73
48a39
4cdb3
51518
560a3
5b090
60521
65e9a
6bd46
72171
78b6d
7fb8f
87235
8efbe
97491
a011a
a95cc
b331f
bd996
c89b6
d4410
e093c
ed9da
fb696
10a021
11973d
129cb0
13b152
14d604
160bb3
17535e
18ae0f
1a1ce0
1ba0fe
1d3ba4
1eee22
20b9da
22a042
24a2e8
26c36f
290394
2b652b
2dea28
309496
3366a4
36629d
398af2
3ce235
406b1f
442894
481d9f
4c4d7b
50bb92
556b81
5a611b
5fa06b
652db9
6b0d8c
7144ae
77d831
7ecd72
862a1f
8df437
963215
9eea73
a8246c
b1e788
bc3bbc
c72975
d2b99c
def5a1
ebe77d
f999be
1081792
1176cc9
127a5e4
138d020
14af97b
15e30c6
17285ac
18808c3
19ecb97
1b6e0b7
1d05bc7
1eb5190
207d80e
2260686
245f595
267bf46
28b7f28
2b15263
2d957d0
303b014
3307db7
35fe544
3920d64
3c71f00
3ff455f
43aae4d
4798a3f
4bc0c77
