3ffff
3ffff
3ffff
3ffff
3ffff
3ffff
3ffff
3ffff
3ffff
3ffff
3ffff
3fdfe
3fdfe
3fdfe
3fdfe
3fdfe
3fdfe
3fdfe
3fbfe
3fbfd
3fbfd
3fbfd
3fbfd
3fbfd
3f9fc
3f9fc
3f9fc
3f9fc
3f7fc
3f7fb
3f7fb
3f7fb
3f5fa
3f5fa
3f5fa
3f3fa
3f3f9
3f3f9
3f1f9
3f1f8
3f1f8
3eff8
3eff7
3eff7
3edf6
3edf6
3ebf6
3ebf5
3ebf5
3e9f4
3e9f4
3e7f4
3e7f3
3e5f3
3e5f2
3e3f2
3e3f1
3e1f1
3e1f0
3dff0
3dfef
3ddef
3ddee
3dbee
3dbed
3d9ed
3d9ec
3d7eb
3d7eb
3d5ea
3d3ea
3d3e9
3d1e8
3cfe8
3cfe7
3cde6
3cde6
3cbe5
3c9e5
3c9e4
3c7e3
3c5e3
3c3e2
3c3e1
3c1e0
3bfe0
3bfdf
3bdde
3bbdd
3b9dd
3b9dc
3b7db
3b5da
3b3da
3b3d9
3b1d8
3afd7
3add7
3abd6
3a9d5
3a9d4
3a7d3
3a5d2
3a3d2
3a1d1
39fd0
39dcf
39dce
39bcd
399cc
397cb
395ca
393ca
391c9
38fc8
38dc7
38bc6
389c5
387c4
385c3
385c2
383c1
381c0
37fbf
37dbe
37bbd
379bc
377bb
375ba
371b9
36fb8
36db7
36bb6
369b5
367b4
365b3
363b2
361b1
35faf
35dae
35bad
359ac
357ab
353aa
351a9
34fa8
34da7
34ba6
349a4
347a3
345a2
341a1
33fa0
33d9f
33b9d
3399c
3379b
3339a
33199
32f98
32d96
32b95
32794
32593
32391
32190
31d8f
31b8e
3198d
3178b
3138a
31189
30f88
30d86
30985
30784
30583
30381
2ff80
2fd7f
2fb7d
2f77c
2f57b
2f379
2f178
2ed77
2eb76
2e974
2e573
2e372
2e170
2dd6f
2db6e
2d96c
2d56b
2d36a
2d168
2cd67
2cb66
2c964
2c563
2c361
2bf60
2bd5f
2bb5d
2b75c
2b55b
2b359
2af58
2ad56
2a955
2a754
2a552
2a151
29f50
29b4e
2994d
2974b
2934a
29148
28d47
28b46
28944
28543
28341
27f40
27d3f
2793d
2773c
2753a
27139
26f37
26b36
26935
26533
26332
26130
25d2f
25b2d
2572c
2552b
25129
24f28
24d26
24925
24723
24322
24120
23d1f
23b1e
2371c
2351b
23319
22f18
22d16
22915
22713
22312
22111
21d0f
21b0e
2190c
2150b
21309
20f08
20d06
20905
20704
20302
20101
1feff
1fafe
1f8fc
1f4fb
1f2fa
1eef8
1ecf7
1e8f5
1e6f4
1e4f2
1e0f1
1deef
1daee
1d8ed
1d6eb
1d2ea
1d0e8
1cce7
1cae6
1c6e4
1c4e3
1c2e1
1bee0
1bcde
1b8dd
1b6dc
1b4da
1b0d9
1aed7
1aad6
1a8d5
1a6d3
1a2d2
1a0d0
19ccf
19ace
198cc
194cb
192ca
190c8
18cc7
18ac5
186c4
184c3
182c1
17ec0
17cbf
17abd
176bc
174bb
172b9
16eb8
16cb7
16ab5
166b4
164b3
162b1
15eb0
15caf
15aad
158ac
154ab
152aa
150a8
14ca7
14aa6
148a4
146a3
142a2
140a1
13e9f
13c9e
1389d
1369c
1349a
13299
12e98
12c97
12a95
12894
12493
12292
12091
11e8f
11c8e
1188d
1168c
1148b
1128a
11088
10e87
10a86
10885
10684
10483
10281
10080
fe7f
fc7e
f87d
f67c
f47b
f27a
f079
ee77
ec76
ea75
e874
e673
e472
e271
e070
dc6f
da6e
d86d
d66c
d46b
d26a
d069
ce68
cc67
ca66
c865
c864
c663
c462
c261
c060
be5f
bc5e
ba5d
b85d
b65c
b45b
b25a
b059
b058
ae57
ac56
aa55
a855
a654
a653
a452
a251
a050
9e50
9c4f
9c4e
9a4d
984d
964c
964b
944a
9249
9049
9048
8e47
8c47
8a46
8a45
8844
8644
8643
8442
8242
8241
8040
8040
7e3f
7c3f
7c3e
7a3d
783d
783c
763c
763b
743a
743a
7239
7239
7038
6e38
6e37
6c37
6c36
6a36
6a35
6a35
6834
6834
6633
6633
6433
6432
6232
6231
6231
6030
6030
6030
5e2f
5e2f
5e2f
5c2e
5c2e
5c2e
5a2d
5a2d
5a2d
582c
582c
582c
582c
562b
562b
562b
562b
542b
542a
542a
542a
542a
522a
5229
5229
5229
5229
5229
5229
5229
5028
5028
5028
5028
5028
5028
5028
5028
5028
5028
5028
