0
0
0
0
0
0
0
0
0
0
0
0
0
0
0
0
0
0
0
0
0
0
0
0
0
0
0
0
0
0
0
0
0
0
0
0
0
0
0
0
0
0
0
0
0
0
0
0
0
0
0
0
0
0
0
0
0
0
0
0
0
0
0
0
28c
285
27d
275
26d
265
25c
254
24c
243
23a
232
229
220
217
20d
204
1fb
1f1
1e8
1de
1d5
1cb
1c1
1b7
1ad
1a3
199
18e
184
179
16f
164
15a
14f
144
139
12e
123
118
10d
102
f7
eb
e0
d5
c9
be
b2
a7
9b
8f
83
78
6c
60
54
48
3c
30
24
18
c
0
258
251
24a
242
23b
234
22c
224
21c
215
20d
204
1fc
1f4
1ec
1e3
1db
1d2
1c9
1c1
1b8
1af
1a6
19d
194
18a
181
178
16e
165
15b
151
148
13e
134
12a
120
116
10c
102
f7
ed
e3
d8
ce
c3
b9
ae
a4
99
8e
84
79
6e
63
58
4d
42
37
2c
21
16
b
0
223
21d
216
210
209
202
1fb
1f4
1ed
1e6
1de
1d7
1d0
1c8
1c0
1b9
1b1
1a9
1a1
199
191
189
181
178
170
168
15f
157
14e
145
13c
134
12b
122
119
110
107
fd
f4
eb
e2
d8
cf
c5
bc
b2
a8
9f
95
8b
82
78
6e
64
5a
50
46
3c
32
28
1e
14
a
0
1ee
1e8
1e2
1dc
1d6
1d0
1ca
1c4
1bd
1b7
1b0
1a9
1a3
19c
195
18e
187
180
179
171
16a
163
15b
154
14c
145
13d
135
12d
126
11e
116
10e
106
fd
f5
ed
e5
dc
d4
cb
c3
ba
b2
a9
a1
98
8f
87
7e
75
6c
63
5a
51
48
3f
36
2d
24
1b
12
9
0
1b9
1b4
1ae
1a9
1a3
19e
198
193
18d
187
181
17b
175
16f
169
163
15d
156
150
149
143
13c
136
12f
128
121
11b
114
10d
106
ff
f7
f0
e9
e2
da
d3
cc
c4
bd
b5
ae
a6
9e
97
8f
87
80
78
70
68
60
58
50
48
40
38
30
28
20
18
10
8
0
183
17e
17a
175
170
16b
166
161
15c
157
152
14d
148
142
13d
138
132
12c
127
121
11b
116
110
10a
104
fe
f8
f2
ec
e6
df
d9
d3
cc
c6
c0
b9
b3
ac
a6
9f
98
92
8b
84
7d
77
70
69
62
5b
54
4d
46
3f
39
32
2a
23
1c
15
e
7
0
14d
149
145
141
13d
138
134
130
12c
127
123
11e
11a
115
111
10c
107
102
fd
f9
f4
ef
ea
e5
df
da
d5
d0
cb
c5
c0
bb
b5
b0
aa
a5
9f
9a
94
8e
89
83
7d
77
72
6c
66
60
5a
54
4e
48
42
3d
37
31
2a
24
1e
18
12
c
6
0
116
113
110
10c
109
105
102
fe
fa
f7
f3
ef
ec
e8
e4
e0
dc
d8
d4
d0
cc
c7
c3
bf
bb
b6
b2
ae
a9
a5
a0
9c
97
93
8e
8a
85
80
7c
77
72
6d
68
64
5f
5a
55
50
4b
46
41
3c
37
33
2e
28
23
1e
19
14
f
a
5
0
df
dd
da
d7
d4
d2
cf
cc
c9
c6
c3
c0
bd
ba
b7
b4
b0
ad
aa
a7
a3
a0
9d
99
96
92
8f
8b
88
84
81
7d
79
76
72
6e
6b
67
63
5f
5b
58
54
50
4c
48
44
40
3c
38
34
30
2c
28
24
20
1c
18
14
10
c
8
4
0
a8
a6
a4
a2
a0
9e
9c
99
97
95
93
90
8e
8c
8a
87
85
82
80
7d
7b
78
76
73
71
6e
6b
69
66
63
61
5e
5b
58
56
53
50
4d
4a
48
45
42
3f
3c
39
36
33
30
2d
2a
27
24
21
1e
1b
18
15
12
f
c
9
6
3
0
70
6f
6e
6c
6b
69
68
67
65
64
62
61
5f
5e
5c
5a
59
57
55
54
52
50
4f
4d
4b
4a
48
46
44
42
41
3f
3d
3b
39
37
36
34
32
30
2e
2c
2a
28
26
24
22
20
1e
1c
1a
18
16
14
12
10
e
c
a
8
6
4
2
0
38
38
37
36
36
35
34
34
33
32
31
31
30
2f
2e
2d
2d
2c
2b
2a
29
28
28
27
26
25
24
23
22
21
20
20
1f
1e
1d
1c
1b
1a
19
18
17
16
15
14
13
12
11
10
f
e
d
c
b
a
9
8
7
6
5
4
3
2
1
0
0
1
2
3
4
5
6
7
8
9
a
b
c
d
e
f
10
11
12
13
14
15
16
17
18
19
1a
1b
1c
1d
1e
1f
20
20
21
22
23
24
25
26
27
28
28
29
2a
2b
2c
2d
2d
2e
2f
30
31
31
32
33
34
34
35
36
36
37
38
38
0
2
4
6
8
a
c
e
10
12
14
16
18
1a
1c
1e
20
22
24
26
28
2a
2c
2e
30
32
34
36
37
39
3b
3d
3f
41
42
44
46
48
4a
4b
4d
4f
50
52
54
55
57
59
5a
5c
5e
5f
61
62
64
65
67
68
69
6b
6c
6e
6f
70
0
3
6
9
c
f
12
15
18
1b
1e
21
24
27
2a
2d
30
33
36
39
3c
3f
42
45
48
4a
4d
50
53
56
58
5b
5e
61
63
66
69
6b
6e
71
73
76
78
7b
7d
80
82
85
87
8a
8c
8e
90
93
95
97
99
9c
9e
a0
a2
a4
a6
a8
0
4
8
c
10
14
18
1c
20
24
28
2c
30
34
38
3c
40
44
48
4c
50
54
58
5b
5f
63
67
6b
6e
72
76
79
7d
81
84
88
8b
8f
92
96
99
9d
a0
a3
a7
aa
ad
b0
b4
b7
ba
bd
c0
c3
c6
c9
cc
cf
d2
d4
d7
da
dd
df
0
5
a
f
14
19
1e
23
28
2e
33
37
3c
41
46
4b
50
55
5a
5f
64
68
6d
72
77
7c
80
85
8a
8e
93
97
9c
a0
a5
a9
ae
b2
b6
bb
bf
c3
c7
cc
d0
d4
d8
dc
e0
e4
e8
ec
ef
f3
f7
fa
fe
102
105
109
10c
110
113
116
0
6
c
12
18
1e
24
2a
31
37
3d
42
48
4e
54
5a
60
66
6c
72
77
7d
83
89
8e
94
9a
9f
a5
aa
b0
b5
bb
c0
c5
cb
d0
d5
da
df
e5
ea
ef
f4
f9
fd
102
107
10c
111
115
11a
11e
123
127
12c
130
134
138
13d
141
145
149
14d
0
7
e
15
1c
23
2a
32
39
3f
46
4d
54
5b
62
69
70
77
7d
84
8b
92
98
9f
a6
ac
b3
b9
c0
c6
cc
d3
d9
df
e6
ec
f2
f8
fe
104
10a
110
116
11b
121
127
12c
132
138
13d
142
148
14d
152
157
15c
161
166
16b
170
175
17a
17e
183
0
8
10
18
20
28
30
38
40
48
50
58
60
68
70
78
80
87
8f
97
9e
a6
ae
b5
bd
c4
cc
d3
da
e2
e9
f0
f7
ff
106
10d
114
11b
121
128
12f
136
13c
143
149
150
156
15d
163
169
16f
175
17b
181
187
18d
193
198
19e
1a3
1a9
1ae
1b4
1b9
0
9
12
1b
24
2d
36
3f
48
51
5a
63
6c
75
7e
87
8f
98
a1
a9
b2
ba
c3
cb
d4
dc
e5
ed
f5
fd
106
10e
116
11e
126
12d
135
13d
145
14c
154
15b
163
16a
171
179
180
187
18e
195
19c
1a3
1a9
1b0
1b7
1bd
1c4
1ca
1d0
1d6
1dc
1e2
1e8
1ee
0
a
14
1e
28
32
3c
46
50
5a
64
6e
78
82
8b
95
9f
a8
b2
bc
c5
cf
d8
e2
eb
f4
fd
107
110
119
122
12b
134
13c
145
14e
157
15f
168
170
178
181
189
191
199
1a1
1a9
1b1
1b9
1c0
1c8
1d0
1d7
1de
1e6
1ed
1f4
1fb
202
209
210
216
21d
223
0
b
16
21
2c
37
42
4d
58
63
6e
79
84
8e
99
a4
ae
b9
c3
ce
d8
e3
ed
f7
102
10c
116
120
12a
134
13e
148
151
15b
165
16e
178
181
18a
194
19d
1a6
1af
1b8
1c1
1c9
1d2
1db
1e3
1ec
1f4
1fc
204
20d
215
21c
224
22c
234
23b
242
24a
251
258
0
c
18
24
30
3c
48
54
60
6c
78
83
8f
9b
a7
b2
be
c9
d5
e0
eb
f7
102
10d
118
123
12e
139
144
14f
15a
164
16f
179
184
18e
199
1a3
1ad
1b7
1c1
1cb
1d5
1de
1e8
1f1
1fb
204
20d
217
220
229
232
23a
243
24c
254
25c
265
26d
275
27d
285
28c
0
e
1b
29
37
44
52
5f
6d
7a
88
95
a2
b0
bd
ca
d7
e4
f1
fe
10b
118
124
131
13e
14a
156
163
16f
17b
187
193
19f
1ab
1b7
1c3
1ce
1da
1e5
1f1
1fc
207
212
21d
228
233
23e
248
253
25d
267
271
27b
285
28f
299
2a2
2ac
2b5
2be
2c7
2d0
2d9
2e2
2e2
2d9
2d0
2c7
2be
2b5
2ac
2a2
299
28f
285
27b
271
267
25d
253
248
23e
233
228
21d
212
207
1fc
1f1
1e5
1da
1ce
1c3
1b7
1ab
19f
193
187
17b
16f
163
156
14a
13e
131
124
118
10b
fe
f1
e4
d7
ca
bd
b0
a2
95
88
7a
6d
5f
52
44
37
29
1b
e
0
