0308020c
1308020d
1308020b
1308020e
1308020a
1308020f
13080209
13080210
13080208
13080211
13080207
23080212
0318020c
1318020d
1318020b
1318020e
1318020a
1318020f
13180209
13180210
13180208
13180211
13180207
23180212
0328020c
1328020d
1328020b
1328020e
1328020a
1328020f
13280209
13280210
13280208
13280211
13280207
23280212
0338020c
1338020d
1338020b
1338020e
1338020a
1338020f
13380209
13380210
13380208
13380211
13380207
23380212
0348020c
1348020d
1348020b
1348020e
1348020a
1348020f
13480209
13480210
13480208
13480211
13480207
23480212
0358020c
1358020d
1358020b
1358020e
1358020a
1358020f
13580209
13580210
13580208
13580211
13580207
23580212
0368020c
1368020d
1368020b
1368020e
1368020a
1368020f
13680209
13680210
13680208
13680211
13680207
23680212
0378020c
1378020d
1378020b
1378020e
1378020a
1378020f
13780209
13780210
13780208
13780211
13780207
23780212
45282500
55282500
55282500
55282500
55282500
55282500
55282500
55282500
55282500
55282500
55282500
55282500
55282500
55282500
75282500
65282500
45382500
55382500
55382500
55382500
55382500
55382500
55382500
55382500
55382500
55382500
55382500
55382500
55382500
55382500
75382500
65382500
45482500
55482500
55482500
55482500
55482500
55482500
55482500
55482500
55482500
55482500
55482500
55482500
55482500
55482500
75482500
65482500
45582500
55582500
55582500
55582500
55582500
55582500
55582500
55582500
55582500
55582500
55582500
55582500
55582500
55582500
75582500
65582500
ffffffff
