1c3a7bf
1c5885b
1c769e9
1c94c62
1cb2fbd
1cd13f2
1cef8fb
1d0decf
1d2c566
1d4acb8
1d694be
1d87d6f
1da66c4
1dc50b5
1de3b39
1e0264a
1e211de
1e3fdee
1e5ea72
1e7d763
1e9c4b7
1ebb268
1eda06c
1ef8ebd
1f17d52
1f36c22
1f55b27
1f74a59
1f939ae
1fb291f
1fd18a4
1ff0835
f7cb
2e75c
4d6e1
6c652
8b5a7
aa4d9
c93de
e82ae
107143
125f94
144d98
163b49
18289d
1a158e
1c0212
1dee22
1fd9b6
21c4c7
23af4b
25993c
278291
296b42
2b5348
2d3a9a
2f2131
310705
32ec0e
34d043
36b39e
389617
3a77a5
3c5841
1e1d3e0
1e2c42e
1e3b4f5
1e4a631
1e597de
1e689f9
1e77c7e
1e86f67
1e962b3
1ea565c
1eb4a5f
1ec3eb8
1ed3362
1ee285a
1ef1d9d
1f01325
1f108ef
1f1fef7
1f2f539
1f3ebb1
1f4e25c
1f5d934
1f6d036
1f7c75e
1f8bea9
1f9b611
1faad94
1fba52c
1fc9cd7
1fd948f
1fe8c52
1ff841b
7be5
173ae
26b71
36329
45ad4
5526c
649ef
74157
838a2
92fca
a26cc
b1da4
c144f
d0ac7
e0109
ef711
fecdb
10e263
11d7a6
12cc9e
13c148
14b5a1
15a9a4
169d4d
179099
188382
197607
1a6822
1b59cf
1c4b0b
1d3bd2
1e2c20
0
78e7
edfc
15f3b
1cca3
23633
29be9
2fdc2
35bbe
3b5db
40c18
45e72
4acea
4f77d
53e2a
580f0
5bfce
5fac4
631cf
664f0
69425
6bf6d
6e6c9
70a36
729b6
74546
75ce8
7709a
7805b
78c2d
7940e
797ff
797ff
7940e
78c2d
7805b
7709a
75ce8
74546
729b6
70a36
6e6c9
6bf6d
69425
664f0
631cf
5fac4
5bfce
580f0
53e2a
4f77d
4acea
45e72
40c18
3b5db
35bbe
2fdc2
29be9
23633
1cca3
15f3b
edfc
78e7
0
0
3c74
76fe
af9d
e652
11b1a
14df4
17ee1
1addf
1daee
2060c
22f39
25675
27bbe
29f15
2c078
2dfe7
2fd62
318e7
33278
34a12
35fb7
37364
3851b
394db
3a2a3
3ae74
3b84d
3c02e
3c616
3ca07
3cbff
3cbff
3ca07
3c616
3c02e
3b84d
3ae74
3a2a3
394db
3851b
37364
35fb7
34a12
33278
318e7
2fd62
2dfe7
2c078
29f15
27bbe
25675
22f39
2060c
1daee
1addf
17ee1
14df4
11b1a
e652
af9d
76fe
3c74
0
1c497ee
1c67904
1c85b09
1ca3df3
1cc21bd
1ce065d
1cfebcc
1d1d202
1d3b8f8
1d5a0a5
1d78901
1d97206
1db5ba9
1dd45e5
1df30b0
1e11c04
1e307d7
1e4f422
1e6e0de
1e8ce01
1eabb84
1eca960
1ee978c
1f085ff
1f274b3
1f4639f
1f652bb
1f841ff
1fa3163
1fc20df
1fe106c
0
1ef94
3df21
5ce9d
7be01
9ad45
b9c61
d8b4d
f7a01
116874
1356a0
15447c
1731ff
191f22
1b0bde
1cf829
1ee3fc
20cf50
22ba1b
24a457
268dfa
2876ff
2a5f5b
2c4708
2e2dfe
301434
31f9a3
33de43
35c20d
37a4f7
3986fc
3b6812
3d4831
1e24bf7
1e33c82
1e42d84
1e51efa
1e610de
1e7032e
1e7f5e6
1e8e901
1e9dc7c
1ead052
1ebc481
1ecb903
1edadd5
1eea2f2
1ef9858
1f08e02
1f183ec
1f27a11
1f3706f
1f46700
1f55dc2
1f654b0
1f74bc6
1f84300
1f93a5a
1fa31cf
1fb295d
1fc2100
1fd18b2
1fe1070
1ff0836
0
f7ca
1ef90
2e74e
3df00
4d6a3
5ce31
6c5a6
7bd00
8b43a
9ab50
aa23e
b9900
c8f91
d85ef
e7c14
f71fe
1067a8
115d0e
12522b
1346fd
143b7f
152fae
162384
1716ff
180a1a
18fcd2
19ef22
1ae106
1bd27c
1cc37e
1db409
1ea419
3cee
b3ec
12716
1966a
201e6
26989
2cd51
32d3c
38949
3e176
435c2
4862b
4d2b0
51b50
5600a
5a0dc
5ddc6
616c7
64bdd
67d08
6aa46
6d399
6f8fd
71a74
737fc
75195
7673f
778f8
786c2
7909b
79684
7987d
79684
7909b
786c2
778f8
7673f
75195
737fc
71a74
6f8fd
6d399
6aa46
67d08
64bdd
616c7
5ddc6
5a0dc
5600a
51b50
4d2b0
4862b
435c2
3e176
38949
32d3c
2cd51
26989
201e6
1966a
12716
b3ec
3cee
1ffc21e
1e77
59f6
938b
cb35
100f3
134c5
166a9
1969e
1c4a4
1f0bb
21ae1
24315
26958
28da8
2b005
2d06e
2eee3
30b63
325ee
33e84
35523
369cc
37c7f
38d3a
39bfe
3a8cb
3b39f
3bc7c
3c361
3c84e
3cb42
3cc3e
3cb42
3c84e
3c361
3bc7c
3b39f
3a8cb
39bfe
38d3a
37c7f
369cc
35523
33e84
325ee
30b63
2eee3
2d06e
2b005
28da8
26958
24315
21ae1
1f0bb
1c4a4
1969e
166a9
134c5
100f3
cb35
938b
59f6
1e77
1ffe10f
3fefb7f
2adc0c
273bd9
239995
1ff571
1c4f9e
18a84c
14ffae
1155f5
dab51
9fff6
65413
2a7db
3fb4f31
3f7a322
3f3f783
3f04c88
3eca260
3e8f93d
3e55151
3e1aacd
3de05e3
3da62c3
3d6c19e
3d322a6
3bcc28a
414634
3fefb7f
3fefb7f
3fefb7f
3fefb7f
3db5d41
0
2bdcca
283d32
249b7c
20f7d8
1d5277
19ab8b
160344
1259d4
eaf6c
b043f
7587c
3ac57
3fc53a9
3f8a784
3f4fbc1
3f15094
3eda62c
3e9fcbc
3e65475
3e2ad89
3df0828
3db6484
3d7c2ce
3d42336
3bdbe09
4241f7
0
0
0
0
3dc5f27
3f70da
68ff38
65a2d7
62411b
5eda32
5b6e49
57fd8e
54882f
510e5c
4d9044
4a0e15
4687fe
42fe30
3be02c
384c56
34b588
311bf3
2d7fc8
29e137
264070
229da6
1ef908
1b52c8
17ab18
140228
3fd1696
7d7855
3f70da
3f70da
3f70da
3f70da
1c4e74
3de83f3
a7f07
6d334
32704
3ff7aaa
3fbce57
3f8223d
3f4768c
3f0cb78
3ed2130
3e977e8
3e5cfcf
3e22917
3dae092
3d73f26
3d39fdf
3d002f0
3cc6888
3c8d0d8
3c53c11
3c1aa63
3be1bfe
3ba9111
3b709ce
3b38664
39df7ca
215847
3de83f3
3de83f3
3de83f3
3de83f3
3bb84e1
3000085
3039d00
3030638
3027cc5
30200b0
30191fd
30130b4
300dcd9
3009670
3005d7e
3003204
3001407
3000387
3000b01
30022fa
3004870
3007b61
300bbc9
30109a5
30164f2
301cdaa
30243c8
302c746
303581d
303f644
308fd02
3087629
3000085
3000085
3000085
3000085
302a28f
3000000
303c91f
3032ea7
302a183
30221b9
301af50
3014a4f
300f2bb
300a898
3006beb
3003cb6
3001afc
30006bf
30006bf
3001afc
3003cb6
3006beb
300a898
300f2bb
3014a4f
301af50
30221b9
302a183
3032ea7
303c91f
308b916
308b916
3000000
3000000
3000000
3000000
3027dcb
307fc41
31685d1
3150a4b
3139b28
312387a
310e255
30f98ca
30e5beb
30d2bc9
30c0873
30af1f8
309e869
308ebd2
30719c2
3064462
3057c2b
304c129
3041364
30372e7
302dfba
30259e4
301e16d
301765a
30118b2
300c87a
300043d
320db1f
307fc41
307fc41
307fc41
307fc41
30191dc
3023307
300371c
300174b
30004f8
3000023
30008cc
3001ef2
3004296
30073b4
300b24a
300fe55
30157d0
301beb8
302b4b6
30343bf
303e01a
30489bf
30540a5
30604c2
306d60d
307b479
3089ffc
3099889
30a9e12
30bb08a
313838a
3022e51
3023307
3023307
3023307
3023307
3095457
1f7740
1d71f1
1b6c28
1965ed
175f49
155844
1350e7
11493a
f4145
d3911
b30a6
9280d
71f4e
51671
30d80
10481
3fefb7f
3fcf280
3fae98f
3f8e0b2
3f6d7f3
3f4cf5a
3f2c6ef
3f0bebb
3eeb6c6
3ecaf19
3eaa7bc
3e8a0b7
3e69a13
3e493d8
3e28e0f
3e088c0
1e74a9
1c6f1b
1a6918
1862a8
165bd2
1454a0
124d1a
104548
e3d32
c34e2
a2c5f
823b2
61ae3
411fa
20901
0
3fdf6ff
3fbee06
3f9e51d
3f7dc4e
3f5d3a1
3f3cb1e
3f1c2ce
3efbab8
3edb2e6
3ebab60
3e9a42e
3e79d58
3e596e8
3e390e5
3e18b57
3df8648
301f0ef
301b2f3
3017915
3014355
30111b4
300e433
300bad2
3009593
3007476
300577b
3003ea3
30029ef
300195e
3000cf2
30004a9
3000085
3000085
30004a9
3000cf2
300195e
30029ef
3003ea3
300577b
3007476
3009593
300bad2
300e433
30111b4
3014355
3017915
301b2f3
301f0ef
301d16d
3019580
3015db1
3012a00
300fa6f
300cefe
300a7ae
3008480
3006574
3004a8b
30033c5
3002122
30012a3
3000849
3000212
3000000
3000212
3000849
30012a3
3002122
30033c5
3004a8b
3006574
3008480
300a7ae
300cefe
300fa6f
3012a00
3015db1
3019580
301d16d
3021177
0
295012
25d4dc
225ad6
1ee22e
1b6b14
17f5b6
148244
1110ea
da1d9
a353e
6cb47
36423
1fc9bdd
1f934b9
1f5cac2
1f25e27
1eeef16
1eb7dbc
1e80a4a
1e494ec
1e11dd2
1dda52a
1da2b24
1d6afee
1c0e2b6
3f1d4a
0
0
0
0
f38
0
14a809
12ea6e
112d6b
f7117
db58a
bfadb
a4122
88875
6d0ed
51a9f
365a4
1b212
1fe4dee
1fc9a5c
1fae561
1f92f13
1f7778b
1f5bede
1f40525
1f24a76
1f08ee9
1eed295
1ed1592
1eb57f7
1e0715b
1f8ea5
0
0
0
0
79c
11416d3
10d3d07
10d8956
10de26c
10e4844
10ebadb
10f3a29
10fc627
1105ecf
1110418
111b5fa
112746c
1133f62
1133f62
112746c
111b5fa
1110418
1105ecf
10fc627
10f3a29
10ebadb
10e4844
10de26c
10d8956
10d3d07
10c825f
10c825f
0
0
0
0
8000
18a0b6a
1869e84
186c4ab
186f136
1872422
1875d6d
1879d14
187e314
1882f68
188820c
188dafd
1893a36
1899fb1
1899fb1
1893a36
188dafd
188820c
1882f68
187e314
1879d14
1875d6d
1872422
186f136
186c4ab
1869e84
186412f
186412f
0
0
0
0
8000
