0
0
0
0
0
0
0
0
0
0
0
0
0
0
0
0
0
0
0
0
0
0
0
0
0
0
0
0
0
0
0
0
0
0
0
0
0
0
0
0
0
0
0
0
0
0
0
0
0
0
0
0
0
0
0
0
0
0
0
0
0
0
0
0
4ec
4da
4c8
4b5
4a3
491
47e
46c
459
446
434
421
40e
3fb
3e8
3d5
3c1
3ae
39b
387
374
360
34d
339
325
312
2fe
2ea
2d6
2c2
2ae
29a
285
271
25d
249
234
220
20b
1f7
1e2
1ce
1b9
1a4
190
17b
166
151
13d
128
113
fe
e9
d4
bf
aa
95
7f
6a
55
40
2b
16
0
485
475
464
453
443
432
421
410
3fe
3ed
3dc
3cb
3b9
3a8
396
385
373
361
34f
33e
32c
31a
308
2f6
2e4
2d1
2bf
2ad
29a
288
276
263
251
23e
22b
219
206
1f3
1e0
1ce
1bb
1a8
195
182
16f
15c
149
136
123
10f
fc
e9
d6
c2
af
9c
88
75
62
4e
3b
27
14
0
41f
40f
400
3f1
3e1
3d2
3c3
3b3
3a3
394
384
374
364
354
344
334
324
314
304
2f4
2e3
2d3
2c2
2b2
2a1
291
280
270
25f
24e
23d
22c
21c
20b
1fa
1e9
1d8
1c7
1b5
1a4
193
182
171
15f
14e
13d
12b
11a
108
f7
e5
d4
c2
b1
9f
8e
7c
6a
59
47
36
24
12
0
3b7
3a9
39c
38e
380
372
364
356
348
33a
32c
31d
30f
301
2f2
2e4
2d5
2c7
2b8
2a9
29a
28c
27d
26e
25f
250
241
232
223
214
205
1f6
1e6
1d7
1c8
1b8
1a9
19a
18a
17b
16b
15c
14c
13d
12d
11d
10e
fe
ee
df
cf
bf
af
9f
90
80
70
60
50
40
30
20
10
0
34f
343
337
32a
31e
312
305
2f9
2ec
2df
2d3
2c6
2b9
2ac
2a0
293
286
279
26c
25f
251
244
237
22a
21d
20f
202
1f4
1e7
1da
1cc
1bf
1b1
1a3
196
188
17a
16d
15f
151
143
136
128
11a
10c
fe
f0
e2
d4
c6
b8
aa
9c
8e
80
72
64
55
47
39
2b
1d
f
0
2e7
2dc
2d1
2c6
2bc
2b1
2a6
29b
290
285
27a
26e
263
258
24d
241
236
22b
21f
214
208
1fd
1f1
1e5
1da
1ce
1c2
1b7
1ab
19f
193
187
17b
16f
164
158
14c
140
133
127
11b
10f
103
f7
eb
de
d2
c6
ba
ae
a1
95
89
7c
70
64
57
4b
3e
32
26
19
d
0
27e
275
26b
262
259
24f
246
23d
233
22a
220
216
20d
203
1f9
1f0
1e6
1dc
1d2
1c8
1bf
1b5
1ab
1a1
197
18d
183
179
16e
164
15a
150
146
13b
131
127
11d
112
108
fe
f3
e9
de
d4
c9
bf
b4
aa
9f
95
8a
80
75
6b
60
55
4b
40
36
2b
20
16
b
0
215
20d
205
1fd
1f6
1ee
1e6
1de
1d6
1ce
1c6
1be
1b6
1ae
1a6
19e
196
18e
185
17d
175
16c
164
15c
153
14b
143
13a
132
129
121
118
110
107
ff
f6
ed
e5
dc
d4
cb
c2
ba
b1
a8
9f
97
8e
85
7c
73
6b
62
59
50
47
3e
36
2d
24
1b
12
9
0
1ab
1a5
19f
198
192
18c
186
17f
179
172
16c
166
15f
159
152
14c
145
13f
138
131
12b
124
11d
117
110
109
103
fc
f5
ee
e7
e1
da
d3
cc
c5
be
b7
b0
aa
a3
9c
95
8e
87
80
79
72
6b
64
5d
55
4e
47
40
39
32
2b
24
1d
16
f
8
0
141
13c
138
133
12e
129
125
120
11b
116
112
10d
108
103
fe
f9
f4
ef
ea
e5
e0
db
d6
d1
cc
c7
c2
bd
b8
b3
ae
a9
a4
9e
99
94
8f
8a
85
7f
7a
75
70
6a
65
60
5b
55
50
4b
46
40
3b
36
30
2b
26
20
1b
16
10
b
6
0
d6
d3
d0
cd
ca
c7
c4
c0
bd
ba
b7
b4
b0
ad
aa
a7
a3
a0
9d
99
96
93
8f
8c
89
85
82
7e
7b
78
74
71
6d
6a
66
63
60
5c
59
55
52
4e
4b
47
44
40
3d
39
36
32
2f
2b
27
24
20
1d
19
16
12
f
b
8
4
0
6c
6a
68
67
65
64
62
61
5f
5d
5c
5a
58
57
55
54
52
50
4f
4d
4b
4a
48
46
45
43
41
3f
3e
3c
3a
39
37
35
33
32
30
2e
2d
2b
29
27
26
24
22
20
1f
1d
1b
19
17
16
14
12
10
f
d
b
9
8
6
4
2
0
0
2
4
6
8
9
b
d
f
10
12
14
16
17
19
1b
1d
1f
20
22
24
26
27
29
2b
2d
2e
30
32
33
35
37
39
3a
3c
3e
3f
41
43
45
46
48
4a
4b
4d
4f
50
52
54
55
57
58
5a
5c
5d
5f
61
62
64
65
67
68
6a
6c
0
4
8
b
f
12
16
19
1d
20
24
27
2b
2f
32
36
39
3d
40
44
47
4b
4e
52
55
59
5c
60
63
66
6a
6d
71
74
78
7b
7e
82
85
89
8c
8f
93
96
99
9d
a0
a3
a7
aa
ad
b0
b4
b7
ba
bd
c0
c4
c7
ca
cd
d0
d3
d6
0
6
b
10
16
1b
20
26
2b
30
36
3b
40
46
4b
50
55
5b
60
65
6a
70
75
7a
7f
85
8a
8f
94
99
9e
a4
a9
ae
b3
b8
bd
c2
c7
cc
d1
d6
db
e0
e5
ea
ef
f4
f9
fe
103
108
10d
112
116
11b
120
125
129
12e
133
138
13c
141
0
8
f
16
1d
24
2b
32
39
40
47
4e
55
5d
64
6b
72
79
80
87
8e
95
9c
a3
aa
b0
b7
be
c5
cc
d3
da
e1
e7
ee
f5
fc
103
109
110
117
11d
124
12b
131
138
13f
145
14c
152
159
15f
166
16c
172
179
17f
186
18c
192
198
19f
1a5
1ab
0
9
12
1b
24
2d
36
3e
47
50
59
62
6b
73
7c
85
8e
97
9f
a8
b1
ba
c2
cb
d4
dc
e5
ed
f6
ff
107
110
118
121
129
132
13a
143
14b
153
15c
164
16c
175
17d
185
18e
196
19e
1a6
1ae
1b6
1be
1c6
1ce
1d6
1de
1e6
1ee
1f6
1fd
205
20d
215
0
b
16
20
2b
36
40
4b
55
60
6b
75
80
8a
95
9f
aa
b4
bf
c9
d4
de
e9
f3
fe
108
112
11d
127
131
13b
146
150
15a
164
16e
179
183
18d
197
1a1
1ab
1b5
1bf
1c8
1d2
1dc
1e6
1f0
1f9
203
20d
216
220
22a
233
23d
246
24f
259
262
26b
275
27e
0
d
19
26
32
3e
4b
57
64
70
7c
89
95
a1
ae
ba
c6
d2
de
eb
f7
103
10f
11b
127
133
140
14c
158
164
16f
17b
187
193
19f
1ab
1b7
1c2
1ce
1da
1e5
1f1
1fd
208
214
21f
22b
236
241
24d
258
263
26e
27a
285
290
29b
2a6
2b1
2bc
2c6
2d1
2dc
2e7
0
f
1d
2b
39
47
55
64
72
80
8e
9c
aa
b8
c6
d4
e2
f0
fe
10c
11a
128
136
143
151
15f
16d
17a
188
196
1a3
1b1
1bf
1cc
1da
1e7
1f4
202
20f
21d
22a
237
244
251
25f
26c
279
286
293
2a0
2ac
2b9
2c6
2d3
2df
2ec
2f9
305
312
31e
32a
337
343
34f
0
10
20
30
40
50
60
70
80
90
9f
af
bf
cf
df
ee
fe
10e
11d
12d
13d
14c
15c
16b
17b
18a
19a
1a9
1b8
1c8
1d7
1e6
1f6
205
214
223
232
241
250
25f
26e
27d
28c
29a
2a9
2b8
2c7
2d5
2e4
2f2
301
30f
31d
32c
33a
348
356
364
372
380
38e
39c
3a9
3b7
0
12
24
36
47
59
6a
7c
8e
9f
b1
c2
d4
e5
f7
108
11a
12b
13d
14e
15f
171
182
193
1a4
1b5
1c7
1d8
1e9
1fa
20b
21c
22c
23d
24e
25f
270
280
291
2a1
2b2
2c2
2d3
2e3
2f4
304
314
324
334
344
354
364
374
384
394
3a3
3b3
3c3
3d2
3e1
3f1
400
40f
41f
0
14
27
3b
4e
62
75
88
9c
af
c2
d6
e9
fc
10f
123
136
149
15c
16f
182
195
1a8
1bb
1ce
1e0
1f3
206
219
22b
23e
251
263
276
288
29a
2ad
2bf
2d1
2e4
2f6
308
31a
32c
33e
34f
361
373
385
396
3a8
3b9
3cb
3dc
3ed
3fe
410
421
432
443
453
464
475
485
0
16
2b
40
55
6a
7f
95
aa
bf
d4
e9
fe
113
128
13d
151
166
17b
190
1a4
1b9
1ce
1e2
1f7
20b
220
234
249
25d
271
285
29a
2ae
2c2
2d6
2ea
2fe
312
325
339
34d
360
374
387
39b
3ae
3c1
3d5
3e8
3fb
40e
421
434
446
459
46c
47e
491
4a3
4b5
4c8
4da
4ec
0
20
40
60
80
a0
c0
e0
100
11f
13f
15f
17e
19e
1bd
1dd
1fc
21b
23b
25a
279
298
2b7
2d6
2f5
313
332
351
36f
38e
3ac
3ca
3e9
407
425
443
460
47e
49c
4b9
4d7
4f4
512
52f
54c
569
586
5a3
5bf
5dc
5f8
615
631
64d
669
685
6a1
6bd
6d8
6f4
70f
72a
745
760
760
745
72a
70f
6f4
6d8
6bd
6a1
685
669
64d
631
615
5f8
5dc
5bf
5a3
586
569
54c
52f
512
4f4
4d7
4b9
49c
47e
460
443
425
407
3e9
3ca
3ac
38e
36f
351
332
313
2f5
2d6
2b7
298
279
25a
23b
21b
1fc
1dd
1bd
19e
17e
15f
13f
11f
100
e0
c0
a0
80
60
40
20
0
0
2f
5c
87
b2
db
102
128
14d
170
192
1b3
1d2
1ef
20b
225
23f
256
26c
281
294
2a5
2b5
2c4
2d1
2dc
2e6
2ef
2f5
2fb
2ff
301
302
301
2ff
2fb
2f5
2ef
2e6
2dc
2d1
2c4
2b5
2a5
294
281
26c
256
23f
225
20b
1ef
1d2
1b3
192
170
14d
128
102
db
b2
87
5c
2f
17
45
72
9d
c6
ef
116
13b
15f
182
1a3
1c2
1e0
1fd
218
232
24a
261
277
28a
29d
2ad
2bd
2ca
2d7
2e1
2eb
2f2
2f8
2fd
300
302
302
300
2fd
2f8
2f2
2eb
2e1
2d7
2ca
2bd
2ad
29d
28a
277
261
24a
232
218
1fd
1e0
1c2
1a3
182
15f
13b
116
ef
c6
9d
72
45
17
c
3a
67
92
bc
e5
10c
132
156
179
19a
1bb
1d9
1f6
212
22c
245
25c
271
286
298
2a9
2b9
2c7
2d4
2df
2e8
2f0
2f7
2fc
2ff
301
302
300
2fe
2fa
2f4
2ed
2e4
2d9
2ce
2c0
2b1
2a1
28f
27c
267
250
238
21f
204
1e8
1ca
1ab
18a
168
144
11f
f9
d1
a7
7d
51
23
0
0
0
0
0
0
0
0
0
0
0
0
0
0
0
0
0
0
0
0
0
0
0
0
0
0
0
0
0
0
0
0
0
0
0
0
0
0
0
0
0
0
0
0
0
0
0
0
0
0
0
0
0
0
0
0
0
0
0
0
0
0
0
0
0
0
0
0
0
0
0
0
0
0
0
0
0
0
0
0
0
0
0
0
0
0
0
0
0
0
0
0
0
0
0
0
0
0
0
0
0
0
0
0
0
0
0
0
0
0
0
0
0
0
0
0
0
0
0
0
0
0
0
0
0
0
0
0
