03101A00
03101A02
13101A03
13101A03
13101A03
13101A03
13101A03
13101A03
13101A03
23101A03
13101A03
13101A03
13101A03
13101A03
13101A03
13111A03
13121A03
23131A03
13131A03
13141A03
13151A03
13161A03
13171A03
13181A03
13191A03
23191A03
131A1A03
131B1A03
131C1A03
131D1A03
131D1A03
131E1A03
131F1A03
23201A03
13201A03
13211A03
13221A03
13231A03
13241A03
13241A03
13251A03
23261A03
13271A03
13281A03
13281A03
13291A03
132A1A03
132B1A03
132C1A03
232D1A03
132E1A03
132F1A03
13301A03
13301A03
13301A03
13301A03
13301A03
23301A03
13301A03
13301A03
13301A03
13301A03
13301A03
13301A03
13301A03
23301A03
FFFFFFFF
