05081d6c
15081d6d
15081d6b
15081d6e
15081d6a
15081d6f
15081d69
15081d70
15081d68
15081d71
15081d67
25081d72
05181d6c
15181d6d
15181d6b
15181d6e
15181d6a
15181d6f
15181d69
15181d70
15181d68
15181d71
15181d67
25181d72
05281d6c
15281d6d
15281d6b
15281d6e
15281d6a
15281d6f
15281d69
15281d70
15281d68
15281d71
15281d67
25281d72
05381d6c
15381d6d
15381d6b
15381d6e
15381d6a
15381d6f
15381d69
15381d70
15381d68
15381d71
15381d67
25381d72
05481d6c
15481d6d
15481d6b
15481d6e
15481d6a
15481d6f
15481d69
15481d70
15481d68
15481d71
15481d67
25481d72
05581d6c
15581d6d
15581d6b
15581d6e
15581d6a
15581d6f
15581d69
15581d70
15581d68
15581d71
15581d67
25581d72
05681d6c
15681d6d
15681d6b
15681d6e
15681d6a
15681d6f
15681d69
15681d70
15681d68
15681d71
15681d67
25681d72
05781d6c
15781d6d
15781d6b
15781d6e
15781d6a
15781d6f
15781d69
15781d70
15781d68
15781d71
15781d67
25781d72
46183f60
56183f60
56183f60
56183f60
56183f60
56183f60
56183f60
56183f60
56183f60
56183f60
56183f60
56183f60
56183f60
56183f60
56183f60
56183f60
56183f60
56183f60
56183f60
56183f60
56183f60
56183f60
56183f60
56183f60
56183f60
56183f60
56183f60
56183f60
56183f60
56183f60
76183f60
66183f60
46283f60
56283f60
56283f60
56283f60
56283f60
56283f60
56283f60
56283f60
56283f60
56283f60
56283f60
56283f60
56283f60
56283f60
56283f60
56283f60
56283f60
56283f60
56283f60
56283f60
56283f60
56283f60
56283f60
56283f60
56283f60
56283f60
56283f60
56283f60
56283f60
56283f60
76283f60
66283f60
46383f60
56383f60
56383f60
56383f60
56383f60
56383f60
56383f60
56383f60
56383f60
56383f60
56383f60
56383f60
56383f60
56383f60
56383f60
56383f60
56383f60
56383f60
56383f60
56383f60
56383f60
56383f60
56383f60
56383f60
56383f60
56383f60
56383f60
56383f60
56383f60
56383f60
76383f60
66383f60
46483f60
56483f60
56483f60
56483f60
56483f60
56483f60
56483f60
56483f60
56483f60
56483f60
56483f60
56483f60
56483f60
56483f60
56483f60
56483f60
56483f60
56483f60
56483f60
56483f60
56483f60
56483f60
56483f60
56483f60
56483f60
56483f60
56483f60
56483f60
56483f60
56483f60
76483f60
66483f60
46583f60
56583f60
56583f60
56583f60
56583f60
56583f60
56583f60
56583f60
56583f60
56583f60
56583f60
56583f60
56583f60
56583f60
56583f60
56583f60
56583f60
56583f60
56583f60
56583f60
56583f60
56583f60
56583f60
56583f60
56583f60
56583f60
56583f60
56583f60
56583f60
56583f60
76583f60
66583f60
46683f60
56683f60
56683f60
56683f60
56683f60
56683f60
56683f60
56683f60
56683f60
56683f60
56683f60
56683f60
56683f60
56683f60
56683f60
56683f60
56683f60
56683f60
56683f60
56683f60
56683f60
56683f60
56683f60
56683f60
56683f60
56683f60
56683f60
56683f60
56683f60
56683f60
76683f60
66683f60
ffffffff
