2d
30
33
36
3a
3d
41
46
4a
4f
54
5a
5f
66
6c
73
7b
83
8b
94
9e
a8
b3
bf
cc
d9
e7
f6
106
117
12a
13d
152
168
17f
198
1b3
1cf
1ed
20e
230
254
27b
2a5
2d1
300
332
367
3a0
3dd
41d
462
4ab
4f9
54c
5a5
603
667
6d2
744
7be
83f
8c9
95c
9f8
a9e
b50
c0d
cd6
dac
e91
f84
1087
119b
12c1
13fb
1548
16ac
1827
19ba
1b68
1d32
1f19
2121
234a
2598
280b
2aa8
2d71
3068
3390
36ee
3a83
3e55
4266
46bb
4b58
5043
557f
5b14
6105
675a
6e18
7547
7cee
8514
8dc3
9703
a0de
ab5d
b68b
c274
cf25
dca9
eb0e
fa65
10abb
11c23
12ead
1426c
15776
16ddf
185bf
19f2d
1ba44
1d71f
1f5dc
2169b
2397d
25ea6
2863b
2b065
2dd50
30d29
34021
3766d
3b044
3ede0
42f82
4756c
4bfe6
50f3c
563bf
5bdc6
61dac
683d5
6f0a8
76494
7e011
8639d
8efbe
98504
a2407
acd6a
b81da
c4211
d0ed2
de8ef
ed148
fc8c9
10d071
11e94d
13147c
145331
15a6b1
171059
189199
1a2bfc
1be126
1db2d6
1fa2ea
21b35b
23e647
263dee
28bcb6
2b652b
2e3a07
313e2f
3474b8
37e0ec
3b864d
3f6894
438bbb
47f3fe
4ca5df
51a62c
56fa02
5ca6d6
62b275
69230f
6fff3b
774dfd
7f16cf
8761a9
903707
999ff1
a3a609
ae5390
b9b373
c5d155
d2b99c
e0797d
ef1f08
feb93a
10f580a
1210c79
133e8a4
147ffd7
15d66a0
17432e5
18c7bf9
1a65ab4
1c1e990
1df44bd
1fe8a45
21fda27
2435677
2692385
29167fd
2bc4d11
2e9fea6
31aab7b
34e855e
385c15a
3c097f4
3ff455f
44209ba
4892956
4d4ecf8
525a223
57b9b6c
5d730c7
638bfea
6a0aca4
70f614a
7854f21
802eecf
888c0de
9174e38
9af28b5
a50ebb4
afd3cb6
bb4cc08
c785578
d48a116
e2683ff
f12e138
100eaa95
111ae1b3
123898fe
1368f4c9
14ad2c79
16068bc7
1776740f
18fe5dbc
1a9fd9c8
