care/temma/leltek/echo/LeltekPlatform$ErrInfo.class
care/temma/leltek/echo/LeltekPlatform.class
care/temma/leltek/echo/LeltekEcho.class
care/temma/leltek/echo/LeltekPlatform$PropId.class
care/temma/leltek/echo/LeltekPlatform$ScanMode.class
care/temma/leltek/echo/ParamName.class
care/temma/leltek/echo/LeltekPlatformListener.class
care/temma/leltek/echo/LeltekEcho$DeviceType.class
care/temma/leltek/echo/ProbeInfo.class
care/temma/leltek/echo/LeltekProbeListener.class
care/temma/leltek/echo/LeltekPlatform$1.class
care/temma/leltek/echo/LeltekPlatform$PresetInfo.class
care/temma/leltek/echo/Launcher.class
care/temma/leltek/echo/LeltekPlatform$ProbeParam.class
care/temma/leltek/echo/LeltekPlatform$BoardInfo.class
care/temma/leltek/echo/LeltekPlatform$ImageInfo.class
