2
2
2
2
3
3
3
3
3
4
4
4
4
5
5
5
5
6
6
7
7
8
8
9
9
a
a
b
c
c
d
e
f
10
11
12
13
15
16
17
19
1b
1c
1e
20
22
25
27
29
2c
2f
32
35
39
3d
41
45
49
4e
53
59
5e
64
6b
72
79
81
8a
93
9c
a7
b1
bd
c9
d6
e4
f3
103
114
126
139
14e
164
17b
194
1ae
1ca
1e8
208
22a
24e
274
29d
2c9
2f7
329
35e
396
3d2
411
455
49e
4eb
53d
595
5f2
655
6bf
730
7a8
827
8b0
941
9db
a80
b2f
bea
cb1
d85
e67
f58
1058
1169
128c
13c1
150b
166b
17e1
1970
1b19
1cde
1ec0
20c2
22e5
252b
2798
2a2e
2cee
2fdd
32fc
3650
39db
3da2
41a7
45f0
4a80
4f5c
548a
5a0e
5fee
6631
6cdc
73f6
7b87
8396
8c2c
9551
9f10
a971
b47f
c046
ccd1
da2f
e86b
f795
107bd
118f2
12b47
13ece
1539b
169c4
1815f
19a84
1b54d
1d1d5
1f03a
2109b
23319
257d7
27efa
2a8ab
2d515
30465
336ca
36c7a
3a5aa
3e296
4237b
4689c
4b240
500b2
55443
5ad47
60c1a
6711d
6dcb7
74f56
7c971
84b82
8d611
969a9
a06e4
aae60
b60ca
c1ed8
ce94d
dc0f8
ea6b5
f9b6f
10a021
11b5d6
12ddaa
1418cb
15687c
16ce14
184b01
19e0c9
1b910b
1d5d81
1f4803
215286
237f21
25d00d
2847a9
2ae87c
2db535
30b0b2
33ddff
37405e
3adb45
3eb263
42c9a7
472540
4bc9a4
50bb92
56001a
5b9c9f
6196e0
67f4f9
6ebd6e
75f731
7da9a6
85dcac
8e98a8
97e689
a1cfd4
ac5ead
b79de1
c398f3
d05c24
ddf483
ec6ff8
fbdd56
10c4c65
11dcdf5
13073ef
