1d9a5d1
1dadd82
1dc1532
1dd4ce2
1de8492
1dfbc42
1e0f3f3
1e22ba3
1e36353
1e49b03
1e5d2b4
1e70a64
1e84214
1e979c4
1eab174
1ebe925
1ed20d5
1ee5885
1ef9035
1f0c7e5
1f1ff96
1f33746
1f46ef6
1f5a6a6
1f6de56
1f81607
1f94db7
1fa8567
1fbbd17
1fcf4c7
1fe2c78
1ff6428
9bd8
1d388
30b39
442e9
57a99
6b249
7e9f9
921aa
a595a
b910a
cc8ba
e006a
f381b
106fcb
11a77b
12df2b
1416db
154e8c
16863c
17bdec
18f59c
1a2d4c
1b64fd
1c9cad
1dd45d
1f0c0d
2043be
217b6e
22b31e
23eace
25227e
265a2f
1ecd2e9
1ed6ec1
1ee0a99
1eea671
1ef4249
1efde21
1f079f9
1f115d1
1f1b1aa
1f24d82
1f2e95a
1f38532
1f4210a
1f4bce2
1f558ba
1f5f492
1f6906a
1f72c42
1f7c81b
1f863f3
1f8ffcb
1f99ba3
1fa377b
1fad353
1fb6f2b
1fc0b03
1fca6db
1fd42b4
1fdde8c
1fe7a64
1ff163c
1ffb214
4dec
e9c4
1859c
22174
2bd4c
35925
3f4fd
490d5
52cad
5c885
6645d
70035
79c0d
837e5
8d3be
96f96
a0b6e
aa746
b431e
bdef6
c7ace
d16a6
db27e
e4e56
eea2f
f8607
1021df
10bdb7
11598f
11f567
12913f
132d17
0
0
0
0
0
0
0
0
0
0
0
0
0
0
0
0
0
0
0
0
0
0
0
0
0
0
0
0
0
0
0
0
0
0
0
0
0
0
0
0
0
0
0
0
0
0
0
0
0
0
0
0
0
0
0
0
0
0
0
0
0
0
0
0
0
0
0
0
0
0
0
0
0
0
0
0
0
0
0
0
0
0
0
0
0
0
0
0
0
0
0
0
0
0
0
0
0
0
0
0
0
0
0
0
0
0
0
0
0
0
0
0
0
0
0
0
0
0
0
0
0
0
0
0
0
0
0
0
1da41aa
1db795a
1dcb10a
1dde8ba
1df206a
1e0581b
1e18fcb
1e2c77b
1e3ff2b
1e536db
1e66e8c
1e7a63c
1e8ddec
1ea159c
1eb4d4c
1ec84fd
1edbcad
1eef45d
1f02c0d
1f163be
1f29b6e
1f3d31e
1f50ace
1f6427e
1f77a2f
1f8b1df
1f9e98f
1fb213f
1fc58ef
1fd90a0
1fec850
0
137b0
26f60
3a711
4dec1
61671
74e21
885d1
9bd82
af532
c2ce2
d6492
e9c42
fd3f3
110ba3
124353
137b03
14b2b4
15ea64
172214
1859c4
199174
1ac925
1c00d5
1d3885
1e7035
1fa7e5
20df96
221746
234ef6
2486a6
25be56
26f607
1ed20d5
1edbcad
1ee5885
1eef45d
1ef9035
1f02c0d
1f0c7e5
1f163be
1f1ff96
1f29b6e
1f33746
1f3d31e
1f46ef6
1f50ace
1f5a6a6
1f6427e
1f6de56
1f77a2f
1f81607
1f8b1df
1f94db7
1f9e98f
1fa8567
1fb213f
1fbbd17
1fc58ef
1fcf4c7
1fd90a0
1fe2c78
1fec850
1ff6428
0
9bd8
137b0
1d388
26f60
30b39
3a711
442e9
4dec1
57a99
61671
6b249
74e21
7e9f9
885d1
921aa
9bd82
a595a
af532
b910a
c2ce2
cc8ba
d6492
e006a
e9c42
f381b
fd3f3
106fcb
110ba3
11a77b
124353
12df2b
137b03
0
0
0
0
0
0
0
0
0
0
0
0
0
0
0
0
0
0
0
0
0
0
0
0
0
0
0
0
0
0
0
0
0
0
0
0
0
0
0
0
0
0
0
0
0
0
0
0
0
0
0
0
0
0
0
0
0
0
0
0
0
0
0
0
0
0
0
0
0
0
0
0
0
0
0
0
0
0
0
0
0
0
0
0
0
0
0
0
0
0
0
0
0
0
0
0
0
0
0
0
0
0
0
0
0
0
0
0
0
0
0
0
0
0
0
0
0
0
0
0
0
0
0
0
0
0
0
0
0
353924
30d871
2c7641
2806ad
23a254
1f2ecb
1acbc3
1656df
11e0ac
d696c
8f162
478d3
3fb872d
3f70e9e
3f29694
3ee1f54
3e9a921
3e5343d
3e0d135
3dc5dac
3d7f953
3d389bf
3cf278f
3cac6dc
3bdba9f
424561
0
0
0
0
3dc5dac
0
353924
30d871
2c7641
2806ad
23a254
1f2ecb
1acbc3
1656df
11e0ac
d696c
8f162
478d3
3fb872d
3f70e9e
3f29694
3ee1f54
3e9a921
3e5343d
3e0d135
3dc5dac
3d7f953
3d389bf
3cf278f
3cac6dc
3bdba9f
424561
0
0
0
0
3dc5dac
0
353924
30d871
2c7641
2806ad
23a254
1f2ecb
1acbc3
1656df
11e0ac
d696c
8f162
478d3
3fb872d
3f70e9e
3f29694
3ee1f54
3e9a921
3e5343d
3e0d135
3dc5dac
3d7f953
3d389bf
3cf278f
3cac6dc
3bdba9f
424561
0
0
0
0
3dc5dac
0
0
0
0
0
0
0
0
0
0
0
0
0
0
0
0
0
0
0
0
0
0
0
0
0
0
0
0
0
0
0
0
3000000
3059800
304b400
303e400
3032600
3027e00
301e800
3016800
300fa00
300a000
3005a00
3002800
3000a00
3000a00
3002800
3005a00
300a000
300fa00
3016800
301e800
3027e00
3032600
303e400
304b400
3059800
308ba00
308ba00
3000000
3000000
3000000
3000000
3027e00
3000000
3059800
304b400
303e400
3032600
3027e00
301e800
3016800
300fa00
300a000
3005a00
3002800
3000a00
3000a00
3002800
3005a00
300a000
300fa00
3016800
301e800
3027e00
3032600
303e400
304b400
3059800
308ba00
308ba00
3000000
3000000
3000000
3000000
3027e00
3000000
3059800
304b400
303e400
3032600
3027e00
301e800
3016800
300fa00
300a000
3005a00
3002800
3000a00
3000a00
3002800
3005a00
300a000
300fa00
3016800
301e800
3027e00
3032600
303e400
304b400
3059800
308ba00
308ba00
3000000
3000000
3000000
3000000
3027e00
3000000
3000000
3000000
3000000
3000000
3000000
3000000
3000000
3000000
3000000
3000000
3000000
3000000
3000000
3000000
3000000
3000000
3000000
3000000
3000000
3000000
3000000
3000000
3000000
3000000
3000000
3000000
3000000
3000000
3000000
3000000
3000000
0
0
0
0
0
0
0
0
0
0
0
0
0
0
0
0
0
0
0
0
0
0
0
0
0
0
0
0
0
0
0
0
0
0
0
0
0
0
0
0
0
0
0
0
0
0
0
0
0
0
0
0
0
0
0
0
0
0
0
0
0
0
0
0
3000000
3000000
3000000
3000000
3000000
3000000
3000000
3000000
3000000
3000000
3000000
3000000
3000000
3000000
3000000
3000000
3000000
3000000
3000000
3000000
3000000
3000000
3000000
3000000
3000000
3000000
3000000
3000000
3000000
3000000
3000000
3000000
3000000
3000000
3000000
3000000
3000000
3000000
3000000
3000000
3000000
3000000
3000000
3000000
3000000
3000000
3000000
3000000
3000000
3000000
3000000
3000000
3000000
3000000
3000000
3000000
3000000
3000000
3000000
3000000
3000000
3000000
3000000
3000000
2c7641
424561
578dcc
6c3041
7fffb9
92d5d5
a48d1f
b505e6
0
0
0
0
0
0
0
0
0
0
0
0
0
0
0
0
0
0
0
0
0
0
0
0
0
0
0
0
0
0
0
0
0
0
0
0
0
0
0
0
0
0
0
0
0
0
0
0
0
0
0
0
0
0
0
0
303e400
308ba00
30f7000
317fc00
3224c00
32e4c00
33be400
34afc00
0
0
0
0
0
0
0
0
0
0
0
0
0
0
0
0
0
0
0
0
0
0
0
0
0
0
0
0
0
0
0
0
0
0
0
0
0
0
0
0
0
0
0
0
0
0
0
0
0
0
0
0
0
0
0
0
45b0000
d1108b6
15c7116c
1e7d1a22
273322d8
2fe92b8e
389f3444
41553cfa
2890000
688045b
ae308b5
f3d0d10
1398116a
17f215c5
1c4d1a20
20a81e7a
2890000
45a02e7
74105cd
a2708b4
d0e0b9b
ff50e81
12db1168
15c2144f
2890000
3430289
56f0459
79c0686
9c808b2
bf50adf
e220d0b
104e0f38
2890000
29b0289
458037a
6150536
7d106f3
98e08b0
b4b0a6d
d080c29
2890000
2890289
39d02e4
5100457
68205c9
7f4073b
96608ad
ad80a1f
2890000
2890289
31a0289
45703b8
59504f6
6d20633
8100771
94d08ae
2890000
2890289
2b50289
3ca0340
4df0455
5f4056a
70a067f
81f0794
2890000
2890289
2890289
35d02e2
45403d8
54a04cf
64005c5
73606bb
2890000
2890289
2890289
3050297
3e20374
4bf0451
59c052e
679060a
2890000
2890289
2890289
2be0289
3860322
44e03ea
51704b3
5df057b
2890000
2890289
2890289
2890289
33902dd
3f00395
4a7044c
55f0503
