475f
d52d
e169
ec14
f52d
fcb5
2ab
70f
9e2
b23
ad3
8f1
57d
78
f9e2
f1ba
d52d
5e36
e64e
ed75
f3ac
f8f1
fd45
a9
31b
49d
52d
4cd
37b
139
fe06
f9e2
e169
e64e
6acc
eee2
f291
f5d9
f8ba
fb33
fd45
fef0
34
110
185
193
139
78
ec14
ed75
eee2
705b
f1de
f36e
f508
f6af
f860
fa1e
fbe6
fdba
ff9a
185
37b
57d
f52d
f3ac
f291
f1de
7193
f1ae
f231
f31b
f46c
f625
f845
facc
fdba
110
4cd
8f1
fcb5
f8f1
f5d9
f36e
f1ae
709b
f034
f078
f169
f306
f550
f845
fbe6
34
52d
ad3
2ab
fd45
f8ba
f508
f231
f034
6f10
eec7
ef57
f0c2
f306
f625
fa1e
fef0
49d
b23
70f
a9
fb33
f6af
f31b
f078
eec7
6e06
ee36
ef57
f169
f46c
f860
fd45
31b
9e2
9e2
31b
fd45
f860
f46c
f169
ef57
ee36
6e06
eec7
f078
f31b
f6af
fb33
a9
70f
b23
49d
fef0
fa1e
f625
f306
f0c2
ef57
eec7
6f10
f034
f231
f508
f8ba
fd45
2ab
ad3
52d
34
fbe6
f845
f550
f306
f169
f078
f034
709b
f1ae
f36e
f5d9
f8f1
fcb5
8f1
4cd
110
fdba
facc
f845
f625
f46c
f31b
f231
f1ae
7193
f1de
f291
f3ac
f52d
57d
37b
185
ff9a
fdba
fbe6
fa1e
f860
f6af
f508
f36e
f1de
705b
eee2
ed75
ec14
78
139
193
185
110
34
fef0
fd45
fb33
f8ba
f5d9
f291
eee2
6acc
e64e
e169
f9e2
fe06
139
37b
4cd
52d
49d
31b
a9
fd45
f8f1
f3ac
ed75
e64e
5e36
d52d
f1ba
f9e2
78
57d
8f1
ad3
b23
9e2
70f
2ab
fcb5
f52d
ec14
e169
d52d
475f
