0
0
0
0
0
0
0
0
0
0
0
0
0
0
0
0
0
0
0
0
0
0
0
0
0
0
0
0
0
0
0
0
0
0
0
0
0
0
0
0
0
0
0
0
0
0
0
0
0
0
0
0
0
0
0
0
0
0
0
0
0
0
0
0
240
23a
233
22c
225
21e
216
20f
208
200
1f8
1f1
1e9
1e1
1d9
1d1
1c9
1c0
1b8
1b0
1a7
19e
196
18d
184
17b
172
169
160
157
14e
144
13b
131
128
11e
115
10b
101
f7
ee
e4
da
d0
c6
bc
b1
a7
9d
93
88
7e
74
69
5f
54
4a
3f
35
2a
20
15
a
0
212
20b
205
1ff
1f8
1f2
1eb
1e4
1dd
1d6
1cf
1c8
1c1
1ba
1b2
1ab
1a3
19c
194
18c
184
17d
175
16d
164
15c
154
14c
143
13b
132
12a
121
118
110
107
fe
f5
ec
e3
da
d1
c8
bf
b5
ac
a3
99
90
87
7d
74
6a
61
57
4d
44
3a
30
27
1d
13
a
0
1e2
1dd
1d7
1d1
1cb
1c5
1bf
1b9
1b3
1ac
1a6
19f
199
192
18c
185
17e
177
170
169
162
15b
153
14c
145
13d
136
12e
126
11f
117
10f
107
ff
f7
ef
e7
df
d7
cf
c7
be
b6
ad
a5
9d
94
8c
83
7a
72
69
61
58
4f
46
3e
35
2c
23
1a
12
9
0
1b3
1ae
1a9
1a3
19e
199
193
18e
188
182
17d
177
171
16b
165
15f
158
152
14c
145
13f
139
132
12b
125
11e
117
110
109
102
fb
f4
ed
e6
df
d8
d0
c9
c2
ba
b3
ab
a4
9c
95
8d
85
7e
76
6e
67
5f
57
4f
47
3f
37
30
28
20
18
10
8
0
183
17f
17a
176
171
16c
167
162
15d
158
153
14e
148
143
13e
138
133
12d
127
122
11c
116
110
10b
105
ff
f9
f2
ec
e6
e0
da
d3
cd
c6
c0
ba
b3
ac
a6
9f
99
92
8b
84
7e
77
70
69
62
5b
54
4d
46
3f
38
31
2a
23
1c
15
e
7
0
154
150
14c
147
143
13f
13b
136
132
12e
129
125
120
11b
116
112
10d
108
103
fe
f9
f4
ef
ea
e4
df
da
d4
cf
ca
c4
bf
b9
b4
ae
a8
a3
9d
97
91
8b
86
80
7a
74
6e
68
62
5c
56
50
4a
44
3e
37
31
2b
25
1f
19
12
c
6
0
124
120
11d
119
116
112
10e
10b
107
103
ff
fb
f7
f3
ef
eb
e7
e3
de
da
d6
d1
cd
c9
c4
c0
bb
b6
b2
ad
a8
a4
9f
9a
95
90
8b
87
82
7d
78
73
6e
69
63
5e
59
54
4f
4a
44
3f
3a
35
30
2a
25
20
1a
15
10
a
5
0
f4
f1
ee
eb
e8
e5
e2
df
db
d8
d5
d2
ce
cb
c8
c4
c1
bd
ba
b6
b2
af
ab
a7
a4
a0
9c
98
94
90
8c
89
85
81
7c
78
74
70
6c
68
64
60
5b
57
53
4f
4a
46
42
3d
39
35
30
2c
28
23
1f
1a
16
12
d
9
4
0
c3
c1
bf
bc
ba
b7
b5
b2
b0
ad
ab
a8
a5
a3
a0
9d
9a
98
95
92
8f
8c
89
86
83
80
7d
7a
77
74
71
6d
6a
67
64
60
5d
5a
57
53
50
4d
49
46
42
3f
3c
38
35
31
2e
2a
27
23
20
1c
19
15
12
e
a
7
3
0
93
91
8f
8d
8c
8a
88
86
84
82
80
7e
7c
7a
78
76
74
72
70
6e
6b
69
67
65
62
60
5e
5c
59
57
54
52
50
4d
4b
48
46
43
41
3e
3c
39
37
34
32
2f
2d
2a
27
25
22
20
1d
1a
18
15
12
10
d
a
8
5
2
0
62
61
60
5e
5d
5c
5b
59
58
57
56
54
53
52
50
4f
4d
4c
4b
49
48
46
45
43
42
40
3f
3d
3b
3a
38
37
35
34
32
30
2f
2d
2b
2a
28
26
25
23
21
1f
1e
1c
1a
19
17
15
13
12
10
e
c
a
9
7
5
3
2
0
31
30
30
2f
2f
2e
2d
2d
2c
2b
2b
2a
29
29
28
27
27
26
25
24
24
23
22
22
21
20
1f
1e
1e
1d
1c
1b
1a
1a
19
18
17
16
16
15
14
13
12
11
10
10
f
e
d
c
b
a
a
9
8
7
6
5
4
3
2
2
1
0
0
1
2
2
3
4
5
6
7
8
9
a
a
b
c
d
e
f
10
10
11
12
13
14
15
16
16
17
18
19
1a
1a
1b
1c
1d
1e
1e
1f
20
21
22
22
23
24
24
25
26
27
27
28
29
29
2a
2b
2b
2c
2d
2d
2e
2f
2f
30
30
31
0
2
3
5
7
9
a
c
e
10
12
13
15
17
19
1a
1c
1e
1f
21
23
25
26
28
2a
2b
2d
2f
30
32
34
35
37
38
3a
3b
3d
3f
40
42
43
45
46
48
49
4b
4c
4d
4f
50
52
53
54
56
57
58
59
5b
5c
5d
5e
60
61
62
0
2
5
8
a
d
10
12
15
18
1a
1d
20
22
25
27
2a
2d
2f
32
34
37
39
3c
3e
41
43
46
48
4b
4d
50
52
54
57
59
5c
5e
60
62
65
67
69
6b
6e
70
72
74
76
78
7a
7c
7e
80
82
84
86
88
8a
8c
8d
8f
91
93
0
3
7
a
e
12
15
19
1c
20
23
27
2a
2e
31
35
38
3c
3f
42
46
49
4d
50
53
57
5a
5d
60
64
67
6a
6d
71
74
77
7a
7d
80
83
86
89
8c
8f
92
95
98
9a
9d
a0
a3
a5
a8
ab
ad
b0
b2
b5
b7
ba
bc
bf
c1
c3
0
4
9
d
12
16
1a
1f
23
28
2c
30
35
39
3d
42
46
4a
4f
53
57
5b
60
64
68
6c
70
74
78
7c
81
85
89
8c
90
94
98
9c
a0
a4
a7
ab
af
b2
b6
ba
bd
c1
c4
c8
cb
ce
d2
d5
d8
db
df
e2
e5
e8
eb
ee
f1
f4
0
5
a
10
15
1a
20
25
2a
30
35
3a
3f
44
4a
4f
54
59
5e
63
69
6e
73
78
7d
82
87
8b
90
95
9a
9f
a4
a8
ad
b2
b6
bb
c0
c4
c9
cd
d1
d6
da
de
e3
e7
eb
ef
f3
f7
fb
ff
103
107
10b
10e
112
116
119
11d
120
124
0
6
c
12
19
1f
25
2b
31
37
3e
44
4a
50
56
5c
62
68
6e
74
7a
80
86
8b
91
97
9d
a3
a8
ae
b4
b9
bf
c4
ca
cf
d4
da
df
e4
ea
ef
f4
f9
fe
103
108
10d
112
116
11b
120
125
129
12e
132
136
13b
13f
143
147
14c
150
154
0
7
e
15
1c
23
2a
31
38
3f
46
4d
54
5b
62
69
70
77
7e
84
8b
92
99
9f
a6
ac
b3
ba
c0
c6
cd
d3
da
e0
e6
ec
f2
f9
ff
105
10b
110
116
11c
122
127
12d
133
138
13e
143
148
14e
153
158
15d
162
167
16c
171
176
17a
17f
183
0
8
10
18
20
28
30
37
3f
47
4f
57
5f
67
6e
76
7e
85
8d
95
9c
a4
ab
b3
ba
c2
c9
d0
d8
df
e6
ed
f4
fb
102
109
110
117
11e
125
12b
132
139
13f
145
14c
152
158
15f
165
16b
171
177
17d
182
188
18e
193
199
19e
1a3
1a9
1ae
1b3
0
9
12
1a
23
2c
35
3e
46
4f
58
61
69
72
7a
83
8c
94
9d
a5
ad
b6
be
c7
cf
d7
df
e7
ef
f7
ff
107
10f
117
11f
126
12e
136
13d
145
14c
153
15b
162
169
170
177
17e
185
18c
192
199
19f
1a6
1ac
1b3
1b9
1bf
1c5
1cb
1d1
1d7
1dd
1e2
0
a
13
1d
27
30
3a
44
4d
57
61
6a
74
7d
87
90
99
a3
ac
b5
bf
c8
d1
da
e3
ec
f5
fe
107
110
118
121
12a
132
13b
143
14c
154
15c
164
16d
175
17d
184
18c
194
19c
1a3
1ab
1b2
1ba
1c1
1c8
1cf
1d6
1dd
1e4
1eb
1f2
1f8
1ff
205
20b
212
0
a
15
20
2a
35
3f
4a
54
5f
69
74
7e
88
93
9d
a7
b1
bc
c6
d0
da
e4
ee
f7
101
10b
115
11e
128
131
13b
144
14e
157
160
169
172
17b
184
18d
196
19e
1a7
1b0
1b8
1c0
1c9
1d1
1d9
1e1
1e9
1f1
1f8
200
208
20f
216
21e
225
22c
233
23a
240
0
12
25
37
4a
5c
6e
81
93
a5
b7
c9
db
ed
ff
111
122
134
146
157
168
17a
18b
19c
1ad
1be
1cf
1df
1f0
200
211
221
231
241
251
261
270
280
28f
29f
2ae
2bd
2cc
2db
2e9
2f8
306
314
322
330
33e
34b
359
366
373
380
38d
39a
3a6
3b3
3bf
3cb
3d7
3e2
3e2
3d7
3cb
3bf
3b3
3a6
39a
38d
380
373
366
359
34b
33e
330
322
314
306
2f8
2e9
2db
2cc
2bd
2ae
29f
28f
280
270
261
251
241
231
221
211
200
1f0
1df
1cf
1be
1ad
19c
18b
17a
168
157
146
134
122
111
ff
ed
db
c9
b7
a5
93
81
6e
5c
4a
37
25
12
0
0
23
45
66
86
a5
c3
e0
fc
117
130
149
160
177
18c
1a0
1b3
1c5
1d6
1e6
1f4
202
20e
219
223
22c
233
23a
23f
243
246
248
249
248
246
243
23f
23a
233
22c
223
219
20e
202
1f4
1e6
1d6
1c5
1b3
1a0
18c
177
160
149
130
117
fc
e0
c3
a5
86
66
45
23
12
34
56
76
96
b4
d2
ee
109
124
13d
155
16c
182
196
1aa
1bd
1ce
1de
1ed
1fb
208
214
21e
228
230
237
23d
241
245
247
248
248
247
245
241
23d
237
230
228
21e
214
208
1fb
1ed
1de
1ce
1bd
1aa
196
182
16c
155
13d
124
109
ee
d2
b4
96
76
56
34
12
9
2c
4d
6e
8e
ad
ca
e7
103
11d
137
14f
166
17c
191
1a5
1b8
1ca
1da
1ea
1f8
205
211
21c
225
22e
235
23b
240
244
247
248
249
248
246
242
23e
238
232
22a
221
216
20b
1ff
1f1
1e2
1d2
1c1
1af
19b
187
171
15b
143
12a
110
f5
d9
bc
9e
7e
5e
3d
1a
0
0
0
0
0
0
0
0
0
0
0
0
0
0
0
0
0
0
0
0
0
0
0
0
0
0
0
0
0
0
0
0
0
0
0
0
0
0
0
0
0
0
0
0
0
0
0
0
0
0
0
0
0
0
0
0
0
0
0
0
0
0
0
0
0
0
0
0
0
0
0
0
0
0
0
0
0
0
0
0
0
0
0
0
0
0
0
0
0
0
0
0
0
0
0
0
0
0
0
0
0
0
0
0
0
0
0
0
0
0
0
0
0
0
0
0
0
0
0
0
0
0
0
0
0
0
0
0
