03101F00
03101F02
13109F02
13101F03
13109F02
13101F03
13109F02
13101F03
13109F02
13101F03
13109F02
13101F03
13109F02
13101F03
13109F02
13101F03
13109F02
13101F03
23109F02
13101F03
13109F02
13101F03
13109F02
13101F03
13109F02
13101F03
13109F02
13101F03
13109F02
13111F03
13119F02
13121F03
13129F02
13131F03
23139F02
13131F03
13139F02
13141F03
13149F02
13151F03
13159F02
13161F03
13169F02
13171F03
13179F02
13181F03
13189F02
13191F03
13199F02
13191F03
23199F02
131A1F03
131A9F02
131B1F03
131B9F02
131C1F03
131C9F02
131D1F03
131D9F02
131D1F03
131D9F02
131E1F03
131E9F02
131F1F03
131F9F02
13201F03
23209F02
13201F03
13209F02
13211F03
13219F02
13221F03
13229F02
13231F03
13239F02
13241F03
13249F02
13241F03
13249F02
13251F03
13259F02
13261F03
23269F02
13271F03
13279F02
13281F03
13289F02
13281F03
13289F02
13291F03
13299F02
132A1F03
132A9F02
132B1F03
132B9F02
132C1F03
132C9F02
132D1F03
232D9F02
132E1F03
132E9F02
132F1F03
132F9F02
13301F03
13309F02
13301F03
13309F02
13301F03
13309F02
13301F03
13309F02
13301F03
13309F02
13301F03
23309F02
13301F03
13309F02
13301F03
13309F02
13301F03
13309F02
13301F03
13309F02
13301F03
13309F02
13301F03
13309F02
13301F03
13309F02
13301F03
23309F02
FFFFFFFF
