38
3b
3f
43
46
4b
4f
53
58
5d
63
69
6f
75
7c
83
8b
93
9b
a4
ae
b8
c3
ce
da
e7
f4
102
111
121
132
143
156
16a
17f
195
1ad
1c6
1e0
1fc
21a
239
25a
27d
2a2
2c9
2f2
31e
34c
37d
3b1
3e8
422
45f
4a0
4e5
52e
57b
5cc
623
67e
6de
744
7b0
823
89c
91c
9a3
a32
aca
b6a
c14
cc7
d85
e4e
f23
1004
10f2
11ed
12f8
1412
153c
1678
17c6
1927
1a9d
1c28
1dcb
1f86
215a
234a
2557
2782
29cd
2c3a
2ecb
3183
3463
376d
3aa5
3e0d
41a7
4577
497f
4dc4
5247
570e
5c1c
6175
671e
6d1a
7370
7a24
813b
88bc
90ac
9913
a1f6
ab5d
b550
bfd7
cafa
d6c3
e33b
f06c
fe62
10d27
11cc7
12d50
13ece
15150
164e6
1799f
18f8b
1a6be
1bf49
1d941
1f4bb
211cd
23090
2511b
2738b
297fa
2be86
2e750
31278
34021
37071
3a38f
3d9a5
412df
44f6b
48f7b
4d344
51afc
566dd
5b727
60c1a
665fb
6c515
729b4
7942a
804cf
87bfe
8fa18
97f85
a0cb1
aa20f
b4019
be750
c983c
d536e
e197e
eeb0f
fc8c9
10b364
11ab9d
12b240
13c822
14ee27
16253d
176e63
18caa6
1a3b20
1bc0ff
1d5d81
1f11f7
20dfc3
22c85f
24cd59
26f057
293317
2b9771
2e1f58
30ccdd
33a22f
36a19e
39cd9b
3d28bc
40b5bf
447789
487129
4ca5df
511918
55ce75
5ac9ce
600f32
65a2ee
6b898f
71c7e4
786306
7f6056
86c58a
8e98a8
96e013
9fa28a
a8e734
b2b59f
bd15ca
c8102b
d3adb8
dff7e9
ecf8c3
fabae3
1094980
118b07a
128fc61
13a3a7e
14c78e3
15fc671
17432e5
189cee7
1a0ac19
1b8dd1e
1d275b3
1ed8ab7
20a3241
22883b0
24897bc
26a8892
28e71dd
2b470ea
2dca4b3
3072e04
3342f8e
363ce05
396303f
3cb7f55
403e6c0
43f9480
47eb943
4c18887
50838ca
55303b3
5a22642
5f5e100
