1
1
1
1
1
1
1
1
2
2
2
2
2
2
2
2
2
3
3
3
3
3
3
4
4
4
4
5
5
5
5
6
6
6
7
7
8
8
9
9
a
a
b
b
c
d
d
e
f
10
11
12
13
14
15
16
18
19
1a
1c
1e
1f
21
23
25
27
29
2c
2e
31
34
37
3a
3e
41
45
49
4d
52
56
5b
61
66
6c
73
79
80
88
90
98
a1
aa
b4
be
c9
d5
e1
ee
fc
10b
11a
12b
13c
14f
162
177
18c
1a3
1bc
1d5
1f1
20e
22c
24c
26e
293
2b9
2e1
30c
339
369
39c
3d2
40a
446
486
4c9
510
55c
5ab
600
659
6b7
71b
784
7f4
86a
8e8
96c
9f8
a8c
b29
bcf
c7e
d38
dfc
ecc
fa8
1091
1187
128c
139f
14c3
15f7
173e
1897
1a05
1b88
1d21
1ed2
209c
2280
2481
26a0
28de
2b3d
2dc0
3068
3337
3631
3956
3caa
4030
43ea
47db
4c07
5071
551d
5a0e
5f48
64d1
6aab
70dc
776a
7e59
85af
8d72
95a8
9e58
a78a
b144
bb8f
c672
d1f8
de28
eb0e
f8b4
10725
1166c
12696
137b0
149c9
15cef
17131
186a0
19d4e
1b54d
1ceb0
1e98d
205fa
2240c
243de
26589
28928
2aed8
2d6b9
300ea
32d8e
35cca
38ec4
3c3a5
3fb98
436ca
4756c
4b7b1
4fdcf
547ff
5967e
5e98c
6416b
69e65
700c5
768db
7d6fc
84b82
8c6cc
9493e
9d344
a654c
affcf
ba34b
c5044
d0748
dc8ed
e95cf
f6e97
1053f5
1146a4
12476a
135718
14768d
15a6b1
16e87f
183cfb
19a53c
1b2267
