04101400
14109402
14101403
14109402
14101403
14109402
14101403
14109402
14101403
14109402
14101403
14109402
14101403
14109402
14101403
24109402
14101403
14109402
14101403
14109402
14101403
14109402
14101403
14109402
14101403
14109402
14111403
14119402
14121403
14129402
14131403
24139402
14131403
14139402
14141403
14149402
14151403
14159402
14161403
14169402
14171403
14179402
14181403
14189402
14191403
14199402
14191403
24199402
141A1403
141A9402
141B1403
141B9402
141C1403
141C9402
141D1403
141D9402
141D1403
141D9402
141E1403
141E9402
141F1403
141F9402
14201403
24209402
14201403
14209402
14211403
14219402
14221403
14229402
14231403
14239402
14241403
14249402
14241403
14249402
14251403
14259402
14261403
24269402
14271403
14279402
14281403
14289402
14281403
14289402
14291403
14299402
142A1403
142A9402
142B1403
142B9402
142C1403
142C9402
142D1403
242D9402
142E1403
142E9402
142F1403
142F9402
14301403
14309402
14301403
14309402
14301403
14309402
14301403
14309402
14301403
14309402
14301403
24309402
14301403
14309402
14301403
14309402
14301403
14309402
14301403
14309402
14301403
14309402
14301403
14309402
14301403
14309402
14301403
24309402
FFFFFFFF
