bce
e3aa
715
d71
715
fe6a
f8fc
f892
fc49
1a7
5b2
60b
1ff
fba4
f8eb
4b9
e3aa
4deb
d580
e892
fba4
878
cfa
a28
2f9
fb4b
f6c9
f7d4
fe6a
715
9cf
f8eb
715
d580
4deb
daf3
ee05
fe51
7ae
983
5b2
ff81
fa80
f976
fd47
3dd
715
fba4
d71
e892
daf3
5b9d
e3c0
ee72
f86e
ffd4
3e9
4d5
366
cc
fe5a
fd47
fe6a
1ff
715
fba4
ee05
e3c0
5f86
e1c7
e945
f3b1
fe3a
628
970
74b
cc
f976
f7d4
60b
fe6a
878
fe51
ee72
e1c7
5ca5
dfcd
e96c
f618
1cf
8fc
970
366
fa80
f6c9
5b2
f8fc
cfa
7ae
f86e
e945
dfcd
5e11
e36c
ed6d
f8b2
1cf
628
4d5
ff81
fb4b
1a7
f892
a28
983
ffd4
f3b1
e96c
e36c
6283
e648
ed6d
f618
fe3a
3e9
5b2
2f9
fc49
fc49
2f9
5b2
3e9
fe3a
f618
ed6d
e648
6283
e36c
e96c
f3b1
ffd4
983
a28
f892
1a7
fb4b
ff81
4d5
628
1cf
f8b2
ed6d
e36c
5e11
dfcd
e945
f86e
7ae
cfa
f8fc
5b2
f6c9
fa80
366
970
8fc
1cf
f618
e96c
dfcd
5ca5
e1c7
ee72
fe51
878
fe6a
60b
f7d4
f976
cc
74b
970
628
fe3a
f3b1
e945
e1c7
5f86
e3c0
ee05
fba4
715
1ff
fe6a
fd47
fe5a
cc
366
4d5
3e9
ffd4
f86e
ee72
e3c0
5b9d
daf3
e892
d71
fba4
715
3dd
fd47
f976
fa80
ff81
5b2
983
7ae
fe51
ee05
daf3
4deb
d580
715
f8eb
9cf
715
fe6a
f7d4
f6c9
fb4b
2f9
a28
cfa
878
fba4
e892
d580
4deb
e3aa
4b9
f8eb
fba4
1ff
60b
5b2
1a7
fc49
f892
f8fc
fe6a
715
d71
715
e3aa
bce
