18cb
d6ae
fa19
a72
e14
a50
36d
fca8
f833
f735
f9cd
ff0d
4ff
8a1
5e7
f7bc
d6ae
5ae8
e27c
eb91
f4a6
fc93
289
611
70f
5bd
2af
fed2
fb6b
fa19
fcd2
5e7
fa19
e27c
5ae8
ddf2
e707
f26b
fd3c
56d
9c9
9f3
666
74
fa47
f6e1
fa19
8a1
a72
eb91
ddf2
5c4e
e223
ebb3
f605
fee3
4da
73e
625
269
fda9
fa47
fb6b
4ff
e14
f4a6
e707
e223
634a
e82e
eee5
f5e5
fc07
89
308
387
269
74
fed2
ff0d
a50
fc93
f26b
ebb3
e82e
678b
e95f
ed2b
f259
f83e
fe16
308
625
666
2af
f9cd
36d
289
fd3c
f605
eee5
e95f
6677
e6b5
ea23
f04c
f83e
89
73e
9f3
5bd
f735
fca8
611
56d
fee3
f5e5
ed2b
e6b5
63cc
e4fe
ea23
f259
fc07
4da
9c9
70f
f833
f833
70f
9c9
4da
fc07
f259
ea23
e4fe
63cc
e6b5
ed2b
f5e5
fee3
56d
611
fca8
f735
5bd
9f3
73e
89
f83e
f04c
ea23
e6b5
6677
e95f
eee5
f605
fd3c
289
36d
f9cd
2af
666
625
308
fe16
f83e
f259
ed2b
e95f
678b
e82e
ebb3
f26b
fc93
a50
ff0d
fed2
74
269
387
308
89
fc07
f5e5
eee5
e82e
634a
e223
e707
f4a6
e14
4ff
fb6b
fa47
fda9
269
625
73e
4da
fee3
f605
ebb3
e223
5c4e
ddf2
eb91
a72
8a1
fa19
f6e1
fa47
74
666
9f3
9c9
56d
fd3c
f26b
e707
ddf2
5ae8
e27c
fa19
5e7
fcd2
fa19
fb6b
fed2
2af
5bd
70f
611
289
fc93
f4a6
eb91
e27c
5ae8
d6ae
f7bc
5e7
8a1
4ff
ff0d
f9cd
f735
f833
fca8
36d
a50
e14
a72
fa19
d6ae
18cb
