59
5e
64
6a
70
76
7d
84
8c
94
9d
a6
af
ba
c4
d0
dc
e9
f6
104
114
124
134
146
159
16d
183
199
1b1
1ca
1e5
201
21e
23e
25f
282
2a8
2cf
2f9
325
354
385
3ba
3f1
42c
46a
4ab
4f1
53a
588
5da
631
68d
6ee
755
7c2
836
8b0
931
9b9
a4a
ae3
b85
c30
ce5
da5
e6f
f46
1029
1119
1217
1324
1440
156d
16ac
17fd
1961
1adb
1c6a
1e10
1fcf
21a8
239c
25ad
27dd
2a2e
2ca1
2f38
31f6
34dc
37ee
3b2d
3e9d
423f
4618
4a2a
4e78
5307
57d9
5cf2
6258
680d
6e18
747c
7b3f
8267
89fa
91fc
9a76
a36e
aceb
b6f5
c194
ccd1
d8b6
e54b
f29b
100b0
10f98
11f5c
1300b
141b2
15460
16823
17d0b
1932b
1aa93
1c357
1dd8c
1f945
2169b
235a5
2567c
2793c
29e00
2c4e6
2ee0e
3199a
347ae
3786e
3ac03
3e296
41c55
4596d
49a12
4de78
526d6
57368
5c46c
61a25
674d7
6d4cd
73a56
7a5c3
8176e
88fb1
90ef1
99593
a2407
abac0
b5a39
c02f4
cb57b
d7260
e3a3c
f0db3
fed70
10da2c
11d4a5
12ddaa
13f611
151ec1
1658aa
17a4cc
190437
1a7809
1c0172
1da1b2
1f5a1c
212c19
231923
2522ce
274ac2
2992c2
2bfcaa
2e8a72
313e2f
341a15
372079
3a53d4
3db6c0
414c02
451685
491961
4d57db
51d569
5695b5
5b9c9f
60ee41
668ef0
6c8345
72d01a
797a92
80881e
87fe7d
8fe3c7
983e6b
a1153a
aa6f69
b45499
beccdc
c9e0bc
d59941
e1fffb
ef1f08
fd011a
10bb185
11b3c43
12bae01
13d1429
14f7ceb
162f74b
177932b
18d615c
1a473a5
1bcdcd7
1d6b0dc
1f204c3
20eeed6
22d86ab
24de536
27024db
294618a
2bab8d1
2e349f6
30e360d
33ba018
36bad22
39e845c
3d44f3b
40d399f
44971f4
4892956
4cc93be
513e826
55f60bc
5af3b0c
603b838
65d1d27
6bbb2c2
71fc62d
789a907
7f9b1ac
8703b7a
8eda720
9725ae7
