6
6
6
7
7
7
8
8
9
9
a
a
b
c
c
d
e
f
10
10
11
12
13
15
16
17
18
1a
1b
1d
1f
20
22
24
26
29
2b
2d
30
33
36
39
3c
40
43
47
4b
50
54
59
5f
64
6a
70
76
7d
85
8c
94
9d
a6
b0
ba
c5
d0
dc
e9
f7
105
114
124
135
147
15a
16e
183
19a
1b2
1cb
1e6
202
220
23f
261
284
2a9
2d1
2fb
327
356
387
3bc
3f3
42e
46c
4ae
4f3
53d
58b
5dd
634
691
6f2
75a
7c7
83a
8b5
936
9bf
a50
ae9
b8b
c37
cec
dac
e78
f4f
1032
1123
1222
132f
144c
157a
16b9
180b
1970
1aea
1c7a
1e22
1fe1
21bb
23b1
25c3
27f4
2a46
2cba
2f53
3213
34fb
380e
3b50
3ec1
4266
4641
4a55
4ea6
5337
580b
5d28
6291
6849
6e58
74c0
7b87
82b3
8a49
9251
9acf
a3cc
ad4f
b75f
c204
cd48
d933
e5cf
f327
10145
11035
12002
130bb
1426c
15525
168f3
17de8
19414
1ab8a
1c45d
1dea0
1fa6a
217d1
236ed
257d7
27aaa
29f83
2c680
2efc0
31b65
34993
37a70
3ae22
3e4d5
41eb5
45bf2
49cbc
4e149
529d2
57690
5c7c3
61dac
67893
6d8c1
73e84
7aa30
81c1c
894a5
9142e
99b1f
a29e5
ac0f5
b60ca
c09e7
cbcd5
d7a27
e4277
f1668
ff6a7
10e3ec
11def6
12e894
14019e
152af9
166597
17b27a
1912b0
1a875a
1c11a6
1db2d6
1f6c40
213f4a
232d72
25384a
27617e
29aacf
2c161d
2ea55f
315aac
34383a
37405e
3a7593
3dda75
4171c9
453e7e
4943ac
4d849a
5204c1
56c7cd
5bd1a0
612655
66ca46
6cc20d
731287
79c0da
80d27b
884d2c
903707
989680
