04081d6c
14081d6d
14081d6b
14081d6e
14081d6a
14081d6f
14081d69
14081d70
14081d68
14081d71
14081d67
24081d72
04181d6c
14181d6d
14181d6b
14181d6e
14181d6a
14181d6f
14181d69
14181d70
14181d68
14181d71
14181d67
24181d72
04281d6c
14281d6d
14281d6b
14281d6e
14281d6a
14281d6f
14281d69
14281d70
14281d68
14281d71
14281d67
24281d72
04381d6c
14381d6d
14381d6b
14381d6e
14381d6a
14381d6f
14381d69
14381d70
14381d68
14381d71
14381d67
24381d72
04481d6c
14481d6d
14481d6b
14481d6e
14481d6a
14481d6f
14481d69
14481d70
14481d68
14481d71
14481d67
24481d72
04581d6c
14581d6d
14581d6b
14581d6e
14581d6a
14581d6f
14581d69
14581d70
14581d68
14581d71
14581d67
24581d72
04681d6c
14681d6d
14681d6b
14681d6e
14681d6a
14681d6f
14681d69
14681d70
14681d68
14681d71
14681d67
24681d72
04781d6c
14781d6d
14781d6b
14781d6e
14781d6a
14781d6f
14781d69
14781d70
14781d68
14781d71
14781d67
24781d72
46283f60
56283f60
56283f60
56283f60
56283f60
56283f60
56283f60
56283f60
56283f60
56283f60
56283f60
56283f60
56283f60
56283f60
56283f60
56283f60
56283f60
56283f60
56283f60
56283f60
56283f60
56283f60
56283f60
56283f60
56283f60
56283f60
56283f60
56283f60
56283f60
56283f60
76283f60
66283f60
46383f60
56383f60
56383f60
56383f60
56383f60
56383f60
56383f60
56383f60
56383f60
56383f60
56383f60
56383f60
56383f60
56383f60
56383f60
56383f60
56383f60
56383f60
56383f60
56383f60
56383f60
56383f60
56383f60
56383f60
56383f60
56383f60
56383f60
56383f60
56383f60
56383f60
76383f60
66383f60
46483f60
56483f60
56483f60
56483f60
56483f60
56483f60
56483f60
56483f60
56483f60
56483f60
56483f60
56483f60
56483f60
56483f60
56483f60
56483f60
56483f60
56483f60
56483f60
56483f60
56483f60
56483f60
56483f60
56483f60
56483f60
56483f60
56483f60
56483f60
56483f60
56483f60
76483f60
66483f60
46583f60
56583f60
56583f60
56583f60
56583f60
56583f60
56583f60
56583f60
56583f60
56583f60
56583f60
56583f60
56583f60
56583f60
56583f60
56583f60
56583f60
56583f60
56583f60
56583f60
56583f60
56583f60
56583f60
56583f60
56583f60
56583f60
56583f60
56583f60
56583f60
56583f60
76583f60
66583f60
ffffffff
