38
3c
3f
43
47
4b
4f
54
59
5e
64
6a
70
77
7e
85
8d
96
9e
a8
b2
bc
c8
d3
e0
ed
fb
10a
11a
12b
13c
14f
163
178
18e
1a6
1bf
1d9
1f5
213
232
254
277
29c
2c4
2ee
31a
349
37b
3b0
3e8
423
462
4a5
4eb
536
585
5d8
631
68f
6f2
75c
7cb
841
8bf
943
9d0
a65
b02
ba9
c5a
d16
ddc
eae
f8d
1079
1173
127c
1394
14bd
15f7
1745
18a6
1a1b
1ba7
1d4b
1f07
20de
22d1
24e1
2710
2961
2bd4
2e6d
312d
3417
372d
3a72
3de9
4194
4577
4994
4df1
528f
5773
5ca2
621f
67ef
6e18
749e
7b87
82d9
8a99
92d0
9b83
a4ba
ae7c
b8d3
c3c7
cf60
dbaa
e8ae
f678
10512
1148b
124ed
13649
148ac
15c25
170c6
186a0
19dc5
1b64a
1d042
1ebc5
208e8
227c6
24878
26b19
28fc8
2b6a4
2dfcd
30b66
33995
36a80
39e51
3d535
40f59
44cee
48e2a
4d344
51c75
569fd
5bc1d
6131b
66f41
6d0dc
7383f
7a5c3
819c4
894a5
916ce
9a0ad
a32b8
acd6a
b7146
c1ed8
cd6b3
d9973
e67bd
f4240
1029b6
111ee2
122296
1335ad
145911
158dba
16d4ac
182efd
199dd4
1b2267
1cbe01
1e71fe
203fd1
222901
242f2e
26540e
289975
2b014f
2d8da7
3040a6
331c96
3623e6
395926
3cbf10
405885
442894
483279
4c79a0
5101ac
55ce75
5ae40d
6046c5
65fb2f
6c0622
726cbe
793472
8062ff
87fe7d
900d61
989680
a1a119
ab34d9
b559de
c018c6
cb7aae
d7893f
e44eb5
f1d5e4
1002a48
10f580a
11f6c0b
13073ef
1427e2a
1559a0b
169d7c9
17f4890
195fe93
1ae0d15
1c78882
1e28679
1ff1de0
21d66fb
23d7b7c
25f769d
2837532
2a995c7
2d1f8b6
2fcc043
32a10bc
35a1095
38ce886
3c2c3b6
3fbcfd8
4383d52
4783f6d
4bc0c77
503ddfa
54ff0e6
5a085c8
5f5e100
6504afd
6b01075
71582af
780f7bd
7f2cacf
