3636
6a6a
6a6a
6b6b
6a6a
6b6b
6a6a
6a6a
6b6b
6a6a
6b6b
6a6a
6a6a
6b6b
6a6a
6b6b
6a6a
6a6a
6b6b
6a6a
6a6a
6b6b
6a6a
6b6b
6a6a
6a6a
6b6b
6a6a
6b6b
6a6a
6a6a
6b6b
6a6a
6b6b
6a6a
6a6a
6b6b
6a6a
6a6a
6b6b
6a6a
6b6b
6a6a
6a6a
6b6b
6a6a
6b6b
6a6a
6a6a
6b6b
6a6a
6b6b
6a6a
6a6a
6b6b
6a6a
6b6b
6a6a
6a6a
6b6b
6a6a
6a6a
6b6b
6a6a
6b6b
6a6a
6a6a
6b6b
6a6a
6b6b
6a6a
6a6a
6b6b
6a6a
6b6b
6a6a
6a6a
6b6b
6a6a
6a6a
6b6b
6a6a
6b6b
6a6a
6a6a
6b6b
6a6a
6b6b
6a6a
6a6a
6b6b
6a6a
6b6b
6a6a
6a6a
6b6b
6a6a
6a6a
6b6b
6a6a
6b6b
6a6a
6a6a
6b6b
6a6a
6b6b
6a6a
6a6a
6b6b
6a6a
6b6b
6a6a
6a6a
6b6b
6a6a
0
0
0
0
0
0
0
0
0
0
0
0
0
0
0
0
0
0
0
0
0
0
0
0
0
0
0
0
0
0
0
0
0
0
0
0
0
0
0
0
0
0
0
0
0
4040
7e7e
7f7f
7e7e
7f7f
7e7e
7f7f
7e7e
7f7f
7e7e
7f7f
7e7e
7f7f
7e7e
7f7f
7f7f
7e7e
7f7f
7e7e
7f7f
7e7e
7f7f
7e7e
7f7f
7e7e
7f7f
7e7e
7f7f
7e7e
7f7f
7e7e
7f7f
7e7e
7f7f
7e7e
7f7f
7e7e
7f7f
7e7e
7f7f
7e7e
7f7f
7e7e
7f7f
7f7f
7e7e
7f7f
7e7e
7f7f
7e7e
7f7f
7e7e
7f7f
7e7e
7f7f
7e7e
7f7f
7e7e
7f7f
7e7e
7f7f
7e7e
7f7f
7e7e
7f7f
7e7e
7f7f
7e7e
7f7f
7e7e
7f7f
7e7e
7f7f
7f7f
7e7e
7f7f
7e7e
7f7f
7e7e
7f7f
7e7e
7f7f
7e7e
7f7f
7e7e
7f7f
7e7e
7f7f
7e7e
7f7f
7e7e
7f7f
7e7e
7f7f
7e7e
7f7f
7e7e
0
0
0
0
0
0
0
0
0
0
0
0
0
0
0
0
0
0
0
0
0
0
0
0
0
0
0
0
0
0
0
0
0
0
0
0
0
0
0
0
0
0
0
0
0
0
0
0
0
0
0
0
0
0
0
0
0
0
0
0
0
0
0
4d4d
8181
1919
8181
1919
8181
1919
8181
1a1a
8181
1919
8181
1919
8181
1919
8181
1919
8181
1919
8181
1919
8181
1919
8181
1a1a
8181
1919
8181
1919
8181
1919
8181
1919
8181
1919
8181
1919
8181
1919
8181
1919
8181
1a1a
8181
1919
8181
1919
8181
1919
8181
1919
8181
1919
8181
1919
8181
1919
8181
1a1a
8181
1919
8181
1919
8181
1919
8181
1919
8181
1919
8181
1919
8181
1919
8181
1a1a
8181
1919
8181
1919
8181
1919
8181
1919
8181
1919
8181
1919
8181
1919
8181
1a1a
8181
1919
8181
1919
8181
1919
8181
1919
8181
1919
8181
1919
8181
1919
8181
1919
8181
1a1a
8181
1919
8181
1919
8181
1919
8181
1919
8181
1919
8181
1919
8181
1919
8181
1a1a
8181
1919
8181
1919
8181
1919
8181
1919
8181
1919
8181
1919
8181
1919
8181
1a1a
8181
1919
8181
1919
8181
1919
8181
1919
8181
1919
8181
1919
8181
1919
8181
1a1a
8181
1919
0
5f5f
8181
3e3e
8181
3d3d
8181
3d3d
8181
3e3e
8181
3d3d
8181
3e3e
8181
3d3d
8181
3d3d
8181
3e3e
8181
3d3d
8181
3e3e
8181
3d3d
8181
3e3e
8181
3d3d
8181
3d3d
8181
3e3e
8181
3d3d
8181
3e3e
8181
3d3d
8181
3d3d
8181
3e3e
8181
3d3d
8181
3e3e
8181
3d3d
8181
3d3d
8181
3e3e
8181
3d3d
8181
3e3e
8181
3d3d
8181
3e3e
8181
3d3d
8181
3d3d
8181
3e3e
8181
3d3d
8181
3e3e
8181
3d3d
8181
3d3d
8181
3e3e
8181
3d3d
8181
3e3e
8181
3d3d
8181
3d3d
8181
3e3e
8181
3d3d
8181
3e3e
8181
3d3d
8181
3d3d
8181
3e3e
8181
3d3d
8181
3e3e
8181
3d3d
8181
3e3e
8181
3d3d
8181
3d3d
8181
3e3e
8181
3d3d
8181
3e3e
8181
3d3d
8181
3d3d
8181
3e3e
8181
3d3d
8181
3e3e
8181
3d3d
8181
7878
8181
6f6f
8181
6f6f
8181
7070
8181
6f6f
8181
6f6f
8181
6f6f
8181
6f6f
8181
7070
8181
6f6f
8181
6f6f
8181
6f6f
8181
6f6f
8181
6f6f
8181
7070
8181
6f6f
8181
6f6f
8181
6f6f
8181
6f6f
8181
7070
8181
6f6f
8181
6f6f
8181
6f6f
8181
6f6f
8181
6f6f
8181
7070
8181
6f6f
8181
6f6f
8181
6f6f
8181
6f6f
8181
7070
8181
6f6f
8181
6f6f
8181
6f6f
8181
6f6f
8181
6f6f
8181
7070
8181
6f6f
8181
6f6f
8181
6f6f
8181
6f6f
8181
7070
8181
6f6f
8181
6f6f
8181
6f6f
8181
6f6f
8181
6f6f
8181
7070
8181
8181
1d1d
8282
3838
8282
3838
8282
3838
8282
3838
8282
3838
8282
3838
8282
3838
8282
3838
8282
3838
8282
3838
8282
3838
8282
3838
8282
3939
8282
3838
8282
3838
8282
3838
8282
3838
8282
3838
8282
3838
8282
3838
8282
3838
8282
3838
8282
3838
8282
3838
8282
3838
8282
3939
8282
3838
8282
3838
8282
3838
8282
3838
8282
3838
8282
3838
8282
3838
8282
3838
8282
3838
8282
3838
8282
3838
8282
3838
0
0
0
0
0
0
0
0
0
0
0
0
0
0
0
0
0
0
8181
5555
8383
2a2a
8383
2929
8383
2a2a
8383
2a2a
8383
2929
8383
2a2a
8383
2929
8383
2a2a
8383
2929
8383
2a2a
8383
2929
8383
2a2a
8383
2a2a
8383
2929
8383
2a2a
8383
2929
8383
2a2a
8383
2929
8383
2a2a
8383
2929
8383
2a2a
8383
2a2a
8383
2929
8383
2a2a
8383
2929
8383
2a2a
8383
2929
8383
2a2a
0
0
0
0
0
0
8282
3636
8484
6a6a
8484
6a6a
8484
6a6a
8484
6b6b
8484
6a6a
8484
6a6a
8484
6a6a
8484
6b6b
8484
6a6a
8484
6a6a
8484
6b6b
8484
6a6a
8484
6a6a
8484
6a6a
8484
6b6b
8484
6a6a
8484
6a6a
8484
6a6a
8484
6b6b
0
0
0
0
0
0
0
0
0
0
0
0
0
0
0
0
0
0
0
0
0
0
0
0
8383
6262
8787
4444
8787
4444
8787
4444
8787
4343
8787
4444
8787
4444
8787
4444
8787
4343
8787
4444
8787
4444
8787
4444
8787
4444
0
0
0
0
0
0
8686
5f5f
8d8d
3c3c
8d8d
3d3d
8d8d
3d3d
8d8d
3c3c
8d8d
3d3d
8d8d
3d3d
0
0
0
0
0
0
0
0
0
0
0
0
0
0
0
0
0
0
8e8e
1d1d
9c9c
3939
9c9c
3939
0
0
0
0
0
0
0
0
0
0
c0c0
0
0
0
0
0
0
0
0
0
0
0
0
0
0
0
3636
6a6a
6a6a
6b6b
6a6a
6b6b
6a6a
6a6a
6b6b
6a6a
6b6b
6a6a
6a6a
6b6b
6a6a
6b6b
6a6a
6a6a
6b6b
6a6a
6a6a
6b6b
6a6a
6b6b
6a6a
6a6a
6b6b
6a6a
6b6b
6a6a
6a6a
6b6b
6a6a
6b6b
6a6a
6a6a
6b6b
6a6a
6a6a
6b6b
6a6a
6b6b
6a6a
6a6a
6b6b
6a6a
6b6b
6a6a
6a6a
6b6b
6a6a
6b6b
6a6a
6a6a
6b6b
6a6a
6b6b
6a6a
6a6a
6b6b
6a6a
6a6a
6b6b
6a6a
6b6b
6a6a
6a6a
6b6b
6a6a
6b6b
6a6a
6a6a
6b6b
6a6a
6b6b
6a6a
6a6a
6b6b
6a6a
6a6a
6b6b
6a6a
6b6b
6a6a
6a6a
6b6b
6a6a
6b6b
6a6a
6a6a
6b6b
6a6a
6b6b
6a6a
6a6a
6b6b
6a6a
6a6a
6b6b
6a6a
6b6b
6a6a
6a6a
6b6b
6a6a
6b6b
6a6a
6a6a
6b6b
6a6a
6b6b
6a6a
6a6a
6b6b
6a6a
0
0
0
0
0
0
0
0
0
0
0
0
0
0
0
0
0
0
0
0
0
0
0
0
0
0
0
0
0
0
0
0
0
0
0
0
0
0
0
0
0
0
0
0
0
4040
7e7e
7f7f
7e7e
7f7f
7e7e
7f7f
7e7e
7f7f
7e7e
7f7f
7e7e
7f7f
7e7e
7f7f
7f7f
7e7e
7f7f
7e7e
7f7f
7e7e
7f7f
7e7e
7f7f
7e7e
7f7f
7e7e
7f7f
7e7e
7f7f
7e7e
7f7f
7e7e
7f7f
7e7e
7f7f
7e7e
7f7f
7e7e
7f7f
7e7e
7f7f
7e7e
7f7f
7f7f
7e7e
7f7f
7e7e
7f7f
7e7e
7f7f
7e7e
7f7f
7e7e
7f7f
7e7e
7f7f
7e7e
7f7f
7e7e
7f7f
7e7e
7f7f
7e7e
7f7f
7e7e
7f7f
7e7e
7f7f
7e7e
7f7f
7e7e
7f7f
7f7f
7e7e
7f7f
7e7e
7f7f
7e7e
7f7f
7e7e
7f7f
7e7e
7f7f
7e7e
7f7f
7e7e
7f7f
7e7e
7f7f
7e7e
7f7f
7e7e
7f7f
7e7e
7f7f
7e7e
0
0
0
0
0
0
0
0
0
0
0
0
0
0
0
0
0
0
0
0
0
0
0
0
0
0
0
0
0
0
0
0
0
0
0
0
0
0
0
0
0
0
0
0
0
0
0
0
0
0
0
0
0
0
0
0
0
0
0
0
0
0
0
4d4d
8181
1919
8181
1919
8181
1919
8181
1a1a
8181
1919
8181
1919
8181
1919
8181
1919
8181
1919
8181
1919
8181
1919
8181
1a1a
8181
1919
8181
1919
8181
1919
8181
1919
8181
1919
8181
1919
8181
1919
8181
1919
8181
1a1a
8181
1919
8181
1919
8181
1919
8181
1919
8181
1919
8181
1919
8181
1919
8181
1a1a
8181
1919
8181
1919
8181
1919
8181
1919
8181
1919
8181
1919
8181
1919
8181
1a1a
8181
1919
8181
1919
8181
1919
8181
1919
8181
1919
8181
1919
8181
1919
8181
1a1a
8181
1919
8181
1919
8181
1919
8181
1919
8181
1919
8181
1919
8181
1919
8181
1919
8181
1a1a
8181
1919
8181
1919
8181
1919
8181
1919
8181
1919
8181
1919
8181
1919
8181
1a1a
8181
1919
8181
1919
8181
1919
8181
1919
8181
1919
8181
1919
8181
1919
8181
1a1a
8181
1919
8181
1919
8181
1919
8181
1919
8181
1919
8181
1919
8181
1919
8181
1a1a
8181
1919
0
5f5f
8181
3e3e
8181
3d3d
8181
3d3d
8181
3e3e
8181
3d3d
8181
3e3e
8181
3d3d
8181
3d3d
8181
3e3e
8181
3d3d
8181
3e3e
8181
3d3d
8181
3e3e
8181
3d3d
8181
3d3d
8181
3e3e
8181
3d3d
8181
3e3e
8181
3d3d
8181
3d3d
8181
3e3e
8181
3d3d
8181
3e3e
8181
3d3d
8181
3d3d
8181
3e3e
8181
3d3d
8181
3e3e
8181
3d3d
8181
3e3e
8181
3d3d
8181
3d3d
8181
3e3e
8181
3d3d
8181
3e3e
8181
3d3d
8181
3d3d
8181
3e3e
8181
3d3d
8181
3e3e
8181
3d3d
8181
3d3d
8181
3e3e
8181
3d3d
8181
3e3e
8181
3d3d
8181
3d3d
8181
3e3e
8181
3d3d
8181
3e3e
8181
3d3d
8181
3e3e
8181
3d3d
8181
3d3d
8181
3e3e
8181
3d3d
8181
3e3e
8181
3d3d
8181
3d3d
8181
3e3e
8181
3d3d
8181
3e3e
8181
3d3d
8181
7878
8181
6f6f
8181
6f6f
8181
7070
8181
6f6f
8181
6f6f
8181
6f6f
8181
6f6f
8181
7070
8181
6f6f
8181
6f6f
8181
6f6f
8181
6f6f
8181
6f6f
8181
7070
8181
6f6f
8181
6f6f
8181
6f6f
8181
6f6f
8181
7070
8181
6f6f
8181
6f6f
8181
6f6f
8181
6f6f
8181
6f6f
8181
7070
8181
6f6f
8181
6f6f
8181
6f6f
8181
6f6f
8181
7070
8181
6f6f
8181
6f6f
8181
6f6f
8181
6f6f
8181
6f6f
8181
7070
8181
6f6f
8181
6f6f
8181
6f6f
8181
6f6f
8181
7070
8181
6f6f
8181
6f6f
8181
6f6f
8181
6f6f
8181
6f6f
8181
7070
8181
8181
1d1d
8282
3838
8282
3838
8282
3838
8282
3838
8282
3838
8282
3838
8282
3838
8282
3838
8282
3838
8282
3838
8282
3838
8282
3838
8282
3939
8282
3838
8282
3838
8282
3838
8282
3838
8282
3838
8282
3838
8282
3838
8282
3838
8282
3838
8282
3838
8282
3838
8282
3838
8282
3939
8282
3838
8282
3838
8282
3838
8282
3838
8282
3838
8282
3838
8282
3838
8282
3838
8282
3838
8282
3838
8282
3838
8282
3838
0
0
0
0
0
0
0
0
0
0
0
0
0
0
0
0
0
0
8181
5555
8383
2a2a
8383
2929
8383
2a2a
8383
2a2a
8383
2929
8383
2a2a
8383
2929
8383
2a2a
8383
2929
8383
2a2a
8383
2929
8383
2a2a
8383
2a2a
8383
2929
8383
2a2a
8383
2929
8383
2a2a
8383
2929
8383
2a2a
8383
2929
8383
2a2a
8383
2a2a
8383
2929
8383
2a2a
8383
2929
8383
2a2a
8383
2929
8383
2a2a
0
0
0
0
0
0
8282
3636
8484
6a6a
8484
6a6a
8484
6a6a
8484
6b6b
8484
6a6a
8484
6a6a
8484
6a6a
8484
6b6b
8484
6a6a
8484
6a6a
8484
6b6b
8484
6a6a
8484
6a6a
8484
6a6a
8484
6b6b
8484
6a6a
8484
6a6a
8484
6a6a
8484
6b6b
0
0
0
0
0
0
0
0
0
0
0
0
0
0
0
0
0
0
0
0
0
0
0
0
8383
6262
8787
4444
8787
4444
8787
4444
8787
4343
8787
4444
8787
4444
8787
4444
8787
4343
8787
4444
8787
4444
8787
4444
8787
4444
0
0
0
0
0
0
8686
5f5f
8d8d
3c3c
8d8d
3d3d
8d8d
3d3d
8d8d
3c3c
8d8d
3d3d
8d8d
3d3d
0
0
0
0
0
0
0
0
0
0
0
0
0
0
0
0
0
0
8e8e
1d1d
9c9c
3939
9c9c
3939
0
0
0
0
0
0
0
0
0
0
c0c0
0
0
0
0
0
0
0
0
0
0
0
0
0
0
0
3636
6a6a
6a6a
6b6b
6a6a
6b6b
6a6a
6a6a
6b6b
6a6a
6b6b
6a6a
6a6a
6b6b
6a6a
6b6b
6a6a
6a6a
6b6b
6a6a
6a6a
6b6b
6a6a
6b6b
6a6a
6a6a
6b6b
6a6a
6b6b
6a6a
6a6a
6b6b
6a6a
6b6b
6a6a
6a6a
6b6b
6a6a
6a6a
6b6b
6a6a
6b6b
6a6a
6a6a
6b6b
6a6a
6b6b
6a6a
6a6a
6b6b
6a6a
6b6b
6a6a
6a6a
6b6b
6a6a
6b6b
6a6a
6a6a
6b6b
6a6a
6a6a
6b6b
6a6a
6b6b
6a6a
6a6a
6b6b
6a6a
6b6b
6a6a
6a6a
6b6b
6a6a
6b6b
6a6a
6a6a
6b6b
6a6a
6a6a
6b6b
6a6a
6b6b
6a6a
6a6a
6b6b
6a6a
6b6b
6a6a
6a6a
6b6b
6a6a
6b6b
6a6a
6a6a
6b6b
6a6a
6a6a
6b6b
6a6a
6b6b
6a6a
6a6a
6b6b
6a6a
6b6b
6a6a
6a6a
6b6b
6a6a
6b6b
6a6a
6a6a
6b6b
6a6a
0
0
0
0
0
0
0
0
0
0
0
0
0
0
0
0
0
0
0
0
0
0
0
0
0
0
0
0
0
0
0
0
0
0
0
0
0
0
0
0
0
0
0
0
0
4040
7e7e
7f7f
7e7e
7f7f
7e7e
7f7f
7e7e
7f7f
7e7e
7f7f
7e7e
7f7f
7e7e
7f7f
7f7f
7e7e
7f7f
7e7e
7f7f
7e7e
7f7f
7e7e
7f7f
7e7e
7f7f
7e7e
7f7f
7e7e
7f7f
7e7e
7f7f
7e7e
7f7f
7e7e
7f7f
7e7e
7f7f
7e7e
7f7f
7e7e
7f7f
7e7e
7f7f
7f7f
7e7e
7f7f
7e7e
7f7f
7e7e
7f7f
7e7e
7f7f
7e7e
7f7f
7e7e
7f7f
7e7e
7f7f
7e7e
7f7f
7e7e
7f7f
7e7e
7f7f
7e7e
7f7f
7e7e
7f7f
7e7e
7f7f
7e7e
7f7f
7f7f
7e7e
7f7f
7e7e
7f7f
7e7e
7f7f
7e7e
7f7f
7e7e
7f7f
7e7e
7f7f
7e7e
7f7f
7e7e
7f7f
7e7e
7f7f
7e7e
7f7f
7e7e
7f7f
7e7e
0
0
0
0
0
0
0
0
0
0
0
0
0
0
0
0
0
0
0
0
0
0
0
0
0
0
0
0
0
0
0
0
0
0
0
0
0
0
0
0
0
0
0
0
0
0
0
0
0
0
0
0
0
0
0
0
0
0
0
0
0
0
0
4d4d
8181
1919
8181
1919
8181
1919
8181
1a1a
8181
1919
8181
1919
8181
1919
8181
1919
8181
1919
8181
1919
8181
1919
8181
1a1a
8181
1919
8181
1919
8181
1919
8181
1919
8181
1919
8181
1919
8181
1919
8181
1919
8181
1a1a
8181
1919
8181
1919
8181
1919
8181
1919
8181
1919
8181
1919
8181
1919
8181
1a1a
8181
1919
8181
1919
8181
1919
8181
1919
8181
1919
8181
1919
8181
1919
8181
1a1a
8181
1919
8181
1919
8181
1919
8181
1919
8181
1919
8181
1919
8181
1919
8181
1a1a
8181
1919
8181
1919
8181
1919
8181
1919
8181
1919
8181
1919
8181
1919
8181
1919
8181
1a1a
8181
1919
8181
1919
8181
1919
8181
1919
8181
1919
8181
1919
8181
1919
8181
1a1a
8181
1919
8181
1919
8181
1919
8181
1919
8181
1919
8181
1919
8181
1919
8181
1a1a
8181
1919
8181
1919
8181
1919
8181
1919
8181
1919
8181
1919
8181
1919
8181
1a1a
8181
1919
0
5f5f
8181
3e3e
8181
3d3d
8181
3d3d
8181
3e3e
8181
3d3d
8181
3e3e
8181
3d3d
8181
3d3d
8181
3e3e
8181
3d3d
8181
3e3e
8181
3d3d
8181
3e3e
8181
3d3d
8181
3d3d
8181
3e3e
8181
3d3d
8181
3e3e
8181
3d3d
8181
3d3d
8181
3e3e
8181
3d3d
8181
3e3e
8181
3d3d
8181
3d3d
8181
3e3e
8181
3d3d
8181
3e3e
8181
3d3d
8181
3e3e
8181
3d3d
8181
3d3d
8181
3e3e
8181
3d3d
8181
3e3e
8181
3d3d
8181
3d3d
8181
3e3e
8181
3d3d
8181
3e3e
8181
3d3d
8181
3d3d
8181
3e3e
8181
3d3d
8181
3e3e
8181
3d3d
8181
3d3d
8181
3e3e
8181
3d3d
8181
3e3e
8181
3d3d
8181
3e3e
8181
3d3d
8181
3d3d
8181
3e3e
8181
3d3d
8181
3e3e
8181
3d3d
8181
3d3d
8181
3e3e
8181
3d3d
8181
3e3e
8181
3d3d
8181
7878
8181
6f6f
8181
6f6f
8181
7070
8181
6f6f
8181
6f6f
8181
6f6f
8181
6f6f
8181
7070
8181
6f6f
8181
6f6f
8181
6f6f
8181
6f6f
8181
6f6f
8181
7070
8181
6f6f
8181
6f6f
8181
6f6f
8181
6f6f
8181
7070
8181
6f6f
8181
6f6f
8181
6f6f
8181
6f6f
8181
6f6f
8181
7070
8181
6f6f
8181
6f6f
8181
6f6f
8181
6f6f
8181
7070
8181
6f6f
8181
6f6f
8181
6f6f
8181
6f6f
8181
6f6f
8181
7070
8181
6f6f
8181
6f6f
8181
6f6f
8181
6f6f
8181
7070
8181
6f6f
8181
6f6f
8181
6f6f
8181
6f6f
8181
6f6f
8181
7070
8181
8181
1d1d
8282
3838
8282
3838
8282
3838
8282
3838
8282
3838
8282
3838
8282
3838
8282
3838
8282
3838
8282
3838
8282
3838
8282
3838
8282
3939
8282
3838
8282
3838
8282
3838
8282
3838
8282
3838
8282
3838
8282
3838
8282
3838
8282
3838
8282
3838
8282
3838
8282
3838
8282
3939
8282
3838
8282
3838
8282
3838
8282
3838
8282
3838
8282
3838
8282
3838
8282
3838
8282
3838
8282
3838
8282
3838
8282
3838
0
0
0
0
0
0
0
0
0
0
0
0
0
0
0
0
0
0
8181
5555
8383
2a2a
8383
2929
8383
2a2a
8383
2a2a
8383
2929
8383
2a2a
8383
2929
8383
2a2a
8383
2929
8383
2a2a
8383
2929
8383
2a2a
8383
2a2a
8383
2929
8383
2a2a
8383
2929
8383
2a2a
8383
2929
8383
2a2a
8383
2929
8383
2a2a
8383
2a2a
8383
2929
8383
2a2a
8383
2929
8383
2a2a
8383
2929
8383
2a2a
0
0
0
0
0
0
8282
3636
8484
6a6a
8484
6a6a
8484
6a6a
8484
6b6b
8484
6a6a
8484
6a6a
8484
6a6a
8484
6b6b
8484
6a6a
8484
6a6a
8484
6b6b
8484
6a6a
8484
6a6a
8484
6a6a
8484
6b6b
8484
6a6a
8484
6a6a
8484
6a6a
8484
6b6b
0
0
0
0
0
0
0
0
0
0
0
0
0
0
0
0
0
0
0
0
0
0
0
0
8383
6262
8787
4444
8787
4444
8787
4444
8787
4343
8787
4444
8787
4444
8787
4444
8787
4343
8787
4444
8787
4444
8787
4444
8787
4444
0
0
0
0
0
0
8686
5f5f
8d8d
3c3c
8d8d
3d3d
8d8d
3d3d
8d8d
3c3c
8d8d
3d3d
8d8d
3d3d
0
0
0
0
0
0
0
0
0
0
0
0
0
0
0
0
0
0
8e8e
1d1d
9c9c
3939
9c9c
3939
0
0
0
0
0
0
0
0
0
0
c0c0
0
0
0
0
0
0
0
0
0
0
0
0
0
0
0
3636
6a6a
6a6a
6b6b
6a6a
6b6b
6a6a
6a6a
6b6b
6a6a
6b6b
6a6a
6a6a
6b6b
6a6a
6b6b
6a6a
6a6a
6b6b
6a6a
6a6a
6b6b
6a6a
6b6b
6a6a
6a6a
6b6b
6a6a
6b6b
6a6a
6a6a
6b6b
6a6a
6b6b
6a6a
6a6a
6b6b
6a6a
6a6a
6b6b
6a6a
6b6b
6a6a
6a6a
6b6b
6a6a
6b6b
6a6a
6a6a
6b6b
6a6a
6b6b
6a6a
6a6a
6b6b
6a6a
6b6b
6a6a
6a6a
6b6b
6a6a
6a6a
6b6b
6a6a
6b6b
6a6a
6a6a
6b6b
6a6a
6b6b
6a6a
6a6a
6b6b
6a6a
6b6b
6a6a
6a6a
6b6b
6a6a
6a6a
6b6b
6a6a
6b6b
6a6a
6a6a
6b6b
6a6a
6b6b
6a6a
6a6a
6b6b
6a6a
6b6b
6a6a
6a6a
6b6b
6a6a
6a6a
6b6b
6a6a
6b6b
6a6a
6a6a
6b6b
6a6a
6b6b
6a6a
6a6a
6b6b
6a6a
6b6b
6a6a
6a6a
6b6b
6a6a
0
0
0
0
0
0
0
0
0
0
0
0
0
0
0
0
0
0
0
0
0
0
0
0
0
0
0
0
0
0
0
0
0
0
0
0
0
0
0
0
0
0
0
0
0
4040
7e7e
7f7f
7e7e
7f7f
7e7e
7f7f
7e7e
7f7f
7e7e
7f7f
7e7e
7f7f
7e7e
7f7f
7f7f
7e7e
7f7f
7e7e
7f7f
7e7e
7f7f
7e7e
7f7f
7e7e
7f7f
7e7e
7f7f
7e7e
7f7f
7e7e
7f7f
7e7e
7f7f
7e7e
7f7f
7e7e
7f7f
7e7e
7f7f
7e7e
7f7f
7e7e
7f7f
7f7f
7e7e
7f7f
7e7e
7f7f
7e7e
7f7f
7e7e
7f7f
7e7e
7f7f
7e7e
7f7f
7e7e
7f7f
7e7e
7f7f
7e7e
7f7f
7e7e
7f7f
7e7e
7f7f
7e7e
7f7f
7e7e
7f7f
7e7e
7f7f
7f7f
7e7e
7f7f
7e7e
7f7f
7e7e
7f7f
7e7e
7f7f
7e7e
7f7f
7e7e
7f7f
7e7e
7f7f
7e7e
7f7f
7e7e
7f7f
7e7e
7f7f
7e7e
7f7f
7e7e
0
0
0
0
0
0
0
0
0
0
0
0
0
0
0
0
0
0
0
0
0
0
0
0
0
0
0
0
0
0
0
0
0
0
0
0
0
0
0
0
0
0
0
0
0
0
0
0
0
0
0
0
0
0
0
0
0
0
0
0
0
0
0
4d4d
8181
1919
8181
1919
8181
1919
8181
1a1a
8181
1919
8181
1919
8181
1919
8181
1919
8181
1919
8181
1919
8181
1919
8181
1a1a
8181
1919
8181
1919
8181
1919
8181
1919
8181
1919
8181
1919
8181
1919
8181
1919
8181
1a1a
8181
1919
8181
1919
8181
1919
8181
1919
8181
1919
8181
1919
8181
1919
8181
1a1a
8181
1919
8181
1919
8181
1919
8181
1919
8181
1919
8181
1919
8181
1919
8181
1a1a
8181
1919
8181
1919
8181
1919
8181
1919
8181
1919
8181
1919
8181
1919
8181
1a1a
8181
1919
8181
1919
8181
1919
8181
1919
8181
1919
8181
1919
8181
1919
8181
1919
8181
1a1a
8181
1919
8181
1919
8181
1919
8181
1919
8181
1919
8181
1919
8181
1919
8181
1a1a
8181
1919
8181
1919
8181
1919
8181
1919
8181
1919
8181
1919
8181
1919
8181
1a1a
8181
1919
8181
1919
8181
1919
8181
1919
8181
1919
8181
1919
8181
1919
8181
1a1a
8181
1919
0
5f5f
8181
3e3e
8181
3d3d
8181
3d3d
8181
3e3e
8181
3d3d
8181
3e3e
8181
3d3d
8181
3d3d
8181
3e3e
8181
3d3d
8181
3e3e
8181
3d3d
8181
3e3e
8181
3d3d
8181
3d3d
8181
3e3e
8181
3d3d
8181
3e3e
8181
3d3d
8181
3d3d
8181
3e3e
8181
3d3d
8181
3e3e
8181
3d3d
8181
3d3d
8181
3e3e
8181
3d3d
8181
3e3e
8181
3d3d
8181
3e3e
8181
3d3d
8181
3d3d
8181
3e3e
8181
3d3d
8181
3e3e
8181
3d3d
8181
3d3d
8181
3e3e
8181
3d3d
8181
3e3e
8181
3d3d
8181
3d3d
8181
3e3e
8181
3d3d
8181
3e3e
8181
3d3d
8181
3d3d
8181
3e3e
8181
3d3d
8181
3e3e
8181
3d3d
8181
3e3e
8181
3d3d
8181
3d3d
8181
3e3e
8181
3d3d
8181
3e3e
8181
3d3d
8181
3d3d
8181
3e3e
8181
3d3d
8181
3e3e
8181
3d3d
8181
7878
8181
6f6f
8181
6f6f
8181
7070
8181
6f6f
8181
6f6f
8181
6f6f
8181
6f6f
8181
7070
8181
6f6f
8181
6f6f
8181
6f6f
8181
6f6f
8181
6f6f
8181
7070
8181
6f6f
8181
6f6f
8181
6f6f
8181
6f6f
8181
7070
8181
6f6f
8181
6f6f
8181
6f6f
8181
6f6f
8181
6f6f
8181
7070
8181
6f6f
8181
6f6f
8181
6f6f
8181
6f6f
8181
7070
8181
6f6f
8181
6f6f
8181
6f6f
8181
6f6f
8181
6f6f
8181
7070
8181
6f6f
8181
6f6f
8181
6f6f
8181
6f6f
8181
7070
8181
6f6f
8181
6f6f
8181
6f6f
8181
6f6f
8181
6f6f
8181
7070
8181
8181
1d1d
8282
3838
8282
3838
8282
3838
8282
3838
8282
3838
8282
3838
8282
3838
8282
3838
8282
3838
8282
3838
8282
3838
8282
3838
8282
3939
8282
3838
8282
3838
8282
3838
8282
3838
8282
3838
8282
3838
8282
3838
8282
3838
8282
3838
8282
3838
8282
3838
8282
3838
8282
3939
8282
3838
8282
3838
8282
3838
8282
3838
8282
3838
8282
3838
8282
3838
8282
3838
8282
3838
8282
3838
8282
3838
8282
3838
0
0
0
0
0
0
0
0
0
0
0
0
0
0
0
0
0
0
8181
5555
8383
2a2a
8383
2929
8383
2a2a
8383
2a2a
8383
2929
8383
2a2a
8383
2929
8383
2a2a
8383
2929
8383
2a2a
8383
2929
8383
2a2a
8383
2a2a
8383
2929
8383
2a2a
8383
2929
8383
2a2a
8383
2929
8383
2a2a
8383
2929
8383
2a2a
8383
2a2a
8383
2929
8383
2a2a
8383
2929
8383
2a2a
8383
2929
8383
2a2a
0
0
0
0
0
0
8282
3636
8484
6a6a
8484
6a6a
8484
6a6a
8484
6b6b
8484
6a6a
8484
6a6a
8484
6a6a
8484
6b6b
8484
6a6a
8484
6a6a
8484
6b6b
8484
6a6a
8484
6a6a
8484
6a6a
8484
6b6b
8484
6a6a
8484
6a6a
8484
6a6a
8484
6b6b
0
0
0
0
0
0
0
0
0
0
0
0
0
0
0
0
0
0
0
0
0
0
0
0
8383
6262
8787
4444
8787
4444
8787
4444
8787
4343
8787
4444
8787
4444
8787
4444
8787
4343
8787
4444
8787
4444
8787
4444
8787
4444
0
0
0
0
0
0
8686
5f5f
8d8d
3c3c
8d8d
3d3d
8d8d
3d3d
8d8d
3c3c
8d8d
3d3d
8d8d
3d3d
0
0
0
0
0
0
0
0
0
0
0
0
0
0
0
0
0
0
8e8e
1d1d
9c9c
3939
9c9c
3939
0
0
0
0
0
0
0
0
0
0
c0c0
0
0
0
0
0
0
0
0
0
0
0
0
0
0
0
3636
6a6a
6a6a
6b6b
6a6a
6b6b
6a6a
6a6a
6b6b
6a6a
6b6b
6a6a
6a6a
6b6b
6a6a
6b6b
6a6a
6a6a
6b6b
6a6a
6a6a
6b6b
6a6a
6b6b
6a6a
6a6a
6b6b
6a6a
6b6b
6a6a
6a6a
6b6b
6a6a
6b6b
6a6a
6a6a
6b6b
6a6a
6a6a
6b6b
6a6a
6b6b
6a6a
6a6a
6b6b
6a6a
6b6b
6a6a
6a6a
6b6b
6a6a
6b6b
6a6a
6a6a
6b6b
6a6a
6b6b
6a6a
6a6a
6b6b
6a6a
6a6a
6b6b
6a6a
6b6b
6a6a
6a6a
6b6b
6a6a
6b6b
6a6a
6a6a
6b6b
6a6a
6b6b
6a6a
6a6a
6b6b
6a6a
6a6a
6b6b
6a6a
6b6b
6a6a
6a6a
6b6b
6a6a
6b6b
6a6a
6a6a
6b6b
6a6a
6b6b
6a6a
6a6a
6b6b
6a6a
6a6a
6b6b
6a6a
6b6b
6a6a
6a6a
6b6b
6a6a
6b6b
6a6a
6a6a
6b6b
6a6a
6b6b
6a6a
6a6a
6b6b
6a6a
0
0
0
0
0
0
0
0
0
0
0
0
0
0
0
0
0
0
0
0
0
0
0
0
0
0
0
0
0
0
0
0
0
0
0
0
0
0
0
0
0
0
0
0
0
4040
7e7e
7f7f
7e7e
7f7f
7e7e
7f7f
7e7e
7f7f
7e7e
7f7f
7e7e
7f7f
7e7e
7f7f
7f7f
7e7e
7f7f
7e7e
7f7f
7e7e
7f7f
7e7e
7f7f
7e7e
7f7f
7e7e
7f7f
7e7e
7f7f
7e7e
7f7f
7e7e
7f7f
7e7e
7f7f
7e7e
7f7f
7e7e
7f7f
7e7e
7f7f
7e7e
7f7f
7f7f
7e7e
7f7f
7e7e
7f7f
7e7e
7f7f
7e7e
7f7f
7e7e
7f7f
7e7e
7f7f
7e7e
7f7f
7e7e
7f7f
7e7e
7f7f
7e7e
7f7f
7e7e
7f7f
7e7e
7f7f
7e7e
7f7f
7e7e
7f7f
7f7f
7e7e
7f7f
7e7e
7f7f
7e7e
7f7f
7e7e
7f7f
7e7e
7f7f
7e7e
7f7f
7e7e
7f7f
7e7e
7f7f
7e7e
7f7f
7e7e
7f7f
7e7e
7f7f
7e7e
0
0
0
0
0
0
0
0
0
0
0
0
0
0
0
0
0
0
0
0
0
0
0
0
0
0
0
0
0
0
0
0
0
0
0
0
0
0
0
0
0
0
0
0
0
0
0
0
0
0
0
0
0
0
0
0
0
0
0
0
0
0
0
4d4d
8181
1919
8181
1919
8181
1919
8181
1a1a
8181
1919
8181
1919
8181
1919
8181
1919
8181
1919
8181
1919
8181
1919
8181
1a1a
8181
1919
8181
1919
8181
1919
8181
1919
8181
1919
8181
1919
8181
1919
8181
1919
8181
1a1a
8181
1919
8181
1919
8181
1919
8181
1919
8181
1919
8181
1919
8181
1919
8181
1a1a
8181
1919
8181
1919
8181
1919
8181
1919
8181
1919
8181
1919
8181
1919
8181
1a1a
8181
1919
8181
1919
8181
1919
8181
1919
8181
1919
8181
1919
8181
1919
8181
1a1a
8181
1919
8181
1919
8181
1919
8181
1919
8181
1919
8181
1919
8181
1919
8181
1919
8181
1a1a
8181
1919
8181
1919
8181
1919
8181
1919
8181
1919
8181
1919
8181
1919
8181
1a1a
8181
1919
8181
1919
8181
1919
8181
1919
8181
1919
8181
1919
8181
1919
8181
1a1a
8181
1919
8181
1919
8181
1919
8181
1919
8181
1919
8181
1919
8181
1919
8181
1a1a
8181
1919
0
5f5f
8181
3e3e
8181
3d3d
8181
3d3d
8181
3e3e
8181
3d3d
8181
3e3e
8181
3d3d
8181
3d3d
8181
3e3e
8181
3d3d
8181
3e3e
8181
3d3d
8181
3e3e
8181
3d3d
8181
3d3d
8181
3e3e
8181
3d3d
8181
3e3e
8181
3d3d
8181
3d3d
8181
3e3e
8181
3d3d
8181
3e3e
8181
3d3d
8181
3d3d
8181
3e3e
8181
3d3d
8181
3e3e
8181
3d3d
8181
3e3e
8181
3d3d
8181
3d3d
8181
3e3e
8181
3d3d
8181
3e3e
8181
3d3d
8181
3d3d
8181
3e3e
8181
3d3d
8181
3e3e
8181
3d3d
8181
3d3d
8181
3e3e
8181
3d3d
8181
3e3e
8181
3d3d
8181
3d3d
8181
3e3e
8181
3d3d
8181
3e3e
8181
3d3d
8181
3e3e
8181
3d3d
8181
3d3d
8181
3e3e
8181
3d3d
8181
3e3e
8181
3d3d
8181
3d3d
8181
3e3e
8181
3d3d
8181
3e3e
8181
3d3d
8181
7878
8181
6f6f
8181
6f6f
8181
7070
8181
6f6f
8181
6f6f
8181
6f6f
8181
6f6f
8181
7070
8181
6f6f
8181
6f6f
8181
6f6f
8181
6f6f
8181
6f6f
8181
7070
8181
6f6f
8181
6f6f
8181
6f6f
8181
6f6f
8181
7070
8181
6f6f
8181
6f6f
8181
6f6f
8181
6f6f
8181
6f6f
8181
7070
8181
6f6f
8181
6f6f
8181
6f6f
8181
6f6f
8181
7070
8181
6f6f
8181
6f6f
8181
6f6f
8181
6f6f
8181
6f6f
8181
7070
8181
6f6f
8181
6f6f
8181
6f6f
8181
6f6f
8181
7070
8181
6f6f
8181
6f6f
8181
6f6f
8181
6f6f
8181
6f6f
8181
7070
8181
8181
1d1d
8282
3838
8282
3838
8282
3838
8282
3838
8282
3838
8282
3838
8282
3838
8282
3838
8282
3838
8282
3838
8282
3838
8282
3838
8282
3939
8282
3838
8282
3838
8282
3838
8282
3838
8282
3838
8282
3838
8282
3838
8282
3838
8282
3838
8282
3838
8282
3838
8282
3838
8282
3939
8282
3838
8282
3838
8282
3838
8282
3838
8282
3838
8282
3838
8282
3838
8282
3838
8282
3838
8282
3838
8282
3838
8282
3838
0
0
0
0
0
0
0
0
0
0
0
0
0
0
0
0
0
0
8181
5555
8383
2a2a
8383
2929
8383
2a2a
8383
2a2a
8383
2929
8383
2a2a
8383
2929
8383
2a2a
8383
2929
8383
2a2a
8383
2929
8383
2a2a
8383
2a2a
8383
2929
8383
2a2a
8383
2929
8383
2a2a
8383
2929
8383
2a2a
8383
2929
8383
2a2a
8383
2a2a
8383
2929
8383
2a2a
8383
2929
8383
2a2a
8383
2929
8383
2a2a
0
0
0
0
0
0
8282
3636
8484
6a6a
8484
6a6a
8484
6a6a
8484
6b6b
8484
6a6a
8484
6a6a
8484
6a6a
8484
6b6b
8484
6a6a
8484
6a6a
8484
6b6b
8484
6a6a
8484
6a6a
8484
6a6a
8484
6b6b
8484
6a6a
8484
6a6a
8484
6a6a
8484
6b6b
0
0
0
0
0
0
0
0
0
0
0
0
0
0
0
0
0
0
0
0
0
0
0
0
8383
6262
8787
4444
8787
4444
8787
4444
8787
4343
8787
4444
8787
4444
8787
4444
8787
4343
8787
4444
8787
4444
8787
4444
8787
4444
0
0
0
0
0
0
8686
5f5f
8d8d
3c3c
8d8d
3d3d
8d8d
3d3d
8d8d
3c3c
8d8d
3d3d
8d8d
3d3d
0
0
0
0
0
0
0
0
0
0
0
0
0
0
0
0
0
0
8e8e
1d1d
9c9c
3939
9c9c
3939
0
0
0
0
0
0
0
0
0
0
c0c0
0
0
0
0
0
0
0
0
0
0
0
0
0
0
0
3636
6a6a
6a6a
6b6b
6a6a
6b6b
6a6a
6a6a
6b6b
6a6a
6b6b
6a6a
6a6a
6b6b
6a6a
6b6b
6a6a
6a6a
6b6b
6a6a
6a6a
6b6b
6a6a
6b6b
6a6a
6a6a
6b6b
6a6a
6b6b
6a6a
6a6a
6b6b
6a6a
6b6b
6a6a
6a6a
6b6b
6a6a
6a6a
6b6b
6a6a
6b6b
6a6a
6a6a
6b6b
6a6a
6b6b
6a6a
6a6a
6b6b
6a6a
6b6b
6a6a
6a6a
6b6b
6a6a
6b6b
6a6a
6a6a
6b6b
6a6a
6a6a
6b6b
6a6a
6b6b
6a6a
6a6a
6b6b
6a6a
6b6b
6a6a
6a6a
6b6b
6a6a
6b6b
6a6a
6a6a
6b6b
6a6a
6a6a
6b6b
6a6a
6b6b
6a6a
6a6a
6b6b
6a6a
6b6b
6a6a
6a6a
6b6b
6a6a
6b6b
6a6a
6a6a
6b6b
6a6a
6a6a
6b6b
6a6a
6b6b
6a6a
6a6a
6b6b
6a6a
6b6b
6a6a
6a6a
6b6b
6a6a
6b6b
6a6a
6a6a
6b6b
6a6a
0
0
0
0
0
0
0
0
0
0
0
0
0
0
0
0
0
0
0
0
0
0
0
0
0
0
0
0
0
0
0
0
0
0
0
0
0
0
0
0
0
0
0
0
0
4040
7e7e
7f7f
7e7e
7f7f
7e7e
7f7f
7e7e
7f7f
7e7e
7f7f
7e7e
7f7f
7e7e
7f7f
7f7f
7e7e
7f7f
7e7e
7f7f
7e7e
7f7f
7e7e
7f7f
7e7e
7f7f
7e7e
7f7f
7e7e
7f7f
7e7e
7f7f
7e7e
7f7f
7e7e
7f7f
7e7e
7f7f
7e7e
7f7f
7e7e
7f7f
7e7e
7f7f
7f7f
7e7e
7f7f
7e7e
7f7f
7e7e
7f7f
7e7e
7f7f
7e7e
7f7f
7e7e
7f7f
7e7e
7f7f
7e7e
7f7f
7e7e
7f7f
7e7e
7f7f
7e7e
7f7f
7e7e
7f7f
7e7e
7f7f
7e7e
7f7f
7f7f
7e7e
7f7f
7e7e
7f7f
7e7e
7f7f
7e7e
7f7f
7e7e
7f7f
7e7e
7f7f
7e7e
7f7f
7e7e
7f7f
7e7e
7f7f
7e7e
7f7f
7e7e
7f7f
7e7e
0
0
0
0
0
0
0
0
0
0
0
0
0
0
0
0
0
0
0
0
0
0
0
0
0
0
0
0
0
0
0
0
0
0
0
0
0
0
0
0
0
0
0
0
0
0
0
0
0
0
0
0
0
0
0
0
0
0
0
0
0
0
0
4d4d
8181
1919
8181
1919
8181
1919
8181
1a1a
8181
1919
8181
1919
8181
1919
8181
1919
8181
1919
8181
1919
8181
1919
8181
1a1a
8181
1919
8181
1919
8181
1919
8181
1919
8181
1919
8181
1919
8181
1919
8181
1919
8181
1a1a
8181
1919
8181
1919
8181
1919
8181
1919
8181
1919
8181
1919
8181
1919
8181
1a1a
8181
1919
8181
1919
8181
1919
8181
1919
8181
1919
8181
1919
8181
1919
8181
1a1a
8181
1919
8181
1919
8181
1919
8181
1919
8181
1919
8181
1919
8181
1919
8181
1a1a
8181
1919
8181
1919
8181
1919
8181
1919
8181
1919
8181
1919
8181
1919
8181
1919
8181
1a1a
8181
1919
8181
1919
8181
1919
8181
1919
8181
1919
8181
1919
8181
1919
8181
1a1a
8181
1919
8181
1919
8181
1919
8181
1919
8181
1919
8181
1919
8181
1919
8181
1a1a
8181
1919
8181
1919
8181
1919
8181
1919
8181
1919
8181
1919
8181
1919
8181
1a1a
8181
1919
0
5f5f
8181
3e3e
8181
3d3d
8181
3d3d
8181
3e3e
8181
3d3d
8181
3e3e
8181
3d3d
8181
3d3d
8181
3e3e
8181
3d3d
8181
3e3e
8181
3d3d
8181
3e3e
8181
3d3d
8181
3d3d
8181
3e3e
8181
3d3d
8181
3e3e
8181
3d3d
8181
3d3d
8181
3e3e
8181
3d3d
8181
3e3e
8181
3d3d
8181
3d3d
8181
3e3e
8181
3d3d
8181
3e3e
8181
3d3d
8181
3e3e
8181
3d3d
8181
3d3d
8181
3e3e
8181
3d3d
8181
3e3e
8181
3d3d
8181
3d3d
8181
3e3e
8181
3d3d
8181
3e3e
8181
3d3d
8181
3d3d
8181
3e3e
8181
3d3d
8181
3e3e
8181
3d3d
8181
3d3d
8181
3e3e
8181
3d3d
8181
3e3e
8181
3d3d
8181
3e3e
8181
3d3d
8181
3d3d
8181
3e3e
8181
3d3d
8181
3e3e
8181
3d3d
8181
3d3d
8181
3e3e
8181
3d3d
8181
3e3e
8181
3d3d
8181
7878
8181
6f6f
8181
6f6f
8181
7070
8181
6f6f
8181
6f6f
8181
6f6f
8181
6f6f
8181
7070
8181
6f6f
8181
6f6f
8181
6f6f
8181
6f6f
8181
6f6f
8181
7070
8181
6f6f
8181
6f6f
8181
6f6f
8181
6f6f
8181
7070
8181
6f6f
8181
6f6f
8181
6f6f
8181
6f6f
8181
6f6f
8181
7070
8181
6f6f
8181
6f6f
8181
6f6f
8181
6f6f
8181
7070
8181
6f6f
8181
6f6f
8181
6f6f
8181
6f6f
8181
6f6f
8181
7070
8181
6f6f
8181
6f6f
8181
6f6f
8181
6f6f
8181
7070
8181
6f6f
8181
6f6f
8181
6f6f
8181
6f6f
8181
6f6f
8181
7070
8181
8181
1d1d
8282
3838
8282
3838
8282
3838
8282
3838
8282
3838
8282
3838
8282
3838
8282
3838
8282
3838
8282
3838
8282
3838
8282
3838
8282
3939
8282
3838
8282
3838
8282
3838
8282
3838
8282
3838
8282
3838
8282
3838
8282
3838
8282
3838
8282
3838
8282
3838
8282
3838
8282
3939
8282
3838
8282
3838
8282
3838
8282
3838
8282
3838
8282
3838
8282
3838
8282
3838
8282
3838
8282
3838
8282
3838
8282
3838
0
0
0
0
0
0
0
0
0
0
0
0
0
0
0
0
0
0
8181
5555
8383
2a2a
8383
2929
8383
2a2a
8383
2a2a
8383
2929
8383
2a2a
8383
2929
8383
2a2a
8383
2929
8383
2a2a
8383
2929
8383
2a2a
8383
2a2a
8383
2929
8383
2a2a
8383
2929
8383
2a2a
8383
2929
8383
2a2a
8383
2929
8383
2a2a
8383
2a2a
8383
2929
8383
2a2a
8383
2929
8383
2a2a
8383
2929
8383
2a2a
0
0
0
0
0
0
8282
3636
8484
6a6a
8484
6a6a
8484
6a6a
8484
6b6b
8484
6a6a
8484
6a6a
8484
6a6a
8484
6b6b
8484
6a6a
8484
6a6a
8484
6b6b
8484
6a6a
8484
6a6a
8484
6a6a
8484
6b6b
8484
6a6a
8484
6a6a
8484
6a6a
8484
6b6b
0
0
0
0
0
0
0
0
0
0
0
0
0
0
0
0
0
0
0
0
0
0
0
0
8383
6262
8787
4444
8787
4444
8787
4444
8787
4343
8787
4444
8787
4444
8787
4444
8787
4343
8787
4444
8787
4444
8787
4444
8787
4444
0
0
0
0
0
0
8686
5f5f
8d8d
3c3c
8d8d
3d3d
8d8d
3d3d
8d8d
3c3c
8d8d
3d3d
8d8d
3d3d
0
0
0
0
0
0
0
0
0
0
0
0
0
0
0
0
0
0
8e8e
1d1d
9c9c
3939
9c9c
3939
0
0
0
0
0
0
0
0
0
0
c0c0
0
0
0
0
0
0
0
0
0
0
0
0
0
0
0
3636
6a6a
6a6a
6b6b
6a6a
6b6b
6a6a
6a6a
6b6b
6a6a
6b6b
6a6a
6a6a
6b6b
6a6a
6b6b
6a6a
6a6a
6b6b
6a6a
6a6a
6b6b
6a6a
6b6b
6a6a
6a6a
6b6b
6a6a
6b6b
6a6a
6a6a
6b6b
6a6a
6b6b
6a6a
6a6a
6b6b
6a6a
6a6a
6b6b
6a6a
6b6b
6a6a
6a6a
6b6b
6a6a
6b6b
6a6a
6a6a
6b6b
6a6a
6b6b
6a6a
6a6a
6b6b
6a6a
6b6b
6a6a
6a6a
6b6b
6a6a
6a6a
6b6b
6a6a
6b6b
6a6a
6a6a
6b6b
6a6a
6b6b
6a6a
6a6a
6b6b
6a6a
6b6b
6a6a
6a6a
6b6b
6a6a
6a6a
6b6b
6a6a
6b6b
6a6a
6a6a
6b6b
6a6a
6b6b
6a6a
6a6a
6b6b
6a6a
6b6b
6a6a
6a6a
6b6b
6a6a
6a6a
6b6b
6a6a
6b6b
6a6a
6a6a
6b6b
6a6a
6b6b
6a6a
6a6a
6b6b
6a6a
6b6b
6a6a
6a6a
6b6b
6a6a
0
0
0
0
0
0
0
0
0
0
0
0
0
0
0
0
0
0
0
0
0
0
0
0
0
0
0
0
0
0
0
0
0
0
0
0
0
0
0
0
0
0
0
0
0
4040
7e7e
7f7f
7e7e
7f7f
7e7e
7f7f
7e7e
7f7f
7e7e
7f7f
7e7e
7f7f
7e7e
7f7f
7f7f
7e7e
7f7f
7e7e
7f7f
7e7e
7f7f
7e7e
7f7f
7e7e
7f7f
7e7e
7f7f
7e7e
7f7f
7e7e
7f7f
7e7e
7f7f
7e7e
7f7f
7e7e
7f7f
7e7e
7f7f
7e7e
7f7f
7e7e
7f7f
7f7f
7e7e
7f7f
7e7e
7f7f
7e7e
7f7f
7e7e
7f7f
7e7e
7f7f
7e7e
7f7f
7e7e
7f7f
7e7e
7f7f
7e7e
7f7f
7e7e
7f7f
7e7e
7f7f
7e7e
7f7f
7e7e
7f7f
7e7e
7f7f
7f7f
7e7e
7f7f
7e7e
7f7f
7e7e
7f7f
7e7e
7f7f
7e7e
7f7f
7e7e
7f7f
7e7e
7f7f
7e7e
7f7f
7e7e
7f7f
7e7e
7f7f
7e7e
7f7f
7e7e
0
0
0
0
0
0
0
0
0
0
0
0
0
0
0
0
0
0
0
0
0
0
0
0
0
0
0
0
0
0
0
0
0
0
0
0
0
0
0
0
0
0
0
0
0
0
0
0
0
0
0
0
0
0
0
0
0
0
0
0
0
0
0
4d4d
8181
1919
8181
1919
8181
1919
8181
1a1a
8181
1919
8181
1919
8181
1919
8181
1919
8181
1919
8181
1919
8181
1919
8181
1a1a
8181
1919
8181
1919
8181
1919
8181
1919
8181
1919
8181
1919
8181
1919
8181
1919
8181
1a1a
8181
1919
8181
1919
8181
1919
8181
1919
8181
1919
8181
1919
8181
1919
8181
1a1a
8181
1919
8181
1919
8181
1919
8181
1919
8181
1919
8181
1919
8181
1919
8181
1a1a
8181
1919
8181
1919
8181
1919
8181
1919
8181
1919
8181
1919
8181
1919
8181
1a1a
8181
1919
8181
1919
8181
1919
8181
1919
8181
1919
8181
1919
8181
1919
8181
1919
8181
1a1a
8181
1919
8181
1919
8181
1919
8181
1919
8181
1919
8181
1919
8181
1919
8181
1a1a
8181
1919
8181
1919
8181
1919
8181
1919
8181
1919
8181
1919
8181
1919
8181
1a1a
8181
1919
8181
1919
8181
1919
8181
1919
8181
1919
8181
1919
8181
1919
8181
1a1a
8181
1919
0
5f5f
8181
3e3e
8181
3d3d
8181
3d3d
8181
3e3e
8181
3d3d
8181
3e3e
8181
3d3d
8181
3d3d
8181
3e3e
8181
3d3d
8181
3e3e
8181
3d3d
8181
3e3e
8181
3d3d
8181
3d3d
8181
3e3e
8181
3d3d
8181
3e3e
8181
3d3d
8181
3d3d
8181
3e3e
8181
3d3d
8181
3e3e
8181
3d3d
8181
3d3d
8181
3e3e
8181
3d3d
8181
3e3e
8181
3d3d
8181
3e3e
8181
3d3d
8181
3d3d
8181
3e3e
8181
3d3d
8181
3e3e
8181
3d3d
8181
3d3d
8181
3e3e
8181
3d3d
8181
3e3e
8181
3d3d
8181
3d3d
8181
3e3e
8181
3d3d
8181
3e3e
8181
3d3d
8181
3d3d
8181
3e3e
8181
3d3d
8181
3e3e
8181
3d3d
8181
3e3e
8181
3d3d
8181
3d3d
8181
3e3e
8181
3d3d
8181
3e3e
8181
3d3d
8181
3d3d
8181
3e3e
8181
3d3d
8181
3e3e
8181
3d3d
8181
7878
8181
6f6f
8181
6f6f
8181
7070
8181
6f6f
8181
6f6f
8181
6f6f
8181
6f6f
8181
7070
8181
6f6f
8181
6f6f
8181
6f6f
8181
6f6f
8181
6f6f
8181
7070
8181
6f6f
8181
6f6f
8181
6f6f
8181
6f6f
8181
7070
8181
6f6f
8181
6f6f
8181
6f6f
8181
6f6f
8181
6f6f
8181
7070
8181
6f6f
8181
6f6f
8181
6f6f
8181
6f6f
8181
7070
8181
6f6f
8181
6f6f
8181
6f6f
8181
6f6f
8181
6f6f
8181
7070
8181
6f6f
8181
6f6f
8181
6f6f
8181
6f6f
8181
7070
8181
6f6f
8181
6f6f
8181
6f6f
8181
6f6f
8181
6f6f
8181
7070
8181
8181
1d1d
8282
3838
8282
3838
8282
3838
8282
3838
8282
3838
8282
3838
8282
3838
8282
3838
8282
3838
8282
3838
8282
3838
8282
3838
8282
3939
8282
3838
8282
3838
8282
3838
8282
3838
8282
3838
8282
3838
8282
3838
8282
3838
8282
3838
8282
3838
8282
3838
8282
3838
8282
3939
8282
3838
8282
3838
8282
3838
8282
3838
8282
3838
8282
3838
8282
3838
8282
3838
8282
3838
8282
3838
8282
3838
8282
3838
0
0
0
0
0
0
0
0
0
0
0
0
0
0
0
0
0
0
8181
5555
8383
2a2a
8383
2929
8383
2a2a
8383
2a2a
8383
2929
8383
2a2a
8383
2929
8383
2a2a
8383
2929
8383
2a2a
8383
2929
8383
2a2a
8383
2a2a
8383
2929
8383
2a2a
8383
2929
8383
2a2a
8383
2929
8383
2a2a
8383
2929
8383
2a2a
8383
2a2a
8383
2929
8383
2a2a
8383
2929
8383
2a2a
8383
2929
8383
2a2a
0
0
0
0
0
0
8282
3636
8484
6a6a
8484
6a6a
8484
6a6a
8484
6b6b
8484
6a6a
8484
6a6a
8484
6a6a
8484
6b6b
8484
6a6a
8484
6a6a
8484
6b6b
8484
6a6a
8484
6a6a
8484
6a6a
8484
6b6b
8484
6a6a
8484
6a6a
8484
6a6a
8484
6b6b
0
0
0
0
0
0
0
0
0
0
0
0
0
0
0
0
0
0
0
0
0
0
0
0
8383
6262
8787
4444
8787
4444
8787
4444
8787
4343
8787
4444
8787
4444
8787
4444
8787
4343
8787
4444
8787
4444
8787
4444
8787
4444
0
0
0
0
0
0
8686
5f5f
8d8d
3c3c
8d8d
3d3d
8d8d
3d3d
8d8d
3c3c
8d8d
3d3d
8d8d
3d3d
0
0
0
0
0
0
0
0
0
0
0
0
0
0
0
0
0
0
8e8e
1d1d
9c9c
3939
9c9c
3939
0
0
0
0
0
0
0
0
0
0
c0c0
0
0
0
0
0
0
0
0
0
0
0
0
0
0
0
3636
6a6a
6a6a
6b6b
6a6a
6b6b
6a6a
6a6a
6b6b
6a6a
6b6b
6a6a
6a6a
6b6b
6a6a
6b6b
6a6a
6a6a
6b6b
6a6a
6a6a
6b6b
6a6a
6b6b
6a6a
6a6a
6b6b
6a6a
6b6b
6a6a
6a6a
6b6b
6a6a
6b6b
6a6a
6a6a
6b6b
6a6a
6a6a
6b6b
6a6a
6b6b
6a6a
6a6a
6b6b
6a6a
6b6b
6a6a
6a6a
6b6b
6a6a
6b6b
6a6a
6a6a
6b6b
6a6a
6b6b
6a6a
6a6a
6b6b
6a6a
6a6a
6b6b
6a6a
6b6b
6a6a
6a6a
6b6b
6a6a
6b6b
6a6a
6a6a
6b6b
6a6a
6b6b
6a6a
6a6a
6b6b
6a6a
6a6a
6b6b
6a6a
6b6b
6a6a
6a6a
6b6b
6a6a
6b6b
6a6a
6a6a
6b6b
6a6a
6b6b
6a6a
6a6a
6b6b
6a6a
6a6a
6b6b
6a6a
6b6b
6a6a
6a6a
6b6b
6a6a
6b6b
6a6a
6a6a
6b6b
6a6a
6b6b
6a6a
6a6a
6b6b
6a6a
0
0
0
0
0
0
0
0
0
0
0
0
0
0
0
0
0
0
0
0
0
0
0
0
0
0
0
0
0
0
0
0
0
0
0
0
0
0
0
0
0
0
0
0
0
4040
7e7e
7f7f
7e7e
7f7f
7e7e
7f7f
7e7e
7f7f
7e7e
7f7f
7e7e
7f7f
7e7e
7f7f
7f7f
7e7e
7f7f
7e7e
7f7f
7e7e
7f7f
7e7e
7f7f
7e7e
7f7f
7e7e
7f7f
7e7e
7f7f
7e7e
7f7f
7e7e
7f7f
7e7e
7f7f
7e7e
7f7f
7e7e
7f7f
7e7e
7f7f
7e7e
7f7f
7f7f
7e7e
7f7f
7e7e
7f7f
7e7e
7f7f
7e7e
7f7f
7e7e
7f7f
7e7e
7f7f
7e7e
7f7f
7e7e
7f7f
7e7e
7f7f
7e7e
7f7f
7e7e
7f7f
7e7e
7f7f
7e7e
7f7f
7e7e
7f7f
7f7f
7e7e
7f7f
7e7e
7f7f
7e7e
7f7f
7e7e
7f7f
7e7e
7f7f
7e7e
7f7f
7e7e
7f7f
7e7e
7f7f
7e7e
7f7f
7e7e
7f7f
7e7e
7f7f
7e7e
0
0
0
0
0
0
0
0
0
0
0
0
0
0
0
0
0
0
0
0
0
0
0
0
0
0
0
0
0
0
0
0
0
0
0
0
0
0
0
0
0
0
0
0
0
0
0
0
0
0
0
0
0
0
0
0
0
0
0
0
0
0
0
4d4d
8181
1919
8181
1919
8181
1919
8181
1a1a
8181
1919
8181
1919
8181
1919
8181
1919
8181
1919
8181
1919
8181
1919
8181
1a1a
8181
1919
8181
1919
8181
1919
8181
1919
8181
1919
8181
1919
8181
1919
8181
1919
8181
1a1a
8181
1919
8181
1919
8181
1919
8181
1919
8181
1919
8181
1919
8181
1919
8181
1a1a
8181
1919
8181
1919
8181
1919
8181
1919
8181
1919
8181
1919
8181
1919
8181
1a1a
8181
1919
8181
1919
8181
1919
8181
1919
8181
1919
8181
1919
8181
1919
8181
1a1a
8181
1919
8181
1919
8181
1919
8181
1919
8181
1919
8181
1919
8181
1919
8181
1919
8181
1a1a
8181
1919
8181
1919
8181
1919
8181
1919
8181
1919
8181
1919
8181
1919
8181
1a1a
8181
1919
8181
1919
8181
1919
8181
1919
8181
1919
8181
1919
8181
1919
8181
1a1a
8181
1919
8181
1919
8181
1919
8181
1919
8181
1919
8181
1919
8181
1919
8181
1a1a
8181
1919
0
5f5f
8181
3e3e
8181
3d3d
8181
3d3d
8181
3e3e
8181
3d3d
8181
3e3e
8181
3d3d
8181
3d3d
8181
3e3e
8181
3d3d
8181
3e3e
8181
3d3d
8181
3e3e
8181
3d3d
8181
3d3d
8181
3e3e
8181
3d3d
8181
3e3e
8181
3d3d
8181
3d3d
8181
3e3e
8181
3d3d
8181
3e3e
8181
3d3d
8181
3d3d
8181
3e3e
8181
3d3d
8181
3e3e
8181
3d3d
8181
3e3e
8181
3d3d
8181
3d3d
8181
3e3e
8181
3d3d
8181
3e3e
8181
3d3d
8181
3d3d
8181
3e3e
8181
3d3d
8181
3e3e
8181
3d3d
8181
3d3d
8181
3e3e
8181
3d3d
8181
3e3e
8181
3d3d
8181
3d3d
8181
3e3e
8181
3d3d
8181
3e3e
8181
3d3d
8181
3e3e
8181
3d3d
8181
3d3d
8181
3e3e
8181
3d3d
8181
3e3e
8181
3d3d
8181
3d3d
8181
3e3e
8181
3d3d
8181
3e3e
8181
3d3d
8181
7878
8181
6f6f
8181
6f6f
8181
7070
8181
6f6f
8181
6f6f
8181
6f6f
8181
6f6f
8181
7070
8181
6f6f
8181
6f6f
8181
6f6f
8181
6f6f
8181
6f6f
8181
7070
8181
6f6f
8181
6f6f
8181
6f6f
8181
6f6f
8181
7070
8181
6f6f
8181
6f6f
8181
6f6f
8181
6f6f
8181
6f6f
8181
7070
8181
6f6f
8181
6f6f
8181
6f6f
8181
6f6f
8181
7070
8181
6f6f
8181
6f6f
8181
6f6f
8181
6f6f
8181
6f6f
8181
7070
8181
6f6f
8181
6f6f
8181
6f6f
8181
6f6f
8181
7070
8181
6f6f
8181
6f6f
8181
6f6f
8181
6f6f
8181
6f6f
8181
7070
8181
8181
1d1d
8282
3838
8282
3838
8282
3838
8282
3838
8282
3838
8282
3838
8282
3838
8282
3838
8282
3838
8282
3838
8282
3838
8282
3838
8282
3939
8282
3838
8282
3838
8282
3838
8282
3838
8282
3838
8282
3838
8282
3838
8282
3838
8282
3838
8282
3838
8282
3838
8282
3838
8282
3939
8282
3838
8282
3838
8282
3838
8282
3838
8282
3838
8282
3838
8282
3838
8282
3838
8282
3838
8282
3838
8282
3838
8282
3838
0
0
0
0
0
0
0
0
0
0
0
0
0
0
0
0
0
0
8181
5555
8383
2a2a
8383
2929
8383
2a2a
8383
2a2a
8383
2929
8383
2a2a
8383
2929
8383
2a2a
8383
2929
8383
2a2a
8383
2929
8383
2a2a
8383
2a2a
8383
2929
8383
2a2a
8383
2929
8383
2a2a
8383
2929
8383
2a2a
8383
2929
8383
2a2a
8383
2a2a
8383
2929
8383
2a2a
8383
2929
8383
2a2a
8383
2929
8383
2a2a
0
0
0
0
0
0
8282
3636
8484
6a6a
8484
6a6a
8484
6a6a
8484
6b6b
8484
6a6a
8484
6a6a
8484
6a6a
8484
6b6b
8484
6a6a
8484
6a6a
8484
6b6b
8484
6a6a
8484
6a6a
8484
6a6a
8484
6b6b
8484
6a6a
8484
6a6a
8484
6a6a
8484
6b6b
0
0
0
0
0
0
0
0
0
0
0
0
0
0
0
0
0
0
0
0
0
0
0
0
8383
6262
8787
4444
8787
4444
8787
4444
8787
4343
8787
4444
8787
4444
8787
4444
8787
4343
8787
4444
8787
4444
8787
4444
8787
4444
0
0
0
0
0
0
8686
5f5f
8d8d
3c3c
8d8d
3d3d
8d8d
3d3d
8d8d
3c3c
8d8d
3d3d
8d8d
3d3d
0
0
0
0
0
0
0
0
0
0
0
0
0
0
0
0
0
0
8e8e
1d1d
9c9c
3939
9c9c
3939
0
0
0
0
0
0
0
0
0
0
c0c0
0
0
0
0
0
0
0
0
0
0
0
0
0
0
0
3636
6a6a
6a6a
6b6b
6a6a
6b6b
6a6a
6a6a
6b6b
6a6a
6b6b
6a6a
6a6a
6b6b
6a6a
6b6b
6a6a
6a6a
6b6b
6a6a
6a6a
6b6b
6a6a
6b6b
6a6a
6a6a
6b6b
6a6a
6b6b
6a6a
6a6a
6b6b
6a6a
6b6b
6a6a
6a6a
6b6b
6a6a
6a6a
6b6b
6a6a
6b6b
6a6a
6a6a
6b6b
6a6a
6b6b
6a6a
6a6a
6b6b
6a6a
6b6b
6a6a
6a6a
6b6b
6a6a
6b6b
6a6a
6a6a
6b6b
6a6a
6a6a
6b6b
6a6a
6b6b
6a6a
6a6a
6b6b
6a6a
6b6b
6a6a
6a6a
6b6b
6a6a
6b6b
6a6a
6a6a
6b6b
6a6a
6a6a
6b6b
6a6a
6b6b
6a6a
6a6a
6b6b
6a6a
6b6b
6a6a
6a6a
6b6b
6a6a
6b6b
6a6a
6a6a
6b6b
6a6a
6a6a
6b6b
6a6a
6b6b
6a6a
6a6a
6b6b
6a6a
6b6b
6a6a
6a6a
6b6b
6a6a
6b6b
6a6a
6a6a
6b6b
6a6a
0
0
0
0
0
0
0
0
0
0
0
0
0
0
0
0
0
0
0
0
0
0
0
0
0
0
0
0
0
0
0
0
0
0
0
0
0
0
0
0
0
0
0
0
0
4040
7e7e
7f7f
7e7e
7f7f
7e7e
7f7f
7e7e
7f7f
7e7e
7f7f
7e7e
7f7f
7e7e
7f7f
7f7f
7e7e
7f7f
7e7e
7f7f
7e7e
7f7f
7e7e
7f7f
7e7e
7f7f
7e7e
7f7f
7e7e
7f7f
7e7e
7f7f
7e7e
7f7f
7e7e
7f7f
7e7e
7f7f
7e7e
7f7f
7e7e
7f7f
7e7e
7f7f
7f7f
7e7e
7f7f
7e7e
7f7f
7e7e
7f7f
7e7e
7f7f
7e7e
7f7f
7e7e
7f7f
7e7e
7f7f
7e7e
7f7f
7e7e
7f7f
7e7e
7f7f
7e7e
7f7f
7e7e
7f7f
7e7e
7f7f
7e7e
7f7f
7f7f
7e7e
7f7f
7e7e
7f7f
7e7e
7f7f
7e7e
7f7f
7e7e
7f7f
7e7e
7f7f
7e7e
7f7f
7e7e
7f7f
7e7e
7f7f
7e7e
7f7f
7e7e
7f7f
7e7e
0
0
0
0
0
0
0
0
0
0
0
0
0
0
0
0
0
0
0
0
0
0
0
0
0
0
0
0
0
0
0
0
0
0
0
0
0
0
0
0
0
0
0
0
0
0
0
0
0
0
0
0
0
0
0
0
0
0
0
0
0
0
0
4d4d
8181
1919
8181
1919
8181
1919
8181
1a1a
8181
1919
8181
1919
8181
1919
8181
1919
8181
1919
8181
1919
8181
1919
8181
1a1a
8181
1919
8181
1919
8181
1919
8181
1919
8181
1919
8181
1919
8181
1919
8181
1919
8181
1a1a
8181
1919
8181
1919
8181
1919
8181
1919
8181
1919
8181
1919
8181
1919
8181
1a1a
8181
1919
8181
1919
8181
1919
8181
1919
8181
1919
8181
1919
8181
1919
8181
1a1a
8181
1919
8181
1919
8181
1919
8181
1919
8181
1919
8181
1919
8181
1919
8181
1a1a
8181
1919
8181
1919
8181
1919
8181
1919
8181
1919
8181
1919
8181
1919
8181
1919
8181
1a1a
8181
1919
8181
1919
8181
1919
8181
1919
8181
1919
8181
1919
8181
1919
8181
1a1a
8181
1919
8181
1919
8181
1919
8181
1919
8181
1919
8181
1919
8181
1919
8181
1a1a
8181
1919
8181
1919
8181
1919
8181
1919
8181
1919
8181
1919
8181
1919
8181
1a1a
8181
1919
0
5f5f
8181
3e3e
8181
3d3d
8181
3d3d
8181
3e3e
8181
3d3d
8181
3e3e
8181
3d3d
8181
3d3d
8181
3e3e
8181
3d3d
8181
3e3e
8181
3d3d
8181
3e3e
8181
3d3d
8181
3d3d
8181
3e3e
8181
3d3d
8181
3e3e
8181
3d3d
8181
3d3d
8181
3e3e
8181
3d3d
8181
3e3e
8181
3d3d
8181
3d3d
8181
3e3e
8181
3d3d
8181
3e3e
8181
3d3d
8181
3e3e
8181
3d3d
8181
3d3d
8181
3e3e
8181
3d3d
8181
3e3e
8181
3d3d
8181
3d3d
8181
3e3e
8181
3d3d
8181
3e3e
8181
3d3d
8181
3d3d
8181
3e3e
8181
3d3d
8181
3e3e
8181
3d3d
8181
3d3d
8181
3e3e
8181
3d3d
8181
3e3e
8181
3d3d
8181
3e3e
8181
3d3d
8181
3d3d
8181
3e3e
8181
3d3d
8181
3e3e
8181
3d3d
8181
3d3d
8181
3e3e
8181
3d3d
8181
3e3e
8181
3d3d
8181
7878
8181
6f6f
8181
6f6f
8181
7070
8181
6f6f
8181
6f6f
8181
6f6f
8181
6f6f
8181
7070
8181
6f6f
8181
6f6f
8181
6f6f
8181
6f6f
8181
6f6f
8181
7070
8181
6f6f
8181
6f6f
8181
6f6f
8181
6f6f
8181
7070
8181
6f6f
8181
6f6f
8181
6f6f
8181
6f6f
8181
6f6f
8181
7070
8181
6f6f
8181
6f6f
8181
6f6f
8181
6f6f
8181
7070
8181
6f6f
8181
6f6f
8181
6f6f
8181
6f6f
8181
6f6f
8181
7070
8181
6f6f
8181
6f6f
8181
6f6f
8181
6f6f
8181
7070
8181
6f6f
8181
6f6f
8181
6f6f
8181
6f6f
8181
6f6f
8181
7070
8181
8181
1d1d
8282
3838
8282
3838
8282
3838
8282
3838
8282
3838
8282
3838
8282
3838
8282
3838
8282
3838
8282
3838
8282
3838
8282
3838
8282
3939
8282
3838
8282
3838
8282
3838
8282
3838
8282
3838
8282
3838
8282
3838
8282
3838
8282
3838
8282
3838
8282
3838
8282
3838
8282
3939
8282
3838
8282
3838
8282
3838
8282
3838
8282
3838
8282
3838
8282
3838
8282
3838
8282
3838
8282
3838
8282
3838
8282
3838
0
0
0
0
0
0
0
0
0
0
0
0
0
0
0
0
0
0
8181
5555
8383
2a2a
8383
2929
8383
2a2a
8383
2a2a
8383
2929
8383
2a2a
8383
2929
8383
2a2a
8383
2929
8383
2a2a
8383
2929
8383
2a2a
8383
2a2a
8383
2929
8383
2a2a
8383
2929
8383
2a2a
8383
2929
8383
2a2a
8383
2929
8383
2a2a
8383
2a2a
8383
2929
8383
2a2a
8383
2929
8383
2a2a
8383
2929
8383
2a2a
0
0
0
0
0
0
8282
3636
8484
6a6a
8484
6a6a
8484
6a6a
8484
6b6b
8484
6a6a
8484
6a6a
8484
6a6a
8484
6b6b
8484
6a6a
8484
6a6a
8484
6b6b
8484
6a6a
8484
6a6a
8484
6a6a
8484
6b6b
8484
6a6a
8484
6a6a
8484
6a6a
8484
6b6b
0
0
0
0
0
0
0
0
0
0
0
0
0
0
0
0
0
0
0
0
0
0
0
0
8383
6262
8787
4444
8787
4444
8787
4444
8787
4343
8787
4444
8787
4444
8787
4444
8787
4343
8787
4444
8787
4444
8787
4444
8787
4444
0
0
0
0
0
0
8686
5f5f
8d8d
3c3c
8d8d
3d3d
8d8d
3d3d
8d8d
3c3c
8d8d
3d3d
8d8d
3d3d
0
0
0
0
0
0
0
0
0
0
0
0
0
0
0
0
0
0
8e8e
1d1d
9c9c
3939
9c9c
3939
0
0
0
0
0
0
0
0
0
0
c0c0
0
0
0
0
0
0
0
0
0
0
0
0
0
0
0
3636
6a6a
6a6a
6b6b
6a6a
6b6b
6a6a
6a6a
6b6b
6a6a
6b6b
6a6a
6a6a
6b6b
6a6a
6b6b
6a6a
6a6a
6b6b
6a6a
6a6a
6b6b
6a6a
6b6b
6a6a
6a6a
6b6b
6a6a
6b6b
6a6a
6a6a
6b6b
6a6a
6b6b
6a6a
6a6a
6b6b
6a6a
6a6a
6b6b
6a6a
6b6b
6a6a
6a6a
6b6b
6a6a
6b6b
6a6a
6a6a
6b6b
6a6a
6b6b
6a6a
6a6a
6b6b
6a6a
6b6b
6a6a
6a6a
6b6b
6a6a
6a6a
6b6b
6a6a
6b6b
6a6a
6a6a
6b6b
6a6a
6b6b
6a6a
6a6a
6b6b
6a6a
6b6b
6a6a
6a6a
6b6b
6a6a
6a6a
6b6b
6a6a
6b6b
6a6a
6a6a
6b6b
6a6a
6b6b
6a6a
6a6a
6b6b
6a6a
6b6b
6a6a
6a6a
6b6b
6a6a
6a6a
6b6b
6a6a
6b6b
6a6a
6a6a
6b6b
6a6a
6b6b
6a6a
6a6a
6b6b
6a6a
6b6b
6a6a
6a6a
6b6b
6a6a
0
0
0
0
0
0
0
0
0
0
0
0
0
0
0
0
0
0
0
0
0
0
0
0
0
0
0
0
0
0
0
0
0
0
0
0
0
0
0
0
0
0
0
0
0
4040
7e7e
7f7f
7e7e
7f7f
7e7e
7f7f
7e7e
7f7f
7e7e
7f7f
7e7e
7f7f
7e7e
7f7f
7f7f
7e7e
7f7f
7e7e
7f7f
7e7e
7f7f
7e7e
7f7f
7e7e
7f7f
7e7e
7f7f
7e7e
7f7f
7e7e
7f7f
7e7e
7f7f
7e7e
7f7f
7e7e
7f7f
7e7e
7f7f
7e7e
7f7f
7e7e
7f7f
7f7f
7e7e
7f7f
7e7e
7f7f
7e7e
7f7f
7e7e
7f7f
7e7e
7f7f
7e7e
7f7f
7e7e
7f7f
7e7e
7f7f
7e7e
7f7f
7e7e
7f7f
7e7e
7f7f
7e7e
7f7f
7e7e
7f7f
7e7e
7f7f
7f7f
7e7e
7f7f
7e7e
7f7f
7e7e
7f7f
7e7e
7f7f
7e7e
7f7f
7e7e
7f7f
7e7e
7f7f
7e7e
7f7f
7e7e
7f7f
7e7e
7f7f
7e7e
7f7f
7e7e
0
0
0
0
0
0
0
0
0
0
0
0
0
0
0
0
0
0
0
0
0
0
0
0
0
0
0
0
0
0
0
0
0
0
0
0
0
0
0
0
0
0
0
0
0
0
0
0
0
0
0
0
0
0
0
0
0
0
0
0
0
0
0
4d4d
8181
1919
8181
1919
8181
1919
8181
1a1a
8181
1919
8181
1919
8181
1919
8181
1919
8181
1919
8181
1919
8181
1919
8181
1a1a
8181
1919
8181
1919
8181
1919
8181
1919
8181
1919
8181
1919
8181
1919
8181
1919
8181
1a1a
8181
1919
8181
1919
8181
1919
8181
1919
8181
1919
8181
1919
8181
1919
8181
1a1a
8181
1919
8181
1919
8181
1919
8181
1919
8181
1919
8181
1919
8181
1919
8181
1a1a
8181
1919
8181
1919
8181
1919
8181
1919
8181
1919
8181
1919
8181
1919
8181
1a1a
8181
1919
8181
1919
8181
1919
8181
1919
8181
1919
8181
1919
8181
1919
8181
1919
8181
1a1a
8181
1919
8181
1919
8181
1919
8181
1919
8181
1919
8181
1919
8181
1919
8181
1a1a
8181
1919
8181
1919
8181
1919
8181
1919
8181
1919
8181
1919
8181
1919
8181
1a1a
8181
1919
8181
1919
8181
1919
8181
1919
8181
1919
8181
1919
8181
1919
8181
1a1a
8181
1919
0
5f5f
8181
3e3e
8181
3d3d
8181
3d3d
8181
3e3e
8181
3d3d
8181
3e3e
8181
3d3d
8181
3d3d
8181
3e3e
8181
3d3d
8181
3e3e
8181
3d3d
8181
3e3e
8181
3d3d
8181
3d3d
8181
3e3e
8181
3d3d
8181
3e3e
8181
3d3d
8181
3d3d
8181
3e3e
8181
3d3d
8181
3e3e
8181
3d3d
8181
3d3d
8181
3e3e
8181
3d3d
8181
3e3e
8181
3d3d
8181
3e3e
8181
3d3d
8181
3d3d
8181
3e3e
8181
3d3d
8181
3e3e
8181
3d3d
8181
3d3d
8181
3e3e
8181
3d3d
8181
3e3e
8181
3d3d
8181
3d3d
8181
3e3e
8181
3d3d
8181
3e3e
8181
3d3d
8181
3d3d
8181
3e3e
8181
3d3d
8181
3e3e
8181
3d3d
8181
3e3e
8181
3d3d
8181
3d3d
8181
3e3e
8181
3d3d
8181
3e3e
8181
3d3d
8181
3d3d
8181
3e3e
8181
3d3d
8181
3e3e
8181
3d3d
8181
7878
8181
6f6f
8181
6f6f
8181
7070
8181
6f6f
8181
6f6f
8181
6f6f
8181
6f6f
8181
7070
8181
6f6f
8181
6f6f
8181
6f6f
8181
6f6f
8181
6f6f
8181
7070
8181
6f6f
8181
6f6f
8181
6f6f
8181
6f6f
8181
7070
8181
6f6f
8181
6f6f
8181
6f6f
8181
6f6f
8181
6f6f
8181
7070
8181
6f6f
8181
6f6f
8181
6f6f
8181
6f6f
8181
7070
8181
6f6f
8181
6f6f
8181
6f6f
8181
6f6f
8181
6f6f
8181
7070
8181
6f6f
8181
6f6f
8181
6f6f
8181
6f6f
8181
7070
8181
6f6f
8181
6f6f
8181
6f6f
8181
6f6f
8181
6f6f
8181
7070
8181
8181
1d1d
8282
3838
8282
3838
8282
3838
8282
3838
8282
3838
8282
3838
8282
3838
8282
3838
8282
3838
8282
3838
8282
3838
8282
3838
8282
3939
8282
3838
8282
3838
8282
3838
8282
3838
8282
3838
8282
3838
8282
3838
8282
3838
8282
3838
8282
3838
8282
3838
8282
3838
8282
3939
8282
3838
8282
3838
8282
3838
8282
3838
8282
3838
8282
3838
8282
3838
8282
3838
8282
3838
8282
3838
8282
3838
8282
3838
0
0
0
0
0
0
0
0
0
0
0
0
0
0
0
0
0
0
8181
5555
8383
2a2a
8383
2929
8383
2a2a
8383
2a2a
8383
2929
8383
2a2a
8383
2929
8383
2a2a
8383
2929
8383
2a2a
8383
2929
8383
2a2a
8383
2a2a
8383
2929
8383
2a2a
8383
2929
8383
2a2a
8383
2929
8383
2a2a
8383
2929
8383
2a2a
8383
2a2a
8383
2929
8383
2a2a
8383
2929
8383
2a2a
8383
2929
8383
2a2a
0
0
0
0
0
0
8282
3636
8484
6a6a
8484
6a6a
8484
6a6a
8484
6b6b
8484
6a6a
8484
6a6a
8484
6a6a
8484
6b6b
8484
6a6a
8484
6a6a
8484
6b6b
8484
6a6a
8484
6a6a
8484
6a6a
8484
6b6b
8484
6a6a
8484
6a6a
8484
6a6a
8484
6b6b
0
0
0
0
0
0
0
0
0
0
0
0
0
0
0
0
0
0
0
0
0
0
0
0
8383
6262
8787
4444
8787
4444
8787
4444
8787
4343
8787
4444
8787
4444
8787
4444
8787
4343
8787
4444
8787
4444
8787
4444
8787
4444
0
0
0
0
0
0
8686
5f5f
8d8d
3c3c
8d8d
3d3d
8d8d
3d3d
8d8d
3c3c
8d8d
3d3d
8d8d
3d3d
0
0
0
0
0
0
0
0
0
0
0
0
0
0
0
0
0
0
8e8e
1d1d
9c9c
3939
9c9c
3939
0
0
0
0
0
0
0
0
0
0
c0c0
0
0
0
0
0
0
0
0
0
0
0
0
0
0
0
3636
6a6a
6a6a
6b6b
6a6a
6b6b
6a6a
6a6a
6b6b
6a6a
6b6b
6a6a
6a6a
6b6b
6a6a
6b6b
6a6a
6a6a
6b6b
6a6a
6a6a
6b6b
6a6a
6b6b
6a6a
6a6a
6b6b
6a6a
6b6b
6a6a
6a6a
6b6b
6a6a
6b6b
6a6a
6a6a
6b6b
6a6a
6a6a
6b6b
6a6a
6b6b
6a6a
6a6a
6b6b
6a6a
6b6b
6a6a
6a6a
6b6b
6a6a
6b6b
6a6a
6a6a
6b6b
6a6a
6b6b
6a6a
6a6a
6b6b
6a6a
6a6a
6b6b
6a6a
6b6b
6a6a
6a6a
6b6b
6a6a
6b6b
6a6a
6a6a
6b6b
6a6a
6b6b
6a6a
6a6a
6b6b
6a6a
6a6a
6b6b
6a6a
6b6b
6a6a
6a6a
6b6b
6a6a
6b6b
6a6a
6a6a
6b6b
6a6a
6b6b
6a6a
6a6a
6b6b
6a6a
6a6a
6b6b
6a6a
6b6b
6a6a
6a6a
6b6b
6a6a
6b6b
6a6a
6a6a
6b6b
6a6a
6b6b
6a6a
6a6a
6b6b
6a6a
0
0
0
0
0
0
0
0
0
0
0
0
0
0
0
0
0
0
0
0
0
0
0
0
0
0
0
0
0
0
0
0
0
0
0
0
0
0
0
0
0
0
0
0
0
4040
7e7e
7f7f
7e7e
7f7f
7e7e
7f7f
7e7e
7f7f
7e7e
7f7f
7e7e
7f7f
7e7e
7f7f
7f7f
7e7e
7f7f
7e7e
7f7f
7e7e
7f7f
7e7e
7f7f
7e7e
7f7f
7e7e
7f7f
7e7e
7f7f
7e7e
7f7f
7e7e
7f7f
7e7e
7f7f
7e7e
7f7f
7e7e
7f7f
7e7e
7f7f
7e7e
7f7f
7f7f
7e7e
7f7f
7e7e
7f7f
7e7e
7f7f
7e7e
7f7f
7e7e
7f7f
7e7e
7f7f
7e7e
7f7f
7e7e
7f7f
7e7e
7f7f
7e7e
7f7f
7e7e
7f7f
7e7e
7f7f
7e7e
7f7f
7e7e
7f7f
7f7f
7e7e
7f7f
7e7e
7f7f
7e7e
7f7f
7e7e
7f7f
7e7e
7f7f
7e7e
7f7f
7e7e
7f7f
7e7e
7f7f
7e7e
7f7f
7e7e
7f7f
7e7e
7f7f
7e7e
0
0
0
0
0
0
0
0
0
0
0
0
0
0
0
0
0
0
0
0
0
0
0
0
0
0
0
0
0
0
0
0
0
0
0
0
0
0
0
0
0
0
0
0
0
0
0
0
0
0
0
0
0
0
0
0
0
0
0
0
0
0
0
4d4d
8181
1919
8181
1919
8181
1919
8181
1a1a
8181
1919
8181
1919
8181
1919
8181
1919
8181
1919
8181
1919
8181
1919
8181
1a1a
8181
1919
8181
1919
8181
1919
8181
1919
8181
1919
8181
1919
8181
1919
8181
1919
8181
1a1a
8181
1919
8181
1919
8181
1919
8181
1919
8181
1919
8181
1919
8181
1919
8181
1a1a
8181
1919
8181
1919
8181
1919
8181
1919
8181
1919
8181
1919
8181
1919
8181
1a1a
8181
1919
8181
1919
8181
1919
8181
1919
8181
1919
8181
1919
8181
1919
8181
1a1a
8181
1919
8181
1919
8181
1919
8181
1919
8181
1919
8181
1919
8181
1919
8181
1919
8181
1a1a
8181
1919
8181
1919
8181
1919
8181
1919
8181
1919
8181
1919
8181
1919
8181
1a1a
8181
1919
8181
1919
8181
1919
8181
1919
8181
1919
8181
1919
8181
1919
8181
1a1a
8181
1919
8181
1919
8181
1919
8181
1919
8181
1919
8181
1919
8181
1919
8181
1a1a
8181
1919
0
5f5f
8181
3e3e
8181
3d3d
8181
3d3d
8181
3e3e
8181
3d3d
8181
3e3e
8181
3d3d
8181
3d3d
8181
3e3e
8181
3d3d
8181
3e3e
8181
3d3d
8181
3e3e
8181
3d3d
8181
3d3d
8181
3e3e
8181
3d3d
8181
3e3e
8181
3d3d
8181
3d3d
8181
3e3e
8181
3d3d
8181
3e3e
8181
3d3d
8181
3d3d
8181
3e3e
8181
3d3d
8181
3e3e
8181
3d3d
8181
3e3e
8181
3d3d
8181
3d3d
8181
3e3e
8181
3d3d
8181
3e3e
8181
3d3d
8181
3d3d
8181
3e3e
8181
3d3d
8181
3e3e
8181
3d3d
8181
3d3d
8181
3e3e
8181
3d3d
8181
3e3e
8181
3d3d
8181
3d3d
8181
3e3e
8181
3d3d
8181
3e3e
8181
3d3d
8181
3e3e
8181
3d3d
8181
3d3d
8181
3e3e
8181
3d3d
8181
3e3e
8181
3d3d
8181
3d3d
8181
3e3e
8181
3d3d
8181
3e3e
8181
3d3d
8181
7878
8181
6f6f
8181
6f6f
8181
7070
8181
6f6f
8181
6f6f
8181
6f6f
8181
6f6f
8181
7070
8181
6f6f
8181
6f6f
8181
6f6f
8181
6f6f
8181
6f6f
8181
7070
8181
6f6f
8181
6f6f
8181
6f6f
8181
6f6f
8181
7070
8181
6f6f
8181
6f6f
8181
6f6f
8181
6f6f
8181
6f6f
8181
7070
8181
6f6f
8181
6f6f
8181
6f6f
8181
6f6f
8181
7070
8181
6f6f
8181
6f6f
8181
6f6f
8181
6f6f
8181
6f6f
8181
7070
8181
6f6f
8181
6f6f
8181
6f6f
8181
6f6f
8181
7070
8181
6f6f
8181
6f6f
8181
6f6f
8181
6f6f
8181
6f6f
8181
7070
8181
8181
1d1d
8282
3838
8282
3838
8282
3838
8282
3838
8282
3838
8282
3838
8282
3838
8282
3838
8282
3838
8282
3838
8282
3838
8282
3838
8282
3939
8282
3838
8282
3838
8282
3838
8282
3838
8282
3838
8282
3838
8282
3838
8282
3838
8282
3838
8282
3838
8282
3838
8282
3838
8282
3939
8282
3838
8282
3838
8282
3838
8282
3838
8282
3838
8282
3838
8282
3838
8282
3838
8282
3838
8282
3838
8282
3838
8282
3838
0
0
0
0
0
0
0
0
0
0
0
0
0
0
0
0
0
0
8181
5555
8383
2a2a
8383
2929
8383
2a2a
8383
2a2a
8383
2929
8383
2a2a
8383
2929
8383
2a2a
8383
2929
8383
2a2a
8383
2929
8383
2a2a
8383
2a2a
8383
2929
8383
2a2a
8383
2929
8383
2a2a
8383
2929
8383
2a2a
8383
2929
8383
2a2a
8383
2a2a
8383
2929
8383
2a2a
8383
2929
8383
2a2a
8383
2929
8383
2a2a
0
0
0
0
0
0
8282
3636
8484
6a6a
8484
6a6a
8484
6a6a
8484
6b6b
8484
6a6a
8484
6a6a
8484
6a6a
8484
6b6b
8484
6a6a
8484
6a6a
8484
6b6b
8484
6a6a
8484
6a6a
8484
6a6a
8484
6b6b
8484
6a6a
8484
6a6a
8484
6a6a
8484
6b6b
0
0
0
0
0
0
0
0
0
0
0
0
0
0
0
0
0
0
0
0
0
0
0
0
8383
6262
8787
4444
8787
4444
8787
4444
8787
4343
8787
4444
8787
4444
8787
4444
8787
4343
8787
4444
8787
4444
8787
4444
8787
4444
0
0
0
0
0
0
8686
5f5f
8d8d
3c3c
8d8d
3d3d
8d8d
3d3d
8d8d
3c3c
8d8d
3d3d
8d8d
3d3d
0
0
0
0
0
0
0
0
0
0
0
0
0
0
0
0
0
0
8e8e
1d1d
9c9c
3939
9c9c
3939
0
0
0
0
0
0
0
0
0
0
c0c0
0
0
0
0
0
0
0
0
0
0
0
0
0
0
0
3636
6a6a
6a6a
6b6b
6a6a
6b6b
6a6a
6a6a
6b6b
6a6a
6b6b
6a6a
6a6a
6b6b
6a6a
6b6b
6a6a
6a6a
6b6b
6a6a
6a6a
6b6b
6a6a
6b6b
6a6a
6a6a
6b6b
6a6a
6b6b
6a6a
6a6a
6b6b
6a6a
6b6b
6a6a
6a6a
6b6b
6a6a
6a6a
6b6b
6a6a
6b6b
6a6a
6a6a
6b6b
6a6a
6b6b
6a6a
6a6a
6b6b
6a6a
6b6b
6a6a
6a6a
6b6b
6a6a
6b6b
6a6a
6a6a
6b6b
6a6a
6a6a
6b6b
6a6a
6b6b
6a6a
6a6a
6b6b
6a6a
6b6b
6a6a
6a6a
6b6b
6a6a
6b6b
6a6a
6a6a
6b6b
6a6a
6a6a
6b6b
6a6a
6b6b
6a6a
6a6a
6b6b
6a6a
6b6b
6a6a
6a6a
6b6b
6a6a
6b6b
6a6a
6a6a
6b6b
6a6a
6a6a
6b6b
6a6a
6b6b
6a6a
6a6a
6b6b
6a6a
6b6b
6a6a
6a6a
6b6b
6a6a
6b6b
6a6a
6a6a
6b6b
6a6a
0
0
0
0
0
0
0
0
0
0
0
0
0
0
0
0
0
0
0
0
0
0
0
0
0
0
0
0
0
0
0
0
0
0
0
0
0
0
0
0
0
0
0
0
0
4040
7e7e
7f7f
7e7e
7f7f
7e7e
7f7f
7e7e
7f7f
7e7e
7f7f
7e7e
7f7f
7e7e
7f7f
7f7f
7e7e
7f7f
7e7e
7f7f
7e7e
7f7f
7e7e
7f7f
7e7e
7f7f
7e7e
7f7f
7e7e
7f7f
7e7e
7f7f
7e7e
7f7f
7e7e
7f7f
7e7e
7f7f
7e7e
7f7f
7e7e
7f7f
7e7e
7f7f
7f7f
7e7e
7f7f
7e7e
7f7f
7e7e
7f7f
7e7e
7f7f
7e7e
7f7f
7e7e
7f7f
7e7e
7f7f
7e7e
7f7f
7e7e
7f7f
7e7e
7f7f
7e7e
7f7f
7e7e
7f7f
7e7e
7f7f
7e7e
7f7f
7f7f
7e7e
7f7f
7e7e
7f7f
7e7e
7f7f
7e7e
7f7f
7e7e
7f7f
7e7e
7f7f
7e7e
7f7f
7e7e
7f7f
7e7e
7f7f
7e7e
7f7f
7e7e
7f7f
7e7e
0
0
0
0
0
0
0
0
0
0
0
0
0
0
0
0
0
0
0
0
0
0
0
0
0
0
0
0
0
0
0
0
0
0
0
0
0
0
0
0
0
0
0
0
0
0
0
0
0
0
0
0
0
0
0
0
0
0
0
0
0
0
0
4d4d
8181
1919
8181
1919
8181
1919
8181
1a1a
8181
1919
8181
1919
8181
1919
8181
1919
8181
1919
8181
1919
8181
1919
8181
1a1a
8181
1919
8181
1919
8181
1919
8181
1919
8181
1919
8181
1919
8181
1919
8181
1919
8181
1a1a
8181
1919
8181
1919
8181
1919
8181
1919
8181
1919
8181
1919
8181
1919
8181
1a1a
8181
1919
8181
1919
8181
1919
8181
1919
8181
1919
8181
1919
8181
1919
8181
1a1a
8181
1919
8181
1919
8181
1919
8181
1919
8181
1919
8181
1919
8181
1919
8181
1a1a
8181
1919
8181
1919
8181
1919
8181
1919
8181
1919
8181
1919
8181
1919
8181
1919
8181
1a1a
8181
1919
8181
1919
8181
1919
8181
1919
8181
1919
8181
1919
8181
1919
8181
1a1a
8181
1919
8181
1919
8181
1919
8181
1919
8181
1919
8181
1919
8181
1919
8181
1a1a
8181
1919
8181
1919
8181
1919
8181
1919
8181
1919
8181
1919
8181
1919
8181
1a1a
8181
1919
0
5f5f
8181
3e3e
8181
3d3d
8181
3d3d
8181
3e3e
8181
3d3d
8181
3e3e
8181
3d3d
8181
3d3d
8181
3e3e
8181
3d3d
8181
3e3e
8181
3d3d
8181
3e3e
8181
3d3d
8181
3d3d
8181
3e3e
8181
3d3d
8181
3e3e
8181
3d3d
8181
3d3d
8181
3e3e
8181
3d3d
8181
3e3e
8181
3d3d
8181
3d3d
8181
3e3e
8181
3d3d
8181
3e3e
8181
3d3d
8181
3e3e
8181
3d3d
8181
3d3d
8181
3e3e
8181
3d3d
8181
3e3e
8181
3d3d
8181
3d3d
8181
3e3e
8181
3d3d
8181
3e3e
8181
3d3d
8181
3d3d
8181
3e3e
8181
3d3d
8181
3e3e
8181
3d3d
8181
3d3d
8181
3e3e
8181
3d3d
8181
3e3e
8181
3d3d
8181
3e3e
8181
3d3d
8181
3d3d
8181
3e3e
8181
3d3d
8181
3e3e
8181
3d3d
8181
3d3d
8181
3e3e
8181
3d3d
8181
3e3e
8181
3d3d
8181
7878
8181
6f6f
8181
6f6f
8181
7070
8181
6f6f
8181
6f6f
8181
6f6f
8181
6f6f
8181
7070
8181
6f6f
8181
6f6f
8181
6f6f
8181
6f6f
8181
6f6f
8181
7070
8181
6f6f
8181
6f6f
8181
6f6f
8181
6f6f
8181
7070
8181
6f6f
8181
6f6f
8181
6f6f
8181
6f6f
8181
6f6f
8181
7070
8181
6f6f
8181
6f6f
8181
6f6f
8181
6f6f
8181
7070
8181
6f6f
8181
6f6f
8181
6f6f
8181
6f6f
8181
6f6f
8181
7070
8181
6f6f
8181
6f6f
8181
6f6f
8181
6f6f
8181
7070
8181
6f6f
8181
6f6f
8181
6f6f
8181
6f6f
8181
6f6f
8181
7070
8181
8181
1d1d
8282
3838
8282
3838
8282
3838
8282
3838
8282
3838
8282
3838
8282
3838
8282
3838
8282
3838
8282
3838
8282
3838
8282
3838
8282
3939
8282
3838
8282
3838
8282
3838
8282
3838
8282
3838
8282
3838
8282
3838
8282
3838
8282
3838
8282
3838
8282
3838
8282
3838
8282
3939
8282
3838
8282
3838
8282
3838
8282
3838
8282
3838
8282
3838
8282
3838
8282
3838
8282
3838
8282
3838
8282
3838
8282
3838
0
0
0
0
0
0
0
0
0
0
0
0
0
0
0
0
0
0
8181
5555
8383
2a2a
8383
2929
8383
2a2a
8383
2a2a
8383
2929
8383
2a2a
8383
2929
8383
2a2a
8383
2929
8383
2a2a
8383
2929
8383
2a2a
8383
2a2a
8383
2929
8383
2a2a
8383
2929
8383
2a2a
8383
2929
8383
2a2a
8383
2929
8383
2a2a
8383
2a2a
8383
2929
8383
2a2a
8383
2929
8383
2a2a
8383
2929
8383
2a2a
0
0
0
0
0
0
8282
3636
8484
6a6a
8484
6a6a
8484
6a6a
8484
6b6b
8484
6a6a
8484
6a6a
8484
6a6a
8484
6b6b
8484
6a6a
8484
6a6a
8484
6b6b
8484
6a6a
8484
6a6a
8484
6a6a
8484
6b6b
8484
6a6a
8484
6a6a
8484
6a6a
8484
6b6b
0
0
0
0
0
0
0
0
0
0
0
0
0
0
0
0
0
0
0
0
0
0
0
0
8383
6262
8787
4444
8787
4444
8787
4444
8787
4343
8787
4444
8787
4444
8787
4444
8787
4343
8787
4444
8787
4444
8787
4444
8787
4444
0
0
0
0
0
0
8686
5f5f
8d8d
3c3c
8d8d
3d3d
8d8d
3d3d
8d8d
3c3c
8d8d
3d3d
8d8d
3d3d
0
0
0
0
0
0
0
0
0
0
0
0
0
0
0
0
0
0
8e8e
1d1d
9c9c
3939
9c9c
3939
0
0
0
0
0
0
0
0
0
0
c0c0
0
0
0
0
0
0
0
0
0
0
0
0
0
0
0
3636
6a6a
6a6a
6b6b
6a6a
6b6b
6a6a
6a6a
6b6b
6a6a
6b6b
6a6a
6a6a
6b6b
6a6a
6b6b
6a6a
6a6a
6b6b
6a6a
6a6a
6b6b
6a6a
6b6b
6a6a
6a6a
6b6b
6a6a
6b6b
6a6a
6a6a
6b6b
6a6a
6b6b
6a6a
6a6a
6b6b
6a6a
6a6a
6b6b
6a6a
6b6b
6a6a
6a6a
6b6b
6a6a
6b6b
6a6a
6a6a
6b6b
6a6a
6b6b
6a6a
6a6a
6b6b
6a6a
6b6b
6a6a
6a6a
6b6b
6a6a
6a6a
6b6b
6a6a
6b6b
6a6a
6a6a
6b6b
6a6a
6b6b
6a6a
6a6a
6b6b
6a6a
6b6b
6a6a
6a6a
6b6b
6a6a
6a6a
6b6b
6a6a
6b6b
6a6a
6a6a
6b6b
6a6a
6b6b
6a6a
6a6a
6b6b
6a6a
6b6b
6a6a
6a6a
6b6b
6a6a
6a6a
6b6b
6a6a
6b6b
6a6a
6a6a
6b6b
6a6a
6b6b
6a6a
6a6a
6b6b
6a6a
6b6b
6a6a
6a6a
6b6b
6a6a
0
0
0
0
0
0
0
0
0
0
0
0
0
0
0
0
0
0
0
0
0
0
0
0
0
0
0
0
0
0
0
0
0
0
0
0
0
0
0
0
0
0
0
0
0
4040
7e7e
7f7f
7e7e
7f7f
7e7e
7f7f
7e7e
7f7f
7e7e
7f7f
7e7e
7f7f
7e7e
7f7f
7f7f
7e7e
7f7f
7e7e
7f7f
7e7e
7f7f
7e7e
7f7f
7e7e
7f7f
7e7e
7f7f
7e7e
7f7f
7e7e
7f7f
7e7e
7f7f
7e7e
7f7f
7e7e
7f7f
7e7e
7f7f
7e7e
7f7f
7e7e
7f7f
7f7f
7e7e
7f7f
7e7e
7f7f
7e7e
7f7f
7e7e
7f7f
7e7e
7f7f
7e7e
7f7f
7e7e
7f7f
7e7e
7f7f
7e7e
7f7f
7e7e
7f7f
7e7e
7f7f
7e7e
7f7f
7e7e
7f7f
7e7e
7f7f
7f7f
7e7e
7f7f
7e7e
7f7f
7e7e
7f7f
7e7e
7f7f
7e7e
7f7f
7e7e
7f7f
7e7e
7f7f
7e7e
7f7f
7e7e
7f7f
7e7e
7f7f
7e7e
7f7f
7e7e
0
0
0
0
0
0
0
0
0
0
0
0
0
0
0
0
0
0
0
0
0
0
0
0
0
0
0
0
0
0
0
0
0
0
0
0
0
0
0
0
0
0
0
0
0
0
0
0
0
0
0
0
0
0
0
0
0
0
0
0
0
0
0
4d4d
8181
1919
8181
1919
8181
1919
8181
1a1a
8181
1919
8181
1919
8181
1919
8181
1919
8181
1919
8181
1919
8181
1919
8181
1a1a
8181
1919
8181
1919
8181
1919
8181
1919
8181
1919
8181
1919
8181
1919
8181
1919
8181
1a1a
8181
1919
8181
1919
8181
1919
8181
1919
8181
1919
8181
1919
8181
1919
8181
1a1a
8181
1919
8181
1919
8181
1919
8181
1919
8181
1919
8181
1919
8181
1919
8181
1a1a
8181
1919
8181
1919
8181
1919
8181
1919
8181
1919
8181
1919
8181
1919
8181
1a1a
8181
1919
8181
1919
8181
1919
8181
1919
8181
1919
8181
1919
8181
1919
8181
1919
8181
1a1a
8181
1919
8181
1919
8181
1919
8181
1919
8181
1919
8181
1919
8181
1919
8181
1a1a
8181
1919
8181
1919
8181
1919
8181
1919
8181
1919
8181
1919
8181
1919
8181
1a1a
8181
1919
8181
1919
8181
1919
8181
1919
8181
1919
8181
1919
8181
1919
8181
1a1a
8181
1919
0
5f5f
8181
3e3e
8181
3d3d
8181
3d3d
8181
3e3e
8181
3d3d
8181
3e3e
8181
3d3d
8181
3d3d
8181
3e3e
8181
3d3d
8181
3e3e
8181
3d3d
8181
3e3e
8181
3d3d
8181
3d3d
8181
3e3e
8181
3d3d
8181
3e3e
8181
3d3d
8181
3d3d
8181
3e3e
8181
3d3d
8181
3e3e
8181
3d3d
8181
3d3d
8181
3e3e
8181
3d3d
8181
3e3e
8181
3d3d
8181
3e3e
8181
3d3d
8181
3d3d
8181
3e3e
8181
3d3d
8181
3e3e
8181
3d3d
8181
3d3d
8181
3e3e
8181
3d3d
8181
3e3e
8181
3d3d
8181
3d3d
8181
3e3e
8181
3d3d
8181
3e3e
8181
3d3d
8181
3d3d
8181
3e3e
8181
3d3d
8181
3e3e
8181
3d3d
8181
3e3e
8181
3d3d
8181
3d3d
8181
3e3e
8181
3d3d
8181
3e3e
8181
3d3d
8181
3d3d
8181
3e3e
8181
3d3d
8181
3e3e
8181
3d3d
8181
7878
8181
6f6f
8181
6f6f
8181
7070
8181
6f6f
8181
6f6f
8181
6f6f
8181
6f6f
8181
7070
8181
6f6f
8181
6f6f
8181
6f6f
8181
6f6f
8181
6f6f
8181
7070
8181
6f6f
8181
6f6f
8181
6f6f
8181
6f6f
8181
7070
8181
6f6f
8181
6f6f
8181
6f6f
8181
6f6f
8181
6f6f
8181
7070
8181
6f6f
8181
6f6f
8181
6f6f
8181
6f6f
8181
7070
8181
6f6f
8181
6f6f
8181
6f6f
8181
6f6f
8181
6f6f
8181
7070
8181
6f6f
8181
6f6f
8181
6f6f
8181
6f6f
8181
7070
8181
6f6f
8181
6f6f
8181
6f6f
8181
6f6f
8181
6f6f
8181
7070
8181
8181
1d1d
8282
3838
8282
3838
8282
3838
8282
3838
8282
3838
8282
3838
8282
3838
8282
3838
8282
3838
8282
3838
8282
3838
8282
3838
8282
3939
8282
3838
8282
3838
8282
3838
8282
3838
8282
3838
8282
3838
8282
3838
8282
3838
8282
3838
8282
3838
8282
3838
8282
3838
8282
3939
8282
3838
8282
3838
8282
3838
8282
3838
8282
3838
8282
3838
8282
3838
8282
3838
8282
3838
8282
3838
8282
3838
8282
3838
0
0
0
0
0
0
0
0
0
0
0
0
0
0
0
0
0
0
8181
5555
8383
2a2a
8383
2929
8383
2a2a
8383
2a2a
8383
2929
8383
2a2a
8383
2929
8383
2a2a
8383
2929
8383
2a2a
8383
2929
8383
2a2a
8383
2a2a
8383
2929
8383
2a2a
8383
2929
8383
2a2a
8383
2929
8383
2a2a
8383
2929
8383
2a2a
8383
2a2a
8383
2929
8383
2a2a
8383
2929
8383
2a2a
8383
2929
8383
2a2a
0
0
0
0
0
0
8282
3636
8484
6a6a
8484
6a6a
8484
6a6a
8484
6b6b
8484
6a6a
8484
6a6a
8484
6a6a
8484
6b6b
8484
6a6a
8484
6a6a
8484
6b6b
8484
6a6a
8484
6a6a
8484
6a6a
8484
6b6b
8484
6a6a
8484
6a6a
8484
6a6a
8484
6b6b
0
0
0
0
0
0
0
0
0
0
0
0
0
0
0
0
0
0
0
0
0
0
0
0
8383
6262
8787
4444
8787
4444
8787
4444
8787
4343
8787
4444
8787
4444
8787
4444
8787
4343
8787
4444
8787
4444
8787
4444
8787
4444
0
0
0
0
0
0
8686
5f5f
8d8d
3c3c
8d8d
3d3d
8d8d
3d3d
8d8d
3c3c
8d8d
3d3d
8d8d
3d3d
0
0
0
0
0
0
0
0
0
0
0
0
0
0
0
0
0
0
8e8e
1d1d
9c9c
3939
9c9c
3939
0
0
0
0
0
0
0
0
0
0
c0c0
0
0
0
0
0
0
0
0
0
0
0
0
0
0
0
3636
6a6a
6a6a
6b6b
6a6a
6b6b
6a6a
6a6a
6b6b
6a6a
6b6b
6a6a
6a6a
6b6b
6a6a
6b6b
6a6a
6a6a
6b6b
6a6a
6a6a
6b6b
6a6a
6b6b
6a6a
6a6a
6b6b
6a6a
6b6b
6a6a
6a6a
6b6b
6a6a
6b6b
6a6a
6a6a
6b6b
6a6a
6a6a
6b6b
6a6a
6b6b
6a6a
6a6a
6b6b
6a6a
6b6b
6a6a
6a6a
6b6b
6a6a
6b6b
6a6a
6a6a
6b6b
6a6a
6b6b
6a6a
6a6a
6b6b
6a6a
6a6a
6b6b
6a6a
6b6b
6a6a
6a6a
6b6b
6a6a
6b6b
6a6a
6a6a
6b6b
6a6a
6b6b
6a6a
6a6a
6b6b
6a6a
6a6a
6b6b
6a6a
6b6b
6a6a
6a6a
6b6b
6a6a
6b6b
6a6a
6a6a
6b6b
6a6a
6b6b
6a6a
6a6a
6b6b
6a6a
6a6a
6b6b
6a6a
6b6b
6a6a
6a6a
6b6b
6a6a
6b6b
6a6a
6a6a
6b6b
6a6a
6b6b
6a6a
6a6a
6b6b
6a6a
0
0
0
0
0
0
0
0
0
0
0
0
0
0
0
0
0
0
0
0
0
0
0
0
0
0
0
0
0
0
0
0
0
0
0
0
0
0
0
0
0
0
0
0
0
4040
7e7e
7f7f
7e7e
7f7f
7e7e
7f7f
7e7e
7f7f
7e7e
7f7f
7e7e
7f7f
7e7e
7f7f
7f7f
7e7e
7f7f
7e7e
7f7f
7e7e
7f7f
7e7e
7f7f
7e7e
7f7f
7e7e
7f7f
7e7e
7f7f
7e7e
7f7f
7e7e
7f7f
7e7e
7f7f
7e7e
7f7f
7e7e
7f7f
7e7e
7f7f
7e7e
7f7f
7f7f
7e7e
7f7f
7e7e
7f7f
7e7e
7f7f
7e7e
7f7f
7e7e
7f7f
7e7e
7f7f
7e7e
7f7f
7e7e
7f7f
7e7e
7f7f
7e7e
7f7f
7e7e
7f7f
7e7e
7f7f
7e7e
7f7f
7e7e
7f7f
7f7f
7e7e
7f7f
7e7e
7f7f
7e7e
7f7f
7e7e
7f7f
7e7e
7f7f
7e7e
7f7f
7e7e
7f7f
7e7e
7f7f
7e7e
7f7f
7e7e
7f7f
7e7e
7f7f
7e7e
0
0
0
0
0
0
0
0
0
0
0
0
0
0
0
0
0
0
0
0
0
0
0
0
0
0
0
0
0
0
0
0
0
0
0
0
0
0
0
0
0
0
0
0
0
0
0
0
0
0
0
0
0
0
0
0
0
0
0
0
0
0
0
4d4d
8181
1919
8181
1919
8181
1919
8181
1a1a
8181
1919
8181
1919
8181
1919
8181
1919
8181
1919
8181
1919
8181
1919
8181
1a1a
8181
1919
8181
1919
8181
1919
8181
1919
8181
1919
8181
1919
8181
1919
8181
1919
8181
1a1a
8181
1919
8181
1919
8181
1919
8181
1919
8181
1919
8181
1919
8181
1919
8181
1a1a
8181
1919
8181
1919
8181
1919
8181
1919
8181
1919
8181
1919
8181
1919
8181
1a1a
8181
1919
8181
1919
8181
1919
8181
1919
8181
1919
8181
1919
8181
1919
8181
1a1a
8181
1919
8181
1919
8181
1919
8181
1919
8181
1919
8181
1919
8181
1919
8181
1919
8181
1a1a
8181
1919
8181
1919
8181
1919
8181
1919
8181
1919
8181
1919
8181
1919
8181
1a1a
8181
1919
8181
1919
8181
1919
8181
1919
8181
1919
8181
1919
8181
1919
8181
1a1a
8181
1919
8181
1919
8181
1919
8181
1919
8181
1919
8181
1919
8181
1919
8181
1a1a
8181
1919
0
5f5f
8181
3e3e
8181
3d3d
8181
3d3d
8181
3e3e
8181
3d3d
8181
3e3e
8181
3d3d
8181
3d3d
8181
3e3e
8181
3d3d
8181
3e3e
8181
3d3d
8181
3e3e
8181
3d3d
8181
3d3d
8181
3e3e
8181
3d3d
8181
3e3e
8181
3d3d
8181
3d3d
8181
3e3e
8181
3d3d
8181
3e3e
8181
3d3d
8181
3d3d
8181
3e3e
8181
3d3d
8181
3e3e
8181
3d3d
8181
3e3e
8181
3d3d
8181
3d3d
8181
3e3e
8181
3d3d
8181
3e3e
8181
3d3d
8181
3d3d
8181
3e3e
8181
3d3d
8181
3e3e
8181
3d3d
8181
3d3d
8181
3e3e
8181
3d3d
8181
3e3e
8181
3d3d
8181
3d3d
8181
3e3e
8181
3d3d
8181
3e3e
8181
3d3d
8181
3e3e
8181
3d3d
8181
3d3d
8181
3e3e
8181
3d3d
8181
3e3e
8181
3d3d
8181
3d3d
8181
3e3e
8181
3d3d
8181
3e3e
8181
3d3d
8181
7878
8181
6f6f
8181
6f6f
8181
7070
8181
6f6f
8181
6f6f
8181
6f6f
8181
6f6f
8181
7070
8181
6f6f
8181
6f6f
8181
6f6f
8181
6f6f
8181
6f6f
8181
7070
8181
6f6f
8181
6f6f
8181
6f6f
8181
6f6f
8181
7070
8181
6f6f
8181
6f6f
8181
6f6f
8181
6f6f
8181
6f6f
8181
7070
8181
6f6f
8181
6f6f
8181
6f6f
8181
6f6f
8181
7070
8181
6f6f
8181
6f6f
8181
6f6f
8181
6f6f
8181
6f6f
8181
7070
8181
6f6f
8181
6f6f
8181
6f6f
8181
6f6f
8181
7070
8181
6f6f
8181
6f6f
8181
6f6f
8181
6f6f
8181
6f6f
8181
7070
8181
8181
1d1d
8282
3838
8282
3838
8282
3838
8282
3838
8282
3838
8282
3838
8282
3838
8282
3838
8282
3838
8282
3838
8282
3838
8282
3838
8282
3939
8282
3838
8282
3838
8282
3838
8282
3838
8282
3838
8282
3838
8282
3838
8282
3838
8282
3838
8282
3838
8282
3838
8282
3838
8282
3939
8282
3838
8282
3838
8282
3838
8282
3838
8282
3838
8282
3838
8282
3838
8282
3838
8282
3838
8282
3838
8282
3838
8282
3838
0
0
0
0
0
0
0
0
0
0
0
0
0
0
0
0
0
0
8181
5555
8383
2a2a
8383
2929
8383
2a2a
8383
2a2a
8383
2929
8383
2a2a
8383
2929
8383
2a2a
8383
2929
8383
2a2a
8383
2929
8383
2a2a
8383
2a2a
8383
2929
8383
2a2a
8383
2929
8383
2a2a
8383
2929
8383
2a2a
8383
2929
8383
2a2a
8383
2a2a
8383
2929
8383
2a2a
8383
2929
8383
2a2a
8383
2929
8383
2a2a
0
0
0
0
0
0
8282
3636
8484
6a6a
8484
6a6a
8484
6a6a
8484
6b6b
8484
6a6a
8484
6a6a
8484
6a6a
8484
6b6b
8484
6a6a
8484
6a6a
8484
6b6b
8484
6a6a
8484
6a6a
8484
6a6a
8484
6b6b
8484
6a6a
8484
6a6a
8484
6a6a
8484
6b6b
0
0
0
0
0
0
0
0
0
0
0
0
0
0
0
0
0
0
0
0
0
0
0
0
8383
6262
8787
4444
8787
4444
8787
4444
8787
4343
8787
4444
8787
4444
8787
4444
8787
4343
8787
4444
8787
4444
8787
4444
8787
4444
0
0
0
0
0
0
8686
5f5f
8d8d
3c3c
8d8d
3d3d
8d8d
3d3d
8d8d
3c3c
8d8d
3d3d
8d8d
3d3d
0
0
0
0
0
0
0
0
0
0
0
0
0
0
0
0
0
0
8e8e
1d1d
9c9c
3939
9c9c
3939
0
0
0
0
0
0
0
0
0
0
c0c0
0
0
0
0
0
0
0
0
0
0
0
0
0
0
0
3636
6a6a
6a6a
6b6b
6a6a
6b6b
6a6a
6a6a
6b6b
6a6a
6b6b
6a6a
6a6a
6b6b
6a6a
6b6b
6a6a
6a6a
6b6b
6a6a
6a6a
6b6b
6a6a
6b6b
6a6a
6a6a
6b6b
6a6a
6b6b
6a6a
6a6a
6b6b
6a6a
6b6b
6a6a
6a6a
6b6b
6a6a
6a6a
6b6b
6a6a
6b6b
6a6a
6a6a
6b6b
6a6a
6b6b
6a6a
6a6a
6b6b
6a6a
6b6b
6a6a
6a6a
6b6b
6a6a
6b6b
6a6a
6a6a
6b6b
6a6a
6a6a
6b6b
6a6a
6b6b
6a6a
6a6a
6b6b
6a6a
6b6b
6a6a
6a6a
6b6b
6a6a
6b6b
6a6a
6a6a
6b6b
6a6a
6a6a
6b6b
6a6a
6b6b
6a6a
6a6a
6b6b
6a6a
6b6b
6a6a
6a6a
6b6b
6a6a
6b6b
6a6a
6a6a
6b6b
6a6a
6a6a
6b6b
6a6a
6b6b
6a6a
6a6a
6b6b
6a6a
6b6b
6a6a
6a6a
6b6b
6a6a
6b6b
6a6a
6a6a
6b6b
6a6a
0
0
0
0
0
0
0
0
0
0
0
0
0
0
0
0
0
0
0
0
0
0
0
0
0
0
0
0
0
0
0
0
0
0
0
0
0
0
0
0
0
0
0
0
0
4040
7e7e
7f7f
7e7e
7f7f
7e7e
7f7f
7e7e
7f7f
7e7e
7f7f
7e7e
7f7f
7e7e
7f7f
7f7f
7e7e
7f7f
7e7e
7f7f
7e7e
7f7f
7e7e
7f7f
7e7e
7f7f
7e7e
7f7f
7e7e
7f7f
7e7e
7f7f
7e7e
7f7f
7e7e
7f7f
7e7e
7f7f
7e7e
7f7f
7e7e
7f7f
7e7e
7f7f
7f7f
7e7e
7f7f
7e7e
7f7f
7e7e
7f7f
7e7e
7f7f
7e7e
7f7f
7e7e
7f7f
7e7e
7f7f
7e7e
7f7f
7e7e
7f7f
7e7e
7f7f
7e7e
7f7f
7e7e
7f7f
7e7e
7f7f
7e7e
7f7f
7f7f
7e7e
7f7f
7e7e
7f7f
7e7e
7f7f
7e7e
7f7f
7e7e
7f7f
7e7e
7f7f
7e7e
7f7f
7e7e
7f7f
7e7e
7f7f
7e7e
7f7f
7e7e
7f7f
7e7e
0
0
0
0
0
0
0
0
0
0
0
0
0
0
0
0
0
0
0
0
0
0
0
0
0
0
0
0
0
0
0
0
0
0
0
0
0
0
0
0
0
0
0
0
0
0
0
0
0
0
0
0
0
0
0
0
0
0
0
0
0
0
0
4d4d
8181
1919
8181
1919
8181
1919
8181
1a1a
8181
1919
8181
1919
8181
1919
8181
1919
8181
1919
8181
1919
8181
1919
8181
1a1a
8181
1919
8181
1919
8181
1919
8181
1919
8181
1919
8181
1919
8181
1919
8181
1919
8181
1a1a
8181
1919
8181
1919
8181
1919
8181
1919
8181
1919
8181
1919
8181
1919
8181
1a1a
8181
1919
8181
1919
8181
1919
8181
1919
8181
1919
8181
1919
8181
1919
8181
1a1a
8181
1919
8181
1919
8181
1919
8181
1919
8181
1919
8181
1919
8181
1919
8181
1a1a
8181
1919
8181
1919
8181
1919
8181
1919
8181
1919
8181
1919
8181
1919
8181
1919
8181
1a1a
8181
1919
8181
1919
8181
1919
8181
1919
8181
1919
8181
1919
8181
1919
8181
1a1a
8181
1919
8181
1919
8181
1919
8181
1919
8181
1919
8181
1919
8181
1919
8181
1a1a
8181
1919
8181
1919
8181
1919
8181
1919
8181
1919
8181
1919
8181
1919
8181
1a1a
8181
1919
0
5f5f
8181
3e3e
8181
3d3d
8181
3d3d
8181
3e3e
8181
3d3d
8181
3e3e
8181
3d3d
8181
3d3d
8181
3e3e
8181
3d3d
8181
3e3e
8181
3d3d
8181
3e3e
8181
3d3d
8181
3d3d
8181
3e3e
8181
3d3d
8181
3e3e
8181
3d3d
8181
3d3d
8181
3e3e
8181
3d3d
8181
3e3e
8181
3d3d
8181
3d3d
8181
3e3e
8181
3d3d
8181
3e3e
8181
3d3d
8181
3e3e
8181
3d3d
8181
3d3d
8181
3e3e
8181
3d3d
8181
3e3e
8181
3d3d
8181
3d3d
8181
3e3e
8181
3d3d
8181
3e3e
8181
3d3d
8181
3d3d
8181
3e3e
8181
3d3d
8181
3e3e
8181
3d3d
8181
3d3d
8181
3e3e
8181
3d3d
8181
3e3e
8181
3d3d
8181
3e3e
8181
3d3d
8181
3d3d
8181
3e3e
8181
3d3d
8181
3e3e
8181
3d3d
8181
3d3d
8181
3e3e
8181
3d3d
8181
3e3e
8181
3d3d
8181
7878
8181
6f6f
8181
6f6f
8181
7070
8181
6f6f
8181
6f6f
8181
6f6f
8181
6f6f
8181
7070
8181
6f6f
8181
6f6f
8181
6f6f
8181
6f6f
8181
6f6f
8181
7070
8181
6f6f
8181
6f6f
8181
6f6f
8181
6f6f
8181
7070
8181
6f6f
8181
6f6f
8181
6f6f
8181
6f6f
8181
6f6f
8181
7070
8181
6f6f
8181
6f6f
8181
6f6f
8181
6f6f
8181
7070
8181
6f6f
8181
6f6f
8181
6f6f
8181
6f6f
8181
6f6f
8181
7070
8181
6f6f
8181
6f6f
8181
6f6f
8181
6f6f
8181
7070
8181
6f6f
8181
6f6f
8181
6f6f
8181
6f6f
8181
6f6f
8181
7070
8181
8181
1d1d
8282
3838
8282
3838
8282
3838
8282
3838
8282
3838
8282
3838
8282
3838
8282
3838
8282
3838
8282
3838
8282
3838
8282
3838
8282
3939
8282
3838
8282
3838
8282
3838
8282
3838
8282
3838
8282
3838
8282
3838
8282
3838
8282
3838
8282
3838
8282
3838
8282
3838
8282
3939
8282
3838
8282
3838
8282
3838
8282
3838
8282
3838
8282
3838
8282
3838
8282
3838
8282
3838
8282
3838
8282
3838
8282
3838
0
0
0
0
0
0
0
0
0
0
0
0
0
0
0
0
0
0
8181
5555
8383
2a2a
8383
2929
8383
2a2a
8383
2a2a
8383
2929
8383
2a2a
8383
2929
8383
2a2a
8383
2929
8383
2a2a
8383
2929
8383
2a2a
8383
2a2a
8383
2929
8383
2a2a
8383
2929
8383
2a2a
8383
2929
8383
2a2a
8383
2929
8383
2a2a
8383
2a2a
8383
2929
8383
2a2a
8383
2929
8383
2a2a
8383
2929
8383
2a2a
0
0
0
0
0
0
8282
3636
8484
6a6a
8484
6a6a
8484
6a6a
8484
6b6b
8484
6a6a
8484
6a6a
8484
6a6a
8484
6b6b
8484
6a6a
8484
6a6a
8484
6b6b
8484
6a6a
8484
6a6a
8484
6a6a
8484
6b6b
8484
6a6a
8484
6a6a
8484
6a6a
8484
6b6b
0
0
0
0
0
0
0
0
0
0
0
0
0
0
0
0
0
0
0
0
0
0
0
0
8383
6262
8787
4444
8787
4444
8787
4444
8787
4343
8787
4444
8787
4444
8787
4444
8787
4343
8787
4444
8787
4444
8787
4444
8787
4444
0
0
0
0
0
0
8686
5f5f
8d8d
3c3c
8d8d
3d3d
8d8d
3d3d
8d8d
3c3c
8d8d
3d3d
8d8d
3d3d
0
0
0
0
0
0
0
0
0
0
0
0
0
0
0
0
0
0
8e8e
1d1d
9c9c
3939
9c9c
3939
0
0
0
0
0
0
0
0
0
0
c0c0
0
0
0
0
0
0
0
0
0
0
0
0
0
0
0
3636
6a6a
6a6a
6b6b
6a6a
6b6b
6a6a
6a6a
6b6b
6a6a
6b6b
6a6a
6a6a
6b6b
6a6a
6b6b
6a6a
6a6a
6b6b
6a6a
6a6a
6b6b
6a6a
6b6b
6a6a
6a6a
6b6b
6a6a
6b6b
6a6a
6a6a
6b6b
6a6a
6b6b
6a6a
6a6a
6b6b
6a6a
6a6a
6b6b
6a6a
6b6b
6a6a
6a6a
6b6b
6a6a
6b6b
6a6a
6a6a
6b6b
6a6a
6b6b
6a6a
6a6a
6b6b
6a6a
6b6b
6a6a
6a6a
6b6b
6a6a
6a6a
6b6b
6a6a
6b6b
6a6a
6a6a
6b6b
6a6a
6b6b
6a6a
6a6a
6b6b
6a6a
6b6b
6a6a
6a6a
6b6b
6a6a
6a6a
6b6b
6a6a
6b6b
6a6a
6a6a
6b6b
6a6a
6b6b
6a6a
6a6a
6b6b
6a6a
6b6b
6a6a
6a6a
6b6b
6a6a
6a6a
6b6b
6a6a
6b6b
6a6a
6a6a
6b6b
6a6a
6b6b
6a6a
6a6a
6b6b
6a6a
6b6b
6a6a
6a6a
6b6b
6a6a
0
0
0
0
0
0
0
0
0
0
0
0
0
0
0
0
0
0
0
0
0
0
0
0
0
0
0
0
0
0
0
0
0
0
0
0
0
0
0
0
0
0
0
0
0
4040
7e7e
7f7f
7e7e
7f7f
7e7e
7f7f
7e7e
7f7f
7e7e
7f7f
7e7e
7f7f
7e7e
7f7f
7f7f
7e7e
7f7f
7e7e
7f7f
7e7e
7f7f
7e7e
7f7f
7e7e
7f7f
7e7e
7f7f
7e7e
7f7f
7e7e
7f7f
7e7e
7f7f
7e7e
7f7f
7e7e
7f7f
7e7e
7f7f
7e7e
7f7f
7e7e
7f7f
7f7f
7e7e
7f7f
7e7e
7f7f
7e7e
7f7f
7e7e
7f7f
7e7e
7f7f
7e7e
7f7f
7e7e
7f7f
7e7e
7f7f
7e7e
7f7f
7e7e
7f7f
7e7e
7f7f
7e7e
7f7f
7e7e
7f7f
7e7e
7f7f
7f7f
7e7e
7f7f
7e7e
7f7f
7e7e
7f7f
7e7e
7f7f
7e7e
7f7f
7e7e
7f7f
7e7e
7f7f
7e7e
7f7f
7e7e
7f7f
7e7e
7f7f
7e7e
7f7f
7e7e
0
0
0
0
0
0
0
0
0
0
0
0
0
0
0
0
0
0
0
0
0
0
0
0
0
0
0
0
0
0
0
0
0
0
0
0
0
0
0
0
0
0
0
0
0
0
0
0
0
0
0
0
0
0
0
0
0
0
0
0
0
0
0
4d4d
8181
1919
8181
1919
8181
1919
8181
1a1a
8181
1919
8181
1919
8181
1919
8181
1919
8181
1919
8181
1919
8181
1919
8181
1a1a
8181
1919
8181
1919
8181
1919
8181
1919
8181
1919
8181
1919
8181
1919
8181
1919
8181
1a1a
8181
1919
8181
1919
8181
1919
8181
1919
8181
1919
8181
1919
8181
1919
8181
1a1a
8181
1919
8181
1919
8181
1919
8181
1919
8181
1919
8181
1919
8181
1919
8181
1a1a
8181
1919
8181
1919
8181
1919
8181
1919
8181
1919
8181
1919
8181
1919
8181
1a1a
8181
1919
8181
1919
8181
1919
8181
1919
8181
1919
8181
1919
8181
1919
8181
1919
8181
1a1a
8181
1919
8181
1919
8181
1919
8181
1919
8181
1919
8181
1919
8181
1919
8181
1a1a
8181
1919
8181
1919
8181
1919
8181
1919
8181
1919
8181
1919
8181
1919
8181
1a1a
8181
1919
8181
1919
8181
1919
8181
1919
8181
1919
8181
1919
8181
1919
8181
1a1a
8181
1919
0
5f5f
8181
3e3e
8181
3d3d
8181
3d3d
8181
3e3e
8181
3d3d
8181
3e3e
8181
3d3d
8181
3d3d
8181
3e3e
8181
3d3d
8181
3e3e
8181
3d3d
8181
3e3e
8181
3d3d
8181
3d3d
8181
3e3e
8181
3d3d
8181
3e3e
8181
3d3d
8181
3d3d
8181
3e3e
8181
3d3d
8181
3e3e
8181
3d3d
8181
3d3d
8181
3e3e
8181
3d3d
8181
3e3e
8181
3d3d
8181
3e3e
8181
3d3d
8181
3d3d
8181
3e3e
8181
3d3d
8181
3e3e
8181
3d3d
8181
3d3d
8181
3e3e
8181
3d3d
8181
3e3e
8181
3d3d
8181
3d3d
8181
3e3e
8181
3d3d
8181
3e3e
8181
3d3d
8181
3d3d
8181
3e3e
8181
3d3d
8181
3e3e
8181
3d3d
8181
3e3e
8181
3d3d
8181
3d3d
8181
3e3e
8181
3d3d
8181
3e3e
8181
3d3d
8181
3d3d
8181
3e3e
8181
3d3d
8181
3e3e
8181
3d3d
8181
7878
8181
6f6f
8181
6f6f
8181
7070
8181
6f6f
8181
6f6f
8181
6f6f
8181
6f6f
8181
7070
8181
6f6f
8181
6f6f
8181
6f6f
8181
6f6f
8181
6f6f
8181
7070
8181
6f6f
8181
6f6f
8181
6f6f
8181
6f6f
8181
7070
8181
6f6f
8181
6f6f
8181
6f6f
8181
6f6f
8181
6f6f
8181
7070
8181
6f6f
8181
6f6f
8181
6f6f
8181
6f6f
8181
7070
8181
6f6f
8181
6f6f
8181
6f6f
8181
6f6f
8181
6f6f
8181
7070
8181
6f6f
8181
6f6f
8181
6f6f
8181
6f6f
8181
7070
8181
6f6f
8181
6f6f
8181
6f6f
8181
6f6f
8181
6f6f
8181
7070
8181
8181
1d1d
8282
3838
8282
3838
8282
3838
8282
3838
8282
3838
8282
3838
8282
3838
8282
3838
8282
3838
8282
3838
8282
3838
8282
3838
8282
3939
8282
3838
8282
3838
8282
3838
8282
3838
8282
3838
8282
3838
8282
3838
8282
3838
8282
3838
8282
3838
8282
3838
8282
3838
8282
3939
8282
3838
8282
3838
8282
3838
8282
3838
8282
3838
8282
3838
8282
3838
8282
3838
8282
3838
8282
3838
8282
3838
8282
3838
0
0
0
0
0
0
0
0
0
0
0
0
0
0
0
0
0
0
8181
5555
8383
2a2a
8383
2929
8383
2a2a
8383
2a2a
8383
2929
8383
2a2a
8383
2929
8383
2a2a
8383
2929
8383
2a2a
8383
2929
8383
2a2a
8383
2a2a
8383
2929
8383
2a2a
8383
2929
8383
2a2a
8383
2929
8383
2a2a
8383
2929
8383
2a2a
8383
2a2a
8383
2929
8383
2a2a
8383
2929
8383
2a2a
8383
2929
8383
2a2a
0
0
0
0
0
0
8282
3636
8484
6a6a
8484
6a6a
8484
6a6a
8484
6b6b
8484
6a6a
8484
6a6a
8484
6a6a
8484
6b6b
8484
6a6a
8484
6a6a
8484
6b6b
8484
6a6a
8484
6a6a
8484
6a6a
8484
6b6b
8484
6a6a
8484
6a6a
8484
6a6a
8484
6b6b
0
0
0
0
0
0
0
0
0
0
0
0
0
0
0
0
0
0
0
0
0
0
0
0
8383
6262
8787
4444
8787
4444
8787
4444
8787
4343
8787
4444
8787
4444
8787
4444
8787
4343
8787
4444
8787
4444
8787
4444
8787
4444
0
0
0
0
0
0
8686
5f5f
8d8d
3c3c
8d8d
3d3d
8d8d
3d3d
8d8d
3c3c
8d8d
3d3d
8d8d
3d3d
0
0
0
0
0
0
0
0
0
0
0
0
0
0
0
0
0
0
8e8e
1d1d
9c9c
3939
9c9c
3939
0
0
0
0
0
0
0
0
0
0
c0c0
0
0
0
0
0
0
0
0
0
0
0
0
0
0
0
